<svg xmlns="http://www.w3.org/2000/svg" viewBox="2275.348 1978.329 452 310">
  <defs>
    <style>
      .cls-1 {
        fill: #bdbdec;
      }

      .cls-2 {
        fill: #e8e8fc;
      }

      .cls-3 {
        fill: #6bb1ef;
      }

      .cls-4, .cls-5 {
        fill: #fff;
      }

      .cls-5 {
        opacity: 0.35;
      }

      .cls-6 {
        fill: #ffa272;
      }

      .cls-7 {
        fill: #72d7e4;
      }

      .cls-8 {
        fill: #ff3c88;
      }

      .cls-9 {
        fill: #c5c5ea;
      }

      .cls-10, .cls-15 {
        fill: #1c1e38;
      }

      .cls-10 {
        opacity: 0.2;
      }

      .cls-11 {
        fill: #db928d;
      }

      .cls-12 {
        fill: #f8b7b0;
      }

      .cls-13 {
        fill: #1876aa;
      }

      .cls-14 {
        fill: #1e8fdc;
      }

      .cls-16 {
        fill: #5fd6a5;
      }

      .cls-17 {
        fill: #e2e2e2;
      }

      .cls-18 {
        fill: #ff3131;
      }

      .cls-19 {
        fill: #d17198;
      }

      .cls-20 {
        fill: #f28fb5;
      }

      .cls-21 {
        fill: #4fb98e;
      }

      .cls-22 {
        fill: #9b1f51;
      }

      .cls-23 {
        fill: #43a2cc;
      }

      .cls-24 {
        fill: #2b7d99;
      }

      .cls-25 {
        fill: #efaf81;
      }

      .cls-26 {
        fill: #f9f9fc;
      }

      .cls-27 {
        fill: #0f9d59;
      }

      .cls-28 {
        fill: #0a6e3d;
      }

      .cls-29 {
        fill: #4284f4;
      }

      .cls-30 {
        fill: #fc0;
      }

      .cls-30, .cls-31, .cls-32 {
        fill-rule: evenodd;
      }

      .cls-31 {
        fill: #efb30e;
      }
    </style>
  </defs>
  <g id="item2" transform="translate(1990)">
    <g id="Group_688" data-name="Group 688" transform="translate(285.348 1978.329)">
      <g id="Group_678" data-name="Group 678" transform="translate(0 0)">
        <g id="Group_662" data-name="Group 662" transform="translate(54.61)">
          <path id="Path_931" data-name="Path 931" class="cls-1" d="M638.793,359.356a11,11,0,0,1-10.283,7.069H252.971a11.218,11.218,0,0,1-10.283-7.069,2.862,2.862,0,0,1,2.785-3.856H636.222A2.832,2.832,0,0,1,638.793,359.356Z" transform="translate(-242.046 -102.727)"/>
          <path id="Path_932" data-name="Path 932" class="cls-2" d="M618.91,490.273H263.08a20.8,20.8,0,0,1-20.78-20.779V258.279A20.8,20.8,0,0,1,263.08,237.5H618.91a20.8,20.8,0,0,1,20.78,20.779V469.494A20.8,20.8,0,0,1,618.91,490.273Z" transform="translate(-242.3 -237.5)"/>
          <path id="Path_933" data-name="Path 933" class="cls-3" d="M252,452.2V253.2a5.988,5.988,0,0,1,6-6H601.617a5.988,5.988,0,0,1,6,6V452.2a5.988,5.988,0,0,1-6,6H258A5.855,5.855,0,0,1,252,452.2Z" transform="translate(-231.22 -226.421)"/>
          <path id="Path_934" data-name="Path 934" class="cls-4" d="M389.623,355.5v1.714a3.754,3.754,0,0,1-3.642,3.642H322.142a3.754,3.754,0,0,1-3.642-3.642V355.5Z" transform="translate(-155.26 -102.727)"/>
          <path id="Path_935" data-name="Path 935" class="cls-5" d="M582.353,257.5V423.73a6.217,6.217,0,0,1-6.213,6.212H267.012a6.217,6.217,0,0,1-6.212-6.212V257.5H582.353m1.5-1.5H259.3V423.944a7.68,7.68,0,0,0,7.712,7.712H576.355a7.68,7.68,0,0,0,7.712-7.712V256Z" transform="translate(-222.882 -216.37)"/>
          <path id="Path_936" data-name="Path 936" class="cls-2" d="M581.182,264.325H262.2a2.929,2.929,0,0,1-3-3V256.4a2.929,2.929,0,0,1,3-3H581.182a2.929,2.929,0,0,1,3,3v4.927A3.219,3.219,0,0,1,581.182,264.325Z" transform="translate(-222.996 -219.34)"/>
          <path id="Path_937" data-name="Path 937" class="cls-5" d="M544.709,351.529H276.284A7.223,7.223,0,0,1,269,344.246V273.983a7.223,7.223,0,0,1,7.284-7.283H544.709a7.223,7.223,0,0,1,7.284,7.283v70.262A7.223,7.223,0,0,1,544.709,351.529ZM276.284,268.2a5.531,5.531,0,0,0-5.57,5.57v70.262a5.531,5.531,0,0,0,5.57,5.57H544.709a5.531,5.531,0,0,0,5.57-5.57V273.769a5.531,5.531,0,0,0-5.57-5.57Z" transform="translate(-211.802 -204.149)"/>
          <path id="Path_938" data-name="Path 938" class="cls-5" d="M474.657,361.268H276.284A7.223,7.223,0,0,1,269,353.985v-37.7A7.223,7.223,0,0,1,276.284,309H474.657a7.223,7.223,0,0,1,7.284,7.283v37.7A7.223,7.223,0,0,1,474.657,361.268ZM276.284,310.714a5.531,5.531,0,0,0-5.57,5.57v37.7a5.531,5.531,0,0,0,5.57,5.57H474.657a5.531,5.531,0,0,0,5.57-5.57v-37.7a5.531,5.531,0,0,0-5.57-5.57Z" transform="translate(-211.802 -155.837)"/>
          <path id="Path_939" data-name="Path 939" class="cls-5" d="M427.513,361.268H378.884a7.223,7.223,0,0,1-7.284-7.283v-37.7A7.223,7.223,0,0,1,378.884,309h48.629a7.223,7.223,0,0,1,7.284,7.283v37.7A7.223,7.223,0,0,1,427.513,361.268Zm-48.629-50.555a5.531,5.531,0,0,0-5.57,5.57v37.7a5.531,5.531,0,0,0,5.57,5.57h48.629a5.531,5.531,0,0,0,5.57-5.57v-37.7a5.531,5.531,0,0,0-5.57-5.57Z" transform="translate(-94.605 -155.837)"/>
          <ellipse id="Ellipse_72" data-name="Ellipse 72" class="cls-6" cx="2.785" cy="2.785" rx="2.785" ry="2.785" transform="translate(44.559 36.845)"/>
          <ellipse id="Ellipse_73" data-name="Ellipse 73" class="cls-7" cx="2.785" cy="2.785" rx="2.785" ry="2.785" transform="translate(53.128 36.845)"/>
          <ellipse id="Ellipse_74" data-name="Ellipse 74" class="cls-8" cx="2.785" cy="2.785" rx="2.785" ry="2.785" transform="translate(61.697 36.845)"/>
          <ellipse id="Ellipse_75" data-name="Ellipse 75" class="cls-9" cx="5.784" cy="5.784" rx="5.784" ry="5.784" transform="translate(192.804 5.355)"/>
        </g>
        <g id="Group_665" data-name="Group 665" transform="translate(299.194 138.319)">
          <path id="Path_940" data-name="Path 940" class="cls-10" d="M463.051,378.192c0,.8-20.7,1.592-45.975,1.592-25.475,0-45.975-.8-45.975-1.592s20.7-1.592,45.975-1.592S463.051,377.2,463.051,378.192Z" transform="translate(-331.35 -208.103)"/>
          <path id="Path_941" data-name="Path 941" class="cls-11" d="M395.03,309.354c-.4-1-2.388-8.359-1.393-8.558l6.966-1.791c.6-.2,2.786,2.388,2.985,3.184l.6,1.791a27.912,27.912,0,0,0,1.194,4.975,3.379,3.379,0,0,0,1.194,1.194c.8.6,1.791,1,2.388,1.393a.373.373,0,0,1,0,.6c-2.388,1.592-11.345,7.563-14.131,6.966C391.249,318.111,397.419,315.126,395.03,309.354Z" transform="translate(-309.305 -284.945)"/>
          <path id="Path_942" data-name="Path 942" class="cls-12" d="M390.5,303.947c0,7.563.4,16.717,5.175,14.727s13.335-4.776,13.335-12.538c0-7.563-1.194-13.732-9.354-13.732C394.481,292.2,390.5,296.185,390.5,303.947Z" transform="translate(-312.139 -291.478)"/>
          <g id="Group_663" data-name="Group 663" transform="translate(46.107 158.944)">
            <path id="Path_943" data-name="Path 943" class="cls-6" d="M381.24,376.178l4.578,1.393a.731.731,0,0,0,.6-.2l1.194-3.582a.731.731,0,0,0-.2-.6l-4.578-1.393a.731.731,0,0,0-.6.2l-1.194,3.582C380.842,375.979,381.041,376.178,381.24,376.178Z" transform="translate(-367.694 -371.8)"/>
            <path id="Path_944" data-name="Path 944" class="cls-8" d="M393.612,375.54s-1,5.174-1.791,5.572-4.578-.8-6.369-1.99c-1.99-1.194-3.781-.8-7.563-1.99a10.048,10.048,0,0,1-3.582-1.791s-.4-2.388,3.383-1.791,8.359.4,9.354-.2S389.432,374.943,393.612,375.54Z" transform="translate(-374.294 -370.366)"/>
          </g>
          <g id="Group_664" data-name="Group 664" transform="translate(107.919 153.571)">
            <path id="Path_945" data-name="Path 945" class="cls-6" d="M411.887,375.668l3.981-2.587a.731.731,0,0,0,.2-.6l-1.99-3.184a.731.731,0,0,0-.6-.2l-3.981,2.587a.731.731,0,0,0-.2.6l1.99,3.184C411.489,375.867,411.688,375.867,411.887,375.668Z" transform="translate(-401.441 -369.1)"/>
            <path id="Path_946" data-name="Path 946" class="cls-8" d="M419.977,370.4s3.384,3.98,3.184,4.975c-.2.8-3.384,2.985-5.573,3.582s-3.184,4.975-7.364,5.174c-5.175.4-4.777,0-4.777,0s-1-1.592,3.383-3.383c3.582-1.393,4.777-5.374,4.976-6.568C414.206,373.186,416.992,373.385,419.977,370.4Z" transform="translate(-405.351 -367.813)"/>
          </g>
          <path id="Path_947" data-name="Path 947" class="cls-13" d="M416.269,342.164c.2,8.956,2.985,30.052,2.786,32.838s-13.136,10.548-14.529,5.374C403.134,375,394.973,345.348,391.391,334s19.107-9.553,19.107-9.553S415.672,323.854,416.269,342.164Z" transform="translate(-311.637 -259.841)"/>
          <path id="Path_948" data-name="Path 948" class="cls-13" d="M418.761,367.8c2.985,7.762,8.16,17.712,8.757,20.3s-6.767,9.553-9.553,4.975-16.718-24.877-20.1-36.022C395.076,348.3,411,347.3,411,347.3S412.591,351.877,418.761,367.8Z" transform="translate(-305.172 -237.115)"/>
          <path id="Path_949" data-name="Path 949" class="cls-14" d="M414.9,347.912c-4.18,7.961-12.34,27.464-13.932,29.853s-16.718,2.587-15.325-2.587c1.393-5.374,9.155-35.027,11.743-46.57s21.3,1.194,21.3,1.194S423.46,331.791,414.9,347.912Z" transform="translate(-317.036 -260.414)"/>
          <path id="Path_950" data-name="Path 950" class="cls-6" d="M401.2,324.558c-7.961.2-19.9-1.393-22.291-2.786-2.189-1.393-1.791-5.771.8-5.771,2.587.2,15.922-.8,19.9.4" transform="translate(-325.026 -268.306)"/>
          <path id="Path_951" data-name="Path 951" class="cls-14" d="M399.83,372.911c-2.587,7.961-7.165,20.9-8.16,23.285s-11.345,3.184-10.548-2.189,4.976-31.843,9.155-42.789c3.383-8.558,16.32.6,16.32.6S404.806,356.592,399.83,372.911Z" transform="translate(-321.469 -236.854)"/>
          <path id="Path_952" data-name="Path 952" class="cls-6" d="M414.828,323.9c3.383,6.966,4.379,13.334,5.573,15.125,3.782,5.174,4.379,2.587,6.767.4a3.184,3.184,0,0,0,1-3.184c-1.791-6.17-5.573-21.693-9.354-25.673-4.18-4.577-6.369-4.975-10.15-5.971,0,0-6.17,4.577-10.747,2.587a6.808,6.808,0,0,0-3.582,3.582c-3.782,9.752-3.583,14.13-3.384,19.7.2,6.966,1.194,13.135.8,15.921-.8,4.179-1,5.373.8,5.771,1.791.2,22.092.8,22.291-.8,0-.2.8-.6.8-1.393,0-3.781-2.587-13.334-1-21.1a29.9,29.9,0,0,0,.4-3.98Z" transform="translate(-311.787 -279.395)"/>
          <path id="Path_953" data-name="Path 953" class="cls-15" d="M398.2,299.03s-6.17,2.189-7.364,1.194a13.944,13.944,0,0,1-1.592-1.99c-.2-.2,0-.4.2-.2a.731.731,0,0,0,.6.2c.6.2,1.99-2.189,4.18-3.582.2,0,.2-.2,0-.4a4.35,4.35,0,0,1-1-.6c-.4-.4,3.184,0,5.374-1,2.189-1.194,10.15-1,10.946,1.194" transform="translate(-313.467 -291.935)"/>
          <path id="Path_954" data-name="Path 954" class="cls-15" d="M398.031,307.443s-5.971-5.572-4.976-8.359c1.194-2.786,6.568-6.568,11.743-6.169s5.175,6.767,3.782,10.548c-1.592,3.781-2.985,6.568-2.985,6.568S401.017,307.244,398.031,307.443Z" transform="translate(-309.719 -290.994)"/>
          <path id="Path_955" data-name="Path 955" class="cls-12" d="M394.752,300.4c-.4,1.592.4,2.985,1.592,3.184a2.717,2.717,0,0,0,2.786-2.189c.4-1.592-.4-2.985-1.592-3.184A2.717,2.717,0,0,0,394.752,300.4Z" transform="translate(-308.031 -285.745)"/>
          <path id="Path_956" data-name="Path 956" class="cls-12" d="M378.424,319.833c1.99.8,5.175,2.388,5.772,1,.8-1.592-1-2.985-2.985-3.781s-4.777-1.194-5.573.4C375.24,319.037,376.434,319.037,378.424,319.833Z" transform="translate(-326.932 -267.76)"/>
          <g id="Group_690" data-name="Group 690" transform="translate(25.195 8.871) rotate(30)">
            <g id="Group_609" data-name="Group 609" transform="translate(0)">
              <path id="Path_713" data-name="Path 713" class="cls-16" d="M104.653,0,4.09,8.3A4.5,4.5,0,0,0,0,13l2.476,29.35A4.5,4.5,0,0,0,7.185,46.44l9.908-.867,4.83-.372c.991.991,3.344,3.715,4.334,4.582a2.216,2.216,0,0,0,3.22-.248c.867-1.115,2.849-4.087,3.592-5.2l24.4-1.982,50.281-4.212a4.5,4.5,0,0,0,4.087-4.706l-2.476-29.35A4.41,4.41,0,0,0,104.653,0Z"/>
              <path id="Path_714" data-name="Path 714" class="cls-4" d="M12.539,10.777A5.132,5.132,0,0,0,13.9,7.062l-.248-2.353A5.114,5.114,0,0,0,8.576,0,4.8,4.8,0,0,0,3.993,5.2l.248,2.6A4.825,4.825,0,0,0,6.1,11.273,10.17,10.17,0,0,0,.03,18.951,2.009,2.009,0,0,0,2.259,21.3l15.728-1.239a2.145,2.145,0,0,0,1.858-2.725A10.247,10.247,0,0,0,12.539,10.777Z" transform="translate(11.986 15.972)"/>
              <g id="Group_608" data-name="Group 608" transform="translate(42.351 12.255)">
                <path id="Path_715" data-name="Path 715" class="cls-4" d="M22.8,0,2.732,1.614A3.025,3.025,0,0,0,.007,4.833l.867,9.783a3.025,3.025,0,0,0,3.22,2.724l1.982-.124s2.848,3.1,3.839,4.087a1.712,1.712,0,0,0,2.6-.248c.867-1.115,3.22-4.706,3.22-4.706l8.422-.743a3.025,3.025,0,0,0,2.725-3.22L26.015,2.6A3.1,3.1,0,0,0,22.8,0Z" transform="translate(0 0)"/>
                <path id="Path_716" data-name="Path 716" class="cls-17" d="M1.238,3.835A1.222,1.222,0,0,1,0,2.721,1.347,1.347,0,0,1,1.114,1.359L17.338,0A1.451,1.451,0,0,1,18.7,1.11a1.347,1.347,0,0,1-1.115,1.362L1.238,3.835Z" transform="translate(3.723 2.856)"/>
                <path id="Path_717" data-name="Path 717" class="cls-17" d="M1.238,3.851A1.222,1.222,0,0,1,0,2.737,1.347,1.347,0,0,1,1.114,1.374L17.338.012c.619-.124,1.238.5,1.362,1.115a1.347,1.347,0,0,1-1.115,1.362L1.238,3.851Z" transform="translate(4.095 7.05)"/>
                <path id="Path_718" data-name="Path 718" class="cls-17" d="M1.238,3.094A1.222,1.222,0,0,1,0,1.98,1.347,1.347,0,0,1,1.114.617L8.421,0A1.451,1.451,0,0,1,9.783,1.113,1.347,1.347,0,0,1,8.669,2.475l-7.431.619Z" transform="translate(4.342 12.018)"/>
              </g>
              <path id="Path_719" data-name="Path 719" class="cls-4" d="M18.1,15.745a8.651,8.651,0,0,0-2.229-5.2l-.124-2.105A7.281,7.281,0,0,0,9.18,1.751V1.132A1.119,1.119,0,0,0,7.817.017,1.119,1.119,0,0,0,6.7,1.379V2A7.4,7.4,0,0,0,1.253,9.677l.124,2.105h0A9.358,9.358,0,0,0,.015,17.355l.124.867a.741.741,0,0,0,.867.743L4.6,18.717a1.07,1.07,0,0,0,.372.743,7.731,7.731,0,0,0,4.458,1.114,7.164,7.164,0,0,0,4.211-1.734.91.91,0,0,0,.248-.743l3.591-.248a.741.741,0,0,0,.743-.867Z" transform="translate(84.574 10.135)"/>
            </g>
            <path id="Path_720" data-name="Path 720" class="cls-18" d="M7.561,3.493A3.77,3.77,0,0,1,4.093,7.58,3.77,3.77,0,0,1,.006,4.113,3.77,3.77,0,0,1,3.474.026,3.742,3.742,0,0,1,7.561,3.493Z" transform="translate(79.753 24.492)"/>
          </g>
          <path id="Path_957" data-name="Path 957" class="cls-12" d="M407.479,326.393a6.073,6.073,0,0,0,1.393,1.592,37.106,37.106,0,0,1-4.976,3.184,10.133,10.133,0,0,1-4.379,1c-1.99.2-3.981,0-4.777-2.587-.6-2.189,2.189-3.582,3.781-3.582s4.18,1,5.374.4A23.077,23.077,0,0,0,406.882,325,11.833,11.833,0,0,0,407.479,326.393Z" transform="translate(-308.021 -259.195)"/>
          <path id="Path_958" data-name="Path 958" class="cls-6" d="M414.607,318.3c-6.17,4.975-13.534,11.344-14.529,13.732s2.985,7.165,4.976,5.374,11.146-8.359,13.534-11.941" transform="translate(-302.809 -265.83)"/>
        </g>
        <g id="Group_671" data-name="Group 671" transform="translate(0 94.653)">
          <path id="Path_959" data-name="Path 959" class="cls-10" d="M302.7,362.192c0,.8-22.888,1.592-50.951,1.592s-50.951-.8-50.951-1.592,22.888-1.592,50.951-1.592S302.7,361.4,302.7,362.192Z" transform="translate(-200.8 -180.28)"/>
          <path id="Path_960" data-name="Path 960" class="cls-19" d="M279.026,412.61,252.953,308.922a1.135,1.135,0,0,0-2.189.6l9.553,37.614H223.9l-2.786-38.012a1.1,1.1,0,0,0-2.189.2l7.563,103.688a1.115,1.115,0,0,0,1.194,1h0a1,1,0,0,0,1-1.194l-1.99-28.26h43.189l7.165,28.658a1.091,1.091,0,0,0,1.194.8h.2A1.549,1.549,0,0,0,279.026,412.61Zm-52.941-30.45L223.7,349.521h36.82l8.16,32.639Z" transform="translate(-182.895 -232.29)"/>
          <path id="Path_961" data-name="Path 961" class="cls-20" d="M266.329,307.7H231.5a1.994,1.994,0,0,0-1.99,1.99,1.755,1.755,0,0,0,1.592,1.791l-25.476,101.5a1.132,1.132,0,0,0,.8,1.393h.2a1.344,1.344,0,0,0,1.194-.8l7.165-28.658h43.189l-1.99,28.26a1.115,1.115,0,0,0,1,1.194h0a1.115,1.115,0,0,0,1.194-1l7.364-101.9h.4a1.994,1.994,0,0,0,1.99-1.99A1.67,1.67,0,0,0,266.329,307.7Zm-50.553,74.83,8.16-32.639h36.82l-2.388,32.639ZM260.955,347.5H224.533l9.155-36.022h30.053Z" transform="translate(-196.072 -232.66)"/>
          <g id="Group_670" data-name="Group 670" transform="translate(21.569)">
            <g id="Group_666" data-name="Group 666" transform="translate(4.269)">
              <path id="Path_962" data-name="Path 962" class="cls-12" d="M223.509,280.951a4.249,4.249,0,0,1,1.592,1,36.116,36.116,0,0,0,1.791-4.577,7.983,7.983,0,0,0,.2-3.781c-.2-1.791-.6-3.383-2.985-3.582-1.99-.2-2.587,2.388-2.388,3.781.4,1.393,1.592,3.383,1.393,4.577a22,22,0,0,1-.8,2.587A1.853,1.853,0,0,1,223.509,280.951Z" transform="translate(-205.959 -269.995)"/>
              <path id="Path_963" data-name="Path 963" class="cls-21" d="M220.585,304.675c4.379-2.587,9.951-5.771,11.743-9.752s1.99-16.518,1.791-18.907a1.509,1.509,0,0,0-.4-.8c-1.592-1-3.383-1-3.583-.6-.4.4.2,14.727-3.782,19.3-2.786,3.184-3.383,2.985-6.767,4.577-3.184,1.592-5.573.2-5.772,4.179C213.42,306.665,216.405,307.262,220.585,304.675Z" transform="translate(-213.782 -265.657)"/>
            </g>
            <g id="Group_669" data-name="Group 669" transform="translate(0 10.676)">
              <path id="Path_964" data-name="Path 964" class="cls-12" d="M220.7,297.03a8.024,8.024,0,0,0,7.364-2.587c.8-1-1.791-1.99-2.587-2.985a2.972,2.972,0,0,1-.6-1.99c0-1.194,0-4.975.2-6.568l-7.762.8s.2,3.98.2,5.373v.6c-.2,1-1.194,1.393-2.786,2.587C212.936,293.647,216.718,296.433,220.7,297.03Z" transform="translate(-209.029 -267.893)"/>
              <g id="Group_668" data-name="Group 668">
                <g id="Group_667" data-name="Group 667" transform="translate(2.459 0.837)">
                  <path id="Path_965" data-name="Path 965" class="cls-12" d="M215.515,289.552c2.189,3.781,3.383,5.771,5.772,6.567a8.3,8.3,0,0,0,5.772.2c1.592-.8,2.786-4.776,2.388-6.767a38.855,38.855,0,0,0-4.578-10.946c-1.393-2.189-5.175-3.582-7.762-2.388C214.519,277.611,209.942,280.2,215.515,289.552Z" transform="translate(-212.873 -275.78)"/>
                </g>
                <path id="Path_966" data-name="Path 966" class="cls-15" d="M226.092,282.994c1.194,3.781,1,5.373-.2,7.563s-2.985,3.383-4.379,3.383c-1.791.2-2.189-.4-5.175-3.184a13.752,13.752,0,0,1-4.578-6.966c-.6-2.189,1-5.572,3.582-6.767C218.131,275.829,223.306,273.839,226.092,282.994Z" transform="translate(-211.637 -274.753)"/>
                <path id="Path_967" data-name="Path 967" class="cls-12" d="M221.758,281.734c.4,1.393,0,2.786-1,3.184s-2.189-.6-2.587-1.99,0-2.786,1-3.184S221.36,280.341,221.758,281.734Z" transform="translate(-205.313 -271.105)"/>
                <path id="Path_968" data-name="Path 968" class="cls-15" d="M223.17,282.008c1.393-1.99,3.383-3.781,1.393-5.174a9.033,9.033,0,0,0-10.947.8C208.641,282.008,223.17,282.008,223.17,282.008Z" transform="translate(-210.705 -275.359)"/>
              </g>
            </g>
            <path id="Path_969" data-name="Path 969" class="cls-22" d="M230.763,344.523c-4.18-.2-7.563-1.393-7.563,1.194.2,2.189.4,1.99,7.364,1.99,4.18,0,7.364-.4,7.563-1.194C238.127,345.717,234.943,344.722,230.763,344.523Z" transform="translate(-200.186 -196.643)"/>
            <path id="Path_970" data-name="Path 970" class="cls-22" d="M220.863,344.763c-3.782-1.393-7.563-1.393-7.563,1.194.2,2.189-.2,1.99,6.767,1.99,4.18,0,5.175-.8,4.578-1.393A11.165,11.165,0,0,0,220.863,344.763Z" transform="translate(-209.99 -196.882)"/>
            <path id="Path_971" data-name="Path 971" class="cls-16" d="M227.648,286.508c-3.781,0-5.772-.2-10.15.8-2.985.8-6.369,2.786-5.175,11.941,0,0,2.388,22.688,2.388,25.673.4,7.364-1.791,8.757,4.18,8.16,6.17-.6,13.534-.2,16.519-.6,1-.2.6-2.388.4-4.975-.2-2.189-1.99-19.5-1.791-27.464C234.016,294.469,235.41,286.508,227.648,286.508Z" transform="translate(-211.202 -253.66)"/>
            <path id="Path_972" data-name="Path 972" class="cls-23" d="M213.9,375.973a23.045,23.045,0,0,1-.4,2.985,32.5,32.5,0,0,0,5.971-.2c.4,0,1.194-6.568,1.592-9.553.4-3.184,1.592-18.111,1.592-21.693-.2-3.582.6-24.877.6-24.877h1.592s4.379,11.145,4.976,15.125c1,5.971,1.592,9.752,1.592,11.742-.2,3.781,1.592,23.285,1.99,25.474a12.471,12.471,0,0,1,0,4.179,14.924,14.924,0,0,0,6.767.2s-.4-29.056-.6-33.634c0-3.184-2.388-19.9-3.782-28.857v-.6c-.4-3.184-.8-5.373-.8-5.373a1.05,1.05,0,0,0-.8-1,17.645,17.645,0,0,0-2.587-.2h-8.16c-8.558,0-9.951.2-9.951.8,0,0,1,30.848,1.194,35.823C214.694,350.5,214.1,373.783,213.9,375.973Z" transform="translate(-209.792 -230.679)"/>
            <path id="Path_973" data-name="Path 973" class="cls-12" d="M225.8,304.3" transform="translate(-197.612 -236.026)"/>
            <path id="Path_974" data-name="Path 974" class="cls-24" d="M222.4,309.4h.6a4.684,4.684,0,0,0-.4,1.592,5.128,5.128,0,0,0,4.379,4.975v.6A5.465,5.465,0,0,1,222,310.992,6.153,6.153,0,0,1,222.4,309.4Z" transform="translate(-201.375 -230.977)"/>
            <path id="Path_976" data-name="Path 976" class="cls-12" d="M236.1,289.578a8.749,8.749,0,0,1,.2,1.791,25.444,25.444,0,0,0,4.777-1.592,10.493,10.493,0,0,0,2.985-2.189c1.194-1.194,2.189-2.587,1-4.577-1-1.592-3.583-.6-4.379.6-.8,1-1.791,3.383-2.587,3.781a19.677,19.677,0,0,1-2.587,1.194A1.47,1.47,0,0,1,236.1,289.578Z" transform="translate(-188.006 -257.924)"/>
            <path id="Path_977" data-name="Path 977" class="cls-16" d="M223.788,296.045c4.777,1.791,10.747,4.179,14.927,3.184,4.18-1.194,14.131-8.956,15.922-10.349a1.034,1.034,0,0,0,.4-.8c-.2-1.99-1.393-3.184-1.791-3.184-.6,0-11.345,9.354-17.514,8.956-4.379-.2-4.578-.8-7.961-2.388-3.184-1.592-3.583-4.179-6.767-1.99C217.619,291.667,219.211,294.254,223.788,296.045Z" transform="translate(-204.158 -255.236)"/>
          </g>
        </g>
        <g id="Group_675" data-name="Group 675" transform="translate(358.015 55.451)">
          <g id="Group_673" data-name="Group 673">
            <path id="Path_985" data-name="Path 985" class="cls-25" d="M339,273.9h47.966a5.139,5.139,0,0,1,5.175,5.174v27.663a5.139,5.139,0,0,1-5.175,5.174h-5.374l-6.767,9.155a3.536,3.536,0,0,1-5.772,0l-6.767-9.155H339.2a5.139,5.139,0,0,1-5.175-5.174V279.074A4.747,4.747,0,0,1,339,273.9Z" transform="translate(-333.978 -273.9)"/>
          </g>
          <g id="Group_674" data-name="Group 674" transform="translate(9.597 14.727)">
            <path id="Path_986" data-name="Path 986" class="cls-26" d="M347.557,285.678a4.379,4.379,0,1,1-4.379-4.378A4.417,4.417,0,0,1,347.557,285.678Z" transform="translate(-338.8 -281.3)"/>
            <path id="Path_987" data-name="Path 987" class="cls-26" d="M355.057,285.678a4.379,4.379,0,1,1-4.379-4.378A4.417,4.417,0,0,1,355.057,285.678Z" transform="translate(-331.373 -281.3)"/>
            <path id="Path_988" data-name="Path 988" class="cls-26" d="M362.557,285.678a4.379,4.379,0,1,1-4.379-4.378A4.417,4.417,0,0,1,362.557,285.678Z" transform="translate(-323.946 -281.3)"/>
          </g>
        </g>
        <g id="google-adwords-1" transform="translate(150.592 138.785) rotate(-45)">
          <path id="Path_664" data-name="Path 664" class="cls-27" d="M6.763,75.408l18.392,0-.019-.042L.018,0l0,72.537a9.358,9.358,0,0,0,6.743,2.872" transform="translate(50.404 0.092)"/>
          <path id="Path_665" data-name="Path 665" class="cls-28" d="M.01,37.721l10.5,31.5a.145.145,0,0,1,.006.024,9.4,9.4,0,0,0,2.123,3.362l0-72.535L12.608,0Z" transform="translate(37.779 0.022)"/>
          <path id="Path_666" data-name="Path 666" class="cls-29" d="M25.2.023,25.19.049,25.181.023.039,75.463.021,75.5H18.412a9.537,9.537,0,0,0,8.865-6.239c0-.012,0-.019.006-.019L50.391.014H25.19V.022H25.2Z"/>
        </g>
      </g>
    </g>
    <g id="cc236644-37f1-421a-925d-bdfe70229cc4" transform="matrix(-0.656, -0.755, 0.755, -0.656, 362.321, 2120.252)">
      <g id="Color_icon_color" data-name="Color/icon_color" transform="translate(0 0)">
        <g id="direct" transform="translate(0 0)">
          <g id="Group_590" data-name="Group 590" transform="translate(0 0)">
            <path id="Fill-1" class="cls-30" d="M0,46.809l67.612,0V0L0,0Z" transform="translate(0 0)"/>
            <path id="Fill-3" class="cls-30" d="M0,23.4H13V0H0Z" transform="translate(18.199 44.208)"/>
            <path id="Fill-3-Copy-2" class="cls-30" d="M0,7.837H13V0H0Z" transform="translate(36.405 44.208)"/>
            <path id="Fill-3-Copy" class="cls-30" d="M0,23.4H13V0H0Z" transform="translate(-0.001 44.208)"/>
            <path id="Fill-5" class="cls-31" d="M0,0,3.9,18.2h13L13,0Z" transform="translate(54.609 46.807)"/>
            <path id="Fill-6" class="cls-32" d="M0,2.6H41.608V0H0Z" transform="translate(13.002 15.603)"/>
            <path id="Fill-7" class="cls-32" d="M0,2.6H41.608V0H0Z" transform="translate(13.002 23.404)"/>
            <path id="Fill-8" class="cls-32" d="M0,2.6H26V0H0Z" transform="translate(13.002 31.206)"/>
          </g>
        </g>
      </g>
    </g>
  </g>
</svg>
