<?xml version="1.0" encoding="utf-8"?>
<!-- Generator: Adobe Illustrator 21.0.1, SVG Export Plug-In . SVG Version: 6.00 Build 0)  -->
<svg version="1.1" id="Слой_1" xmlns="http://www.w3.org/2000/svg" xmlns:xlink="http://www.w3.org/1999/xlink" x="0px" y="0px"
	 viewBox="0 0 1072.2 254.9" style="enable-background:new 0 0 1072.2 254.9;" xml:space="preserve">
<style type="text/css">
	.st0{fill:#333331;}
	.st1{fill:url(#SVGID_1_);}
	.st2{fill:#F9F9F9;}
</style>
<g>
	<g>
		<path class="st0" d="M488.1,212.4H456V97.3c0-2.2-0.4-4.3-1.3-6.3c-0.9-1.9-2-3.7-3.5-5.1c-1.5-1.5-3.2-2.6-5.1-3.4
			c-2-0.8-4-1.2-6.3-1.2c-2.2,0-4.3,0.4-6.3,1.2c-1.9,0.8-3.7,2-5.1,3.4c-1.5,1.5-2.6,3.2-3.4,5.1s-1.2,4-1.2,6.3v115.1h-32.3V97.3
			c0-2.2-0.4-4.3-1.2-6.3c-0.8-1.9-2-3.7-3.4-5.1c-1.5-1.5-3.2-2.6-5.1-3.4s-4-1.2-6.3-1.2c-2.2,0-4.3,0.4-6.3,1.2
			c-1.9,0.8-3.7,2-5.1,3.4c-1.5,1.5-2.6,3.2-3.4,5.1s-1.2,4-1.2,6.3v115.1h-32.3V97.3c0-6.7,1.3-12.9,3.8-18.8s6-11,10.3-15.4
			c4.4-4.4,9.5-7.8,15.4-10.3s12.2-3.8,18.8-3.8c6,0,11.8,1.1,17.3,3.2s10.5,5.2,14.9,9.3c4.4-4,9.4-7.1,14.9-9.3
			c5.5-2.1,11.3-3.2,17.2-3.2c6.7,0,12.9,1.3,18.8,3.8s11,6,15.4,10.3c4.4,4.4,7.8,9.5,10.3,15.4s3.8,12.2,3.8,18.8L488.1,212.4
			L488.1,212.4z"/>
		<path class="st0" d="M628.8,212.4h-7.4l-11.9-16.5c-2.9,2.6-6,5.1-9.3,7.4c-3.3,2.3-6.7,4.3-10.3,6s-7.3,3-11.1,4
			s-7.6,1.5-11.5,1.5c-8.5,0-16.4-1.4-23.9-4.3s-14-7-19.6-12.4s-10-12.1-13.2-19.9c-3.2-7.9-4.8-16.8-4.8-26.9
			c0-9.4,1.6-18,4.8-25.8c3.2-7.8,7.6-14.6,13.2-20.2c5.6-5.6,12.1-10,19.6-13.1s15.4-4.7,23.9-4.7c3.9,0,7.8,0.5,11.6,1.5
			s7.5,2.3,11.1,4s7,3.7,10.3,6.1c3.3,2.3,6.3,4.8,9.2,7.5l11.9-14.3h7.4V212.4z M597.9,151.2c0-4.2-0.8-8.3-2.4-12.2
			c-1.6-3.9-3.8-7.4-6.6-10.4c-2.8-3-6-5.5-9.7-7.3s-7.7-2.8-11.9-2.8s-8.1,0.7-11.9,2.1c-3.7,1.4-6.9,3.5-9.7,6.3
			c-2.7,2.8-4.9,6.2-6.5,10.3s-2.4,8.7-2.4,14c0,5.2,0.8,9.9,2.4,14s3.7,7.5,6.5,10.3c2.7,2.8,6,4.9,9.7,6.3
			c3.7,1.4,7.7,2.1,11.9,2.1s8.1-0.9,11.9-2.8c3.7-1.8,6.9-4.3,9.7-7.3s5-6.5,6.6-10.5C597.1,159.4,597.9,155.4,597.9,151.2z"/>
		<path class="st0" d="M682.8,212.4h-30.7V92h7.4l10.1,14.3c4.9-4.5,10.6-8,16.9-10.4c6.3-2.4,12.8-3.7,19.6-3.7h27.1v30.6h-27.1
			c-3.2,0-6.3,0.6-9.1,1.8c-2.9,1.2-5.3,2.8-7.4,4.9c-2.1,2.1-3.7,4.6-4.9,7.4s-1.8,5.9-1.8,9.1L682.8,212.4L682.8,212.4z"/>
		<path class="st0" d="M778.4,212.4h-30.9V44.2h30.9v106.1l45.7-58h35.3l-39.9,50.1l39.9,70h-35.3l-24.4-43.7L778.4,197V212.4z"/>
		<path class="st0" d="M915.7,183c1.2,0.4,2.4,0.6,3.6,0.7c1.2,0.1,2.4,0.2,3.6,0.2c3,0,5.9-0.4,8.7-1.2s5.4-2,7.8-3.5
			c2.4-1.5,4.6-3.4,6.5-5.6c1.9-2.2,3.5-4.7,4.7-7.4l22.5,22.6c-2.9,4.1-6.1,7.7-9.8,10.9s-7.7,6-12,8.2s-8.8,4-13.6,5.1
			c-4.8,1.2-9.6,1.7-14.7,1.7c-8.5,0-16.4-1.6-23.9-4.7c-7.5-3.1-14-7.5-19.6-13.1s-10-12.3-13.2-20.1s-4.8-16.3-4.8-25.6
			c0-9.5,1.6-18.2,4.8-26.1s7.6-14.6,13.2-20.1c5.6-5.5,12.1-9.9,19.6-12.9c7.5-3.1,15.4-4.6,23.9-4.6c5,0,9.9,0.6,14.7,1.8
			c4.8,1.2,9.3,2.9,13.7,5.2c4.3,2.2,8.3,5,12.1,8.3c3.7,3.3,7,6.9,9.9,11L915.7,183z M931.4,119.7c-1.4-0.5-2.8-0.9-4.2-1
			s-2.8-0.2-4.3-0.2c-4.2,0-8.1,0.8-11.9,2.3c-3.7,1.5-6.9,3.7-9.7,6.6c-2.7,2.8-4.9,6.3-6.5,10.3s-2.4,8.5-2.4,13.5
			c0,1.1,0.1,2.4,0.2,3.8c0.1,1.4,0.3,2.9,0.6,4.3s0.6,2.9,1,4.2c0.4,1.4,0.9,2.6,1.5,3.6L931.4,119.7z"/>
		<path class="st0" d="M1049,212.4c-7.4,0-14.4-1.4-20.9-4.2s-12.2-6.7-17.1-11.6c-4.9-4.9-8.8-10.6-11.6-17.1s-4.2-13.5-4.2-20.9
			v-35.7h-14.9V92.3h14.9V44.2h30.6v48.1h46.5v30.6h-46.5v35.7c0,3.2,0.6,6.2,1.8,9c1.2,2.8,2.8,5.3,4.9,7.4c2.1,2.1,4.6,3.8,7.4,5
			s5.9,1.9,9.1,1.9h23.3v30.6H1049V212.4z"/>
	</g>
	<linearGradient id="SVGID_1_" gradientUnits="userSpaceOnUse" x1="231.7689" y1="200.48" x2="23.0311" y2="54.3202">
		<stop  offset="0" style="stop-color:#5F2E99"/>
		<stop  offset="1" style="stop-color:#7E4ABA"/>
	</linearGradient>
	<circle class="st1" cx="127.4" cy="127.4" r="127.4"/>
	<g>
		<path class="st2" d="M187.3,111.6c0,9.5-0.9,18.7-2.8,27.7c-1.9,9-4.6,17.5-8.2,25.6c-3.6,8-7.9,15.4-13.1,22.2
			c-5.1,6.8-11,12.7-17.5,17.8H106c4.2-2.7,8.2-5.7,12.1-8.9c3.9-3.3,7.6-6.8,11.2-10.6c3.5-3.8,6.8-7.7,9.8-11.9s5.7-8.5,8-13
			c-3,2-6.2,3.7-9.7,5.1c-3.4,1.4-7,2.1-10.6,2.1c-8.4,0-15.9-1.4-22.5-4.2c-6.7-2.8-12.3-6.7-17-11.6c-4.7-5-8.3-10.9-10.8-17.7
			c-2.5-6.9-3.8-14.4-3.8-22.5c0-8,1.4-15.5,4.3-22.6c2.8-7.1,6.8-13.3,11.8-18.6s10.9-9.5,17.8-12.6c6.9-3.1,14.3-4.6,22.3-4.6
			c8.1,0,15.7,1.5,22.8,4.6s13.3,7.3,18.6,12.6c5.3,5.3,9.4,11.5,12.5,18.6C185.8,96.1,187.3,103.7,187.3,111.6z M155.7,111.6
			c0-3.8-0.7-7.4-2-10.9s-3.1-6.6-5.5-9.3c-2.4-2.7-5.2-4.8-8.5-6.4s-6.9-2.4-10.9-2.4c-4,0-7.7,0.8-10.9,2.3
			c-3.3,1.5-6.1,3.6-8.4,6.2s-4.1,5.7-5.3,9.2c-1.2,3.5-1.9,7.2-1.9,11.2c0,3.9,0.6,7.6,1.9,11.1c1.2,3.5,3,6.5,5.3,9.1
			s5.1,4.7,8.4,6.2s6.9,2.3,10.9,2.3c4,0,7.7-0.8,11.1-2.3c3.3-1.5,6.2-3.6,8.5-6.2s4.1-5.6,5.4-9.1
			C155.1,119.2,155.7,115.5,155.7,111.6z"/>
	</g>
</g>
</svg>
