<svg xmlns="http://www.w3.org/2000/svg" viewBox="1990 920.739 1920 160.261">
  <defs>
    <style>
      .cls-1 {
        fill: #f9fafc;
      }
    </style>
  </defs>
  <path id="before" class="cls-1" d="M1986,1083s225.053-77.676,619.535-64.279S3401.361,816.936,3906,991.1V1083Z" transform="translate(4 -2)"/>
</svg>
