<svg xmlns="http://www.w3.org/2000/svg" xmlns:xlink="http://www.w3.org/1999/xlink" viewBox="2390.965 94.855 1179.035 478.91">
  <defs>
    <style>
      .cls-1, .cls-33 {
        opacity: 0.7;
      }

      .cls-2 {
        opacity: 0.35;
      }

      .cls-3 {
        fill: #6387c1;
      }

      .cls-4 {
        fill: #fff;
      }

      .cls-5 {
        fill: #4a73af;
      }

      .cls-11, .cls-6 {
        fill: rgba(95,214,165,0.41);
      }

      .cls-6, .cls-7 {
        opacity: 0.8;
      }

      .cls-8 {
        fill: #fc0;
      }

      .cls-10, .cls-8, .cls-9 {
        fill-rule: evenodd;
      }

      .cls-9 {
        fill: #efb30e;
      }

      .cls-12 {
        fill: #0f9d59;
      }

      .cls-13 {
        fill: #0a6e3d;
      }

      .cls-14 {
        fill: #4284f4;
      }

      .cls-15 {
        clip-path: url(#clip-path);
      }

      .cls-16 {
        fill: #8c8c8c;
        opacity: 0.2;
      }

      .cls-17 {
        fill: #b0b0b0;
      }

      .cls-18 {
        fill: #d2d3d5;
      }

      .cls-19 {
        fill: #2e2f33;
      }

      .cls-20 {
        fill: #3e3f42;
      }

      .cls-21 {
        fill: #ff858b;
      }

      .cls-22 {
        fill: #cfa6c9;
        opacity: 0.25;
      }

      .cls-23, .cls-35, .cls-36, .cls-37, .cls-38, .cls-39 {
        fill: none;
      }

      .cls-24 {
        fill: #42697f;
      }

      .cls-25 {
        fill: #fefbff;
        opacity: 0.1;
      }

      .cls-26 {
        fill: #ffdb5d;
      }

      .cls-27 {
        fill: #5cd5ff;
      }

      .cls-28 {
        fill: #cff5ff;
      }

      .cls-29 {
        fill: #686868;
      }

      .cls-30 {
        opacity: 0.6;
        clip-path: url(#clip-path-2);
      }

      .cls-31 {
        fill: #3f3f3f;
      }

      .cls-32 {
        fill: #f73e3e;
      }

      .cls-34 {
        clip-path: url(#clip-path-4);
      }

      .cls-35, .cls-36, .cls-37, .cls-38, .cls-39 {
        stroke: #af2042;
        stroke-miterlimit: 10;
      }

      .cls-36, .cls-37, .cls-38, .cls-39 {
        stroke-width: 0.7px;
      }

      .cls-37 {
        stroke-dasharray: 0.959 0.959;
      }

      .cls-38 {
        stroke-dasharray: 1.007 1.007;
      }

      .cls-39 {
        stroke-dasharray: 1.009 1.009;
      }

      .cls-40 {
        fill: #af2042;
      }

      .cls-41 {
        fill: #e0e0e0;
      }

      .cls-42 {
        fill: #6db5c9;
      }

      .cls-43 {
        fill: #87cddd;
      }

      .cls-44 {
        filter: url(#Path_787);
      }

      .cls-45 {
        filter: url(#Path_788);
      }
    </style>
    <clipPath id="clip-path">
      <rect id="Rectangle_114" data-name="Rectangle 114" width="483.084" height="384.621"/>
    </clipPath>
    <filter id="Path_788" x="2390.965" y="188.332" width="896.514" height="90.462" filterUnits="userSpaceOnUse">
      <feOffset dy="3" input="SourceAlpha"/>
      <feGaussianBlur stdDeviation="3" result="blur"/>
      <feFlood flood-opacity="0.161"/>
      <feComposite operator="in" in2="blur"/>
      <feComposite in="SourceGraphic"/>
    </filter>
    <filter id="Path_787" x="2507.939" y="267.918" width="917.115" height="104.52" filterUnits="userSpaceOnUse">
      <feOffset dy="3" input="SourceAlpha"/>
      <feGaussianBlur stdDeviation="3" result="blur-2"/>
      <feFlood flood-opacity="0.161"/>
      <feComposite operator="in" in2="blur-2"/>
      <feComposite in="SourceGraphic"/>
    </filter>
    <clipPath id="clip-path-2">
      <path id="Path_638" data-name="Path 638" d="M299.4,210.627c-.274-5.659,3.651-12.047,8.305-14.877,5.476-3.1,12.869-3.1,18.8-1.734a21.421,21.421,0,0,1,11.135,7.119c1.369,1.734,5.111,7.94,3.651,9.492Z" transform="translate(-299.385 -193.142)"/>
    </clipPath>
    <clipPath id="clip-path-4">
      <path id="Path_646" data-name="Path 646" class="cls-1" d="M274.6,185.853h87.435s0-44.448-41.983-75.753C320.052,110.1,281.9,130.635,274.6,185.853Z" transform="translate(-274.6 -110.1)"/>
    </clipPath>
  </defs>
  <g id="main" transform="translate(2096.98 -87)">
    <g id="Group_432" data-name="Group 432" class="cls-2" transform="translate(345.886 321.205)">
      <g id="Group_429" data-name="Group 429" transform="translate(0 -49)">
        <g id="Group_428" data-name="Group 428">
          <g id="Group_426" data-name="Group 426">
            <path id="Path_490" data-name="Path 490" class="cls-3" d="M5.574,284.884H378.71a5.551,5.551,0,0,0,5.574-5.574V5.574A5.551,5.551,0,0,0,378.71,0H5.574A5.551,5.551,0,0,0,0,5.574V279.311A5.617,5.617,0,0,0,5.574,284.884Z"/>
            <g id="Group_425" data-name="Group 425">
              <path id="Path_491" data-name="Path 491" class="cls-4" d="M378.607,0H5.574A5.551,5.551,0,0,0,0,5.574V18.992H384.181V5.574A5.551,5.551,0,0,0,378.607,0Z"/>
            </g>
          </g>
          <g id="Group_427" data-name="Group 427" transform="translate(13.625 5.161)">
            <path id="Path_492" data-name="Path 492" class="cls-3" d="M21.561,9.232A4.181,4.181,0,1,1,17.432,5,4.164,4.164,0,0,1,21.561,9.232Z" transform="translate(-13.2 -5)"/>
            <path id="Path_493" data-name="Path 493" class="cls-3" d="M34.161,9.332A4.181,4.181,0,1,1,30.032,5.1,4.164,4.164,0,0,1,34.161,9.332Z" transform="translate(-12.794 -4.997)"/>
            <path id="Path_494" data-name="Path 494" class="cls-3" d="M46.761,9.332A4.181,4.181,0,1,1,42.632,5.1,4.3,4.3,0,0,1,46.761,9.332Z" transform="translate(-12.389 -4.997)"/>
          </g>
        </g>
      </g>
      <g id="Group_431" data-name="Group 431" transform="translate(29.934 39.229)">
        <rect id="Rectangle_104" data-name="Rectangle 104" class="cls-5" width="324.417" height="78.137"/>
        <g id="Group_430" data-name="Group 430" transform="translate(0 91.762)">
          <rect id="Rectangle_105" data-name="Rectangle 105" class="cls-5" width="72.563" height="46.036"/>
          <rect id="Rectangle_106" data-name="Rectangle 106" class="cls-5" width="323.075" height="6.4" transform="translate(0 74.421)"/>
          <rect id="Rectangle_107" data-name="Rectangle 107" class="cls-5" width="323.075" height="6.4" transform="translate(0 112.818)"/>
          <rect id="Rectangle_108" data-name="Rectangle 108" class="cls-5" width="323.075" height="6.4" transform="translate(0 128.404)"/>
          <rect id="Rectangle_109" data-name="Rectangle 109" class="cls-5" width="323.075" height="6.4" transform="translate(0 58.215)"/>
          <rect id="Rectangle_110" data-name="Rectangle 110" class="cls-5" width="72.563" height="46.036" transform="translate(83.711)"/>
          <rect id="Rectangle_111" data-name="Rectangle 111" class="cls-5" width="72.563" height="46.036" transform="translate(167.421)"/>
          <rect id="Rectangle_112" data-name="Rectangle 112" class="cls-5" width="72.563" height="46.036" transform="translate(251.132)"/>
        </g>
      </g>
    </g>
    <ellipse id="Ellipse_53" data-name="Ellipse 53" class="cls-6" cx="45.33" cy="45.33" rx="45.33" ry="45.33" transform="translate(1008.465 476.555)"/>
    <g id="cc236644-37f1-421a-925d-bdfe70229cc4" class="cls-7" transform="translate(1046.663 498.039) rotate(30)">
      <g id="Color_icon_color" data-name="Color/icon_color" transform="translate(0 0)">
        <g id="direct" transform="translate(0 0)">
          <g id="Group_590" data-name="Group 590" transform="translate(0 0)">
            <path id="Fill-1" class="cls-8" d="M0,23.6H34.084V0H0Z" transform="translate(0 0)"/>
            <path id="Fill-3" class="cls-8" d="M0,11.8H6.554V0H0Z" transform="translate(9.175 22.286)"/>
            <path id="Fill-3-Copy-2" class="cls-8" d="M0,3.95H6.554V0H0Z" transform="translate(18.353 22.286)"/>
            <path id="Fill-3-Copy" class="cls-8" d="M0,11.8H6.554V0H0Z" transform="translate(0 22.286)"/>
            <path id="Fill-5" class="cls-9" d="M0,0,1.966,9.176H8.521L6.555,0Z" transform="translate(27.529 23.596)"/>
            <path id="Fill-6" class="cls-10" d="M0,1.311H20.975V0H0Z" transform="translate(6.555 7.865)"/>
            <path id="Fill-7" class="cls-10" d="M0,1.311H20.975V0H0Z" transform="translate(6.555 11.798)"/>
            <path id="Fill-8" class="cls-10" d="M0,1.311H13.109V0H0Z" transform="translate(6.555 15.731)"/>
          </g>
        </g>
      </g>
    </g>
    <circle id="Ellipse_54" data-name="Ellipse 54" class="cls-11" cx="58.575" cy="58.575" r="58.575" transform="translate(1336.48 252.849)"/>
    <g id="google-adwords-1" transform="translate(1361.38 311.863) rotate(-45)">
      <path id="Path_664" data-name="Path 664" class="cls-12" d="M4.307,48.168l11.748,0-.012-.027L0,0V46.334a5.977,5.977,0,0,0,4.307,1.834" transform="translate(32.196 0.05)"/>
      <path id="Path_665" data-name="Path 665" class="cls-13" d="M0,24.093,6.7,44.215a.092.092,0,0,1,0,.015,6,6,0,0,0,1.356,2.148V.046L8.047,0Z" transform="translate(24.126 0.008)"/>
      <path id="Path_666" data-name="Path 666" class="cls-14" d="M16.082.006l0,.017L16.073.006.012,48.195,0,48.22H11.748a6.092,6.092,0,0,0,5.663-3.985c0-.008,0-.012,0-.012L32.176,0h-16.1V.006h0Z"/>
    </g>
    <g id="Group_424" data-name="Group 424" transform="translate(233.02 253.438)">
      <g id="Group_585" data-name="Group 585" transform="translate(756.916 22.706)">
        <g id="Group_501" data-name="Group 501" transform="translate(0)">
          <g id="Group_500" data-name="Group 500" class="cls-15">
            <path id="Path_496" data-name="Path 496" class="cls-16" d="M481.689,423.586c2.769,3.077-1.846,5.615-10.385,5.615H10.683c-8.539,0-12.846-2.539-9.692-5.615l79.155-76.847c1.462-1.385,7.231-2.538,12.923-2.538H398.842c5.692,0,11.308,1.154,12.616,2.538Z" transform="translate(0.317 -79.427)"/>
            <g id="Group_498" data-name="Group 498" transform="translate(14.552 258.081)">
              <path id="Path_497" data-name="Path 497" class="cls-17" d="M472.433,412.584c.692,8.539-2.462,9.769-10.462,9.769H28.735c-8,0-10.923.615-10.077-9.462l73.924-72.386c1.385-1.308,8.308,1.923,13.616,1.923H393.74c5.308,0,10.616,1.077,11.846,2.385Z" transform="translate(-18.517 -336.583)"/>
              <path id="Path_498" data-name="Path 498" class="cls-18" d="M471.7,410.116c2.615,2.846-1.692,5.231-9.769,5.231H28.77c-8,0-12.077-2.385-9.154-5.231l74.463-72.232c1.385-1.308,6.769-2.385,12.154-2.385H393.776c5.308,0,10.616,1.077,11.846,2.385Z" transform="translate(-18.553 -335.5)"/>
              <path id="Path_499" data-name="Path 499" class="cls-17" d="M433.377,374.193c.308.385-.462.692-1.846.692H101.449c-1.308,0-2.077-.308-1.769-.692l30.231-33.154a4.093,4.093,0,0,1,2.462-.538H404.607a3.975,3.975,0,0,1,2.385.538Z" transform="translate(-37.23 -336.654)"/>
              <path id="Path_500" data-name="Path 500" class="cls-17" d="M364.778,421.931c.154.538-1,1-2.615,1H219.853c-1.538,0-2.692-.462-2.462-1l11.923-31.462c.154-.385,1.385-.769,2.692-.769h122c1.385,0,2.538.308,2.615.769Z" transform="translate(-64.402 -348.007)"/>
              <g id="Group_497" data-name="Group 497" transform="translate(70.978 5.385)">
                <g id="Group_443" data-name="Group 443" transform="translate(181.782 18.616)">
                  <path id="Path_501" data-name="Path 501" class="cls-19" d="M364.716,370.777c.077.462-1.154.846-2.769.846H350.254c-1.615,0-2.923-.385-2.923-.846l-.231-3.308c0-.462,1.231-.769,2.769-.769h11.385c1.538,0,2.846.385,2.923.769Z" transform="translate(-347.1 -366.7)"/>
                </g>
                <g id="Group_444" data-name="Group 444" transform="translate(202.548 18.616)">
                  <path id="Path_502" data-name="Path 502" class="cls-19" d="M392.176,370.777c.154.462-1.077.846-2.692.846H377.791c-1.615,0-3-.385-3.077-.846l-.615-3.308c-.077-.462,1.154-.769,2.692-.769h11.385c1.538,0,2.923.385,3.077.769Z" transform="translate(-374.096 -366.7)"/>
                </g>
                <g id="Group_445" data-name="Group 445" transform="translate(223.461 18.616)">
                  <path id="Path_503" data-name="Path 503" class="cls-19" d="M419.681,370.777c.154.462-1,.846-2.538.846H405.45c-1.615,0-3-.385-3.154-.846l-1-3.308c-.154-.462,1-.769,2.615-.769H415.3c1.538,0,2.923.385,3.154.769Z" transform="translate(-401.282 -366.7)"/>
                </g>
                <g id="Group_446" data-name="Group 446" transform="translate(230.769 25.154)">
                  <path id="Path_504" data-name="Path 504" class="cls-19" d="M430.027,379.585c.231.462-1,.923-2.615.923H415.257c-1.692,0-3.154-.385-3.308-.923l-1.154-3.539c-.154-.462,1-.846,2.615-.846h11.846c1.615,0,3.077.385,3.308.846Z" transform="translate(-410.782 -375.2)"/>
                </g>
                <g id="Group_447" data-name="Group 447" transform="translate(244.306 18.616)">
                  <path id="Path_505" data-name="Path 505" class="cls-19" d="M447.165,370.777c.231.462-.846.846-2.462.846H433.011c-1.615,0-3.077-.385-3.231-.846l-1.385-3.308c-.154-.462.923-.769,2.462-.769h11.385c1.539,0,3,.385,3.231.769Z" transform="translate(-428.381 -366.7)"/>
                </g>
                <g id="Group_448" data-name="Group 448" transform="translate(66.057 25.154)">
                  <path id="Path_506" data-name="Path 506" class="cls-19" d="M220.306,379.585c-.231.462-1.692.923-3.385.923H199.229c-1.692,0-2.769-.385-2.538-.923l1.923-3.539c.231-.462,1.769-.846,3.385-.846h17.231c1.615,0,2.769.385,2.539.846Z" transform="translate(-196.66 -375.2)"/>
                </g>
                <g id="Group_449" data-name="Group 449" transform="translate(203.855 25.154)">
                  <path id="Path_507" data-name="Path 507" class="cls-19" d="M399.953,379.585c.154.462-1.077.923-2.692.923H379.568c-1.692,0-3.077-.385-3.154-.923l-.615-3.539c-.077-.462,1.154-.846,2.769-.846H395.8c1.615,0,3,.385,3.154.846Z" transform="translate(-375.796 -375.2)"/>
                </g>
                <g id="Group_450" data-name="Group 450" transform="translate(97.136 18.616)">
                  <path id="Path_508" data-name="Path 508" class="cls-19" d="M254.476,370.777c-.154.462-1.538.846-3.154.846H239.63c-1.615,0-2.769-.385-2.539-.846l1.308-3.308c.154-.462,1.538-.769,3.154-.769h11.385c1.538,0,2.692.385,2.615.769Z" transform="translate(-237.062 -366.7)"/>
                </g>
                <g id="Group_451" data-name="Group 451" transform="translate(118.239 18.616)">
                  <path id="Path_509" data-name="Path 509" class="cls-19" d="M281.961,370.777c-.077.462-1.462.846-3.077.846H267.191c-1.615,0-2.769-.385-2.692-.846l.923-3.308c.154-.462,1.462-.769,3.077-.769h11.385c1.538,0,2.769.385,2.692.769Z" transform="translate(-264.495 -366.7)"/>
                </g>
                <g id="Group_452" data-name="Group 452" transform="translate(139.547 18.616)">
                  <path id="Path_510" data-name="Path 510" class="cls-19" d="M309.584,370.777c0,.462-1.385.846-2.923.846H294.968c-1.615,0-2.846-.385-2.769-.846l.539-3.308c.077-.462,1.385-.769,2.923-.769h11.385c1.538,0,2.769.385,2.769.769Z" transform="translate(-292.196 -366.7)"/>
                </g>
                <g id="Group_453" data-name="Group 453" transform="translate(160.781 18.616)">
                  <path id="Path_511" data-name="Path 511" class="cls-19" d="M337.185,370.777c0,.462-1.231.846-2.846.846H322.646c-1.615,0-2.846-.385-2.846-.846l.154-3.308c0-.462,1.308-.769,2.846-.769h11.385c1.538,0,2.846.385,2.846.769Z" transform="translate(-319.8 -366.7)"/>
                </g>
                <path id="Path_512" data-name="Path 512" class="cls-19" d="M338.055,376.046c-.077-.462-1.462-.846-3.077-.846H237.207c-1.615,0-3.077.385-3.231.846l-1.385,3.539c-.231.462,1,.923,2.615.923h100.54c1.692,0,2.923-.385,2.846-.923Z" transform="translate(-138.888 -350.046)"/>
                <g id="Group_454" data-name="Group 454" transform="translate(54.65 18.616)">
                  <path id="Path_513" data-name="Path 513" class="cls-19" d="M199.269,370.777c-.231.462-1.769.846-3.308.846H184.269c-1.615,0-2.692-.385-2.385-.846l2.077-3.308c.308-.462,1.769-.769,3.308-.769h11.385c1.539,0,2.615.385,2.385.769Z" transform="translate(-181.832 -366.7)"/>
                </g>
                <g id="Group_455" data-name="Group 455" transform="translate(75.903 18.616)">
                  <path id="Path_514" data-name="Path 514" class="cls-19" d="M226.876,370.777c-.154.462-1.615.846-3.231.846H211.952c-1.615,0-2.692-.385-2.462-.846l1.692-3.308c.231-.462,1.692-.769,3.231-.769H225.8c1.538,0,2.692.385,2.462.769Z" transform="translate(-209.46 -366.7)"/>
                </g>
                <g id="Group_456" data-name="Group 456" transform="translate(44.009 25.154)">
                  <path id="Path_515" data-name="Path 515" class="cls-19" d="M186.154,379.585c-.308.462-1.846.923-3.539.923H170.461c-1.692,0-2.769-.385-2.385-.923l2.308-3.539c.308-.462,1.846-.846,3.462-.846h11.846c1.615,0,2.692.385,2.462.846Z" transform="translate(-167.999 -375.2)"/>
                </g>
                <g id="Group_457" data-name="Group 457" transform="translate(0 25.154)">
                  <path id="Path_516" data-name="Path 516" class="cls-19" d="M128.951,379.585c-.385.462-2.077.923-3.692.923H113.1c-1.692,0-2.615-.385-2.231-.923l3.154-3.539c.385-.462,2.077-.846,3.692-.846h11.846c1.615,0,2.615.385,2.231.846Z" transform="translate(-110.787 -375.2)"/>
                </g>
                <g id="Group_458" data-name="Group 458" transform="translate(22.005 25.154)">
                  <path id="Path_517" data-name="Path 517" class="cls-19" d="M157.553,379.585c-.308.462-1.923.923-3.615.923H141.783c-1.692,0-2.692-.385-2.308-.923l2.692-3.539c.385-.462,2-.846,3.615-.846h11.846c1.615,0,2.692.385,2.308.846Z" transform="translate(-139.393 -375.2)"/>
                </g>
                <g id="Group_459" data-name="Group 459" transform="translate(171.32 13.154)">
                  <path id="Path_518" data-name="Path 518" class="cls-19" d="M350.423,363.446c.077.462-1.154.769-2.692.769H336.346c-1.539,0-2.846-.385-2.846-.769v-3.077c0-.385,1.231-.769,2.692-.769h11.077c1.539,0,2.769.308,2.846.769Z" transform="translate(-333.5 -359.6)"/>
                </g>
                <g id="Group_460" data-name="Group 460" transform="translate(191.471 13.154)">
                  <path id="Path_519" data-name="Path 519" class="cls-19" d="M377.007,363.446c.077.462-1.077.769-2.615.769H363.007c-1.539,0-2.846-.385-2.923-.769l-.385-3.077c-.077-.385,1.154-.769,2.615-.769h11.077c1.538,0,2.769.308,2.923.769Z" transform="translate(-359.696 -359.6)"/>
                </g>
                <g id="Group_461" data-name="Group 461" transform="translate(211.625 13.154)">
                  <path id="Path_520" data-name="Path 520" class="cls-19" d="M403.591,363.446c.154.462-1,.769-2.538.769H389.668c-1.538,0-2.923-.385-3-.769l-.769-3.077c-.077-.385,1.077-.769,2.539-.769h11.077c1.539,0,2.846.308,3,.769Z" transform="translate(-385.895 -359.6)"/>
                </g>
                <g id="Group_462" data-name="Group 462" transform="translate(231.922 13.154)">
                  <path id="Path_521" data-name="Path 521" class="cls-19" d="M430.3,363.446c.231.462-.923.769-2.462.769H416.449c-1.538,0-2.923-.385-3.077-.769l-1.077-3.077c-.154-.385.923-.769,2.462-.769h11.077c1.539,0,2.846.308,3.077.769Z" transform="translate(-412.281 -359.6)"/>
                </g>
                <g id="Group_463" data-name="Group 463" transform="translate(252.059 13.154)">
                  <path id="Path_522" data-name="Path 522" class="cls-19" d="M456.876,363.446c.231.462-.846.769-2.385.769H443.106c-1.539,0-3-.385-3.154-.769l-1.462-3.077c-.231-.385.846-.769,2.385-.769h11.077c1.538,0,2.923.308,3.154.769Z" transform="translate(-438.459 -359.6)"/>
                </g>
                <path id="Path_523" data-name="Path 523" class="cls-19" d="M499.513,367.692a4.97,4.97,0,0,0-3-.692H457.666c-1.385,0-2.308.308-2.077.692l1.846,3.539c.231.385,1.538.692,2.923.692h39.924c1.385,0,2.231-.308,1.923-.692Z" transform="translate(-190.345 -348.154)"/>
                <path id="Path_524" data-name="Path 524" class="cls-19" d="M165.573,367.392c.231-.385-.615-.692-2-.692H124.726a5.446,5.446,0,0,0-3.077.692l-3.077,3.539c-.385.385.462.692,1.846.692h39.924a4.969,4.969,0,0,0,3-.692Z" transform="translate(-112.562 -348.084)"/>
                <path id="Path_525" data-name="Path 525" class="cls-19" d="M497.251,360.215c-.308-.385-1.539-.615-2.846-.615H466.789c-1.308,0-2.231.308-2,.615l1.923,3.308c.231.385,1.462.692,2.846.692h28.308c1.385,0,2.231-.308,1.923-.692Z" transform="translate(-192.468 -346.446)"/>
                <path id="Path_526" data-name="Path 526" class="cls-19" d="M160.565,360.215c.231-.385-.615-.615-1.923-.615H131.026a5.662,5.662,0,0,0-2.923.615l-2.923,3.308c-.308.385.462.692,1.846.692h28.308a4.686,4.686,0,0,0,2.923-.692Z" transform="translate(-114.093 -346.446)"/>
                <g id="Group_464" data-name="Group 464" transform="translate(88.996 13.154)">
                  <path id="Path_527" data-name="Path 527" class="cls-19" d="M243.419,363.446c-.154.462-1.538.769-3.077.769H228.957c-1.538,0-2.615-.385-2.462-.769l1.385-3.077c.154-.385,1.538-.769,3.077-.769h11.077c1.538,0,2.615.308,2.462.769Z" transform="translate(-226.481 -359.6)"/>
                </g>
                <g id="Group_465" data-name="Group 465" transform="translate(109.536 13.154)">
                  <path id="Path_528" data-name="Path 528" class="cls-19" d="M270.119,363.446c-.077.462-1.461.769-3,.769H255.734c-1.538,0-2.692-.385-2.538-.769l1.077-3.077c.154-.385,1.462-.769,3-.769H268.35c1.538,0,2.615.308,2.538.769Z" transform="translate(-253.182 -359.6)"/>
                </g>
                <g id="Group_466" data-name="Group 466" transform="translate(130.162 13.154)">
                  <path id="Path_529" data-name="Path 529" class="cls-19" d="M296.922,363.446c-.077.462-1.385.769-2.923.769H282.614c-1.538,0-2.692-.385-2.615-.769l.692-3.077c.077-.385,1.385-.769,2.923-.769h11.077c1.538,0,2.692.308,2.615.769Z" transform="translate(-279.995 -359.6)"/>
                </g>
                <g id="Group_467" data-name="Group 467" transform="translate(150.701 13.154)">
                  <path id="Path_530" data-name="Path 530" class="cls-19" d="M323.622,363.446c0,.462-1.231.769-2.846.769H309.391c-1.538,0-2.769-.385-2.692-.769l.308-3.077c.077-.385,1.308-.769,2.846-.769H320.93c1.538,0,2.692.308,2.692.769Z" transform="translate(-306.696 -359.6)"/>
                </g>
                <g id="Group_468" data-name="Group 468" transform="translate(47.824 13.154)">
                  <path id="Path_531" data-name="Path 531" class="cls-19" d="M189.913,363.446c-.231.462-1.692.769-3.231.769H175.3c-1.538,0-2.539-.385-2.308-.769l2.077-3.077a5.553,5.553,0,0,1,3.231-.769h11.077c1.538,0,2.538.308,2.308.769Z" transform="translate(-172.957 -359.6)"/>
                </g>
                <g id="Group_469" data-name="Group 469" transform="translate(68.441 13.154)">
                  <path id="Path_532" data-name="Path 532" class="cls-19" d="M216.714,363.446c-.231.462-1.615.769-3.154.769H202.175c-1.538,0-2.615-.385-2.385-.769l1.769-3.077c.231-.385,1.615-.769,3.154-.769h11.077c1.538,0,2.539.308,2.385.769Z" transform="translate(-199.76 -359.6)"/>
                </g>
                <g id="Group_470" data-name="Group 470" transform="translate(167.012 8)">
                  <path id="Path_533" data-name="Path 533" class="cls-19" d="M344.285,356.515c0,.385-1.154.769-2.692.769h-11c-1.538,0-2.692-.308-2.692-.769l.077-2.923c0-.385,1.231-.692,2.692-.692h10.769c1.462,0,2.692.308,2.692.692Z" transform="translate(-327.9 -352.9)"/>
                </g>
                <g id="Group_471" data-name="Group 471" transform="translate(186.624 8)">
                  <path id="Path_534" data-name="Path 534" class="cls-19" d="M370.091,356.515c.077.385-1.077.769-2.615.769h-11c-1.539,0-2.769-.308-2.769-.769l-.308-2.923c-.077-.385,1.154-.692,2.615-.692h10.769c1.462,0,2.692.308,2.769.692Z" transform="translate(-353.396 -352.9)"/>
                </g>
                <g id="Group_472" data-name="Group 472" transform="translate(206.393 8)">
                  <path id="Path_535" data-name="Path 535" class="cls-19" d="M396.022,356.515c.154.385-1,.769-2.462.769h-11c-1.539,0-2.769-.308-2.846-.769l-.615-2.923c-.077-.385,1-.692,2.538-.692h10.769c1.462,0,2.769.308,2.846.692Z" transform="translate(-379.095 -352.9)"/>
                </g>
                <g id="Group_473" data-name="Group 473" transform="translate(225.921 8)">
                  <path id="Path_536" data-name="Path 536" class="cls-19" d="M421.8,356.515c.154.385-.923.769-2.385.769h-11c-1.538,0-2.846-.308-3-.769l-.923-2.923c-.154-.385.923-.692,2.385-.692H417.65c1.461,0,2.769.308,2.923.692Z" transform="translate(-404.481 -352.9)"/>
                </g>
                <g id="Group_474" data-name="Group 474" transform="translate(245.459 8)">
                  <path id="Path_537" data-name="Path 537" class="cls-19" d="M447.588,356.515c.231.385-.846.769-2.308.769h-11c-1.538,0-2.846-.308-3.077-.769l-1.308-2.923c-.154-.385.846-.692,2.308-.692h10.769c1.462,0,2.846.308,3,.692Z" transform="translate(-429.88 -352.9)"/>
                </g>
                <g id="Group_475" data-name="Group 475" transform="translate(265.134 8)">
                  <path id="Path_538" data-name="Path 538" class="cls-19" d="M473.49,356.515c.231.385-.769.769-2.231.769h-11c-1.538,0-2.923-.308-3.154-.769l-1.615-2.923c-.231-.385.769-.692,2.231-.692H468.49c1.462,0,2.846.308,3.077.692Z" transform="translate(-455.457 -352.9)"/>
                </g>
                <g id="Group_476" data-name="Group 476" transform="translate(284.671 8)">
                  <path id="Path_539" data-name="Path 539" class="cls-19" d="M499.274,356.515c.308.385-.692.769-2.154.769h-11c-1.539,0-2.923-.308-3.231-.769l-2-2.923c-.231-.385.692-.692,2.154-.692h10.769c1.462,0,2.923.308,3.231.692Z" transform="translate(-480.854 -352.9)"/>
                </g>
                <g id="Group_477" data-name="Group 477" transform="translate(87.149 8)">
                  <path id="Path_540" data-name="Path 540" class="cls-19" d="M240.48,356.515c-.154.385-1.462.769-3,.769h-11c-1.538,0-2.539-.308-2.385-.769l1.385-2.923c.154-.385,1.538-.692,3-.692h10.769c1.462,0,2.538.308,2.385.692Z" transform="translate(-224.08 -352.9)"/>
                </g>
                <g id="Group_478" data-name="Group 478" transform="translate(107.15 8)">
                  <path id="Path_541" data-name="Path 541" class="cls-19" d="M266.48,356.515c-.077.385-1.385.769-2.923.769h-11c-1.538,0-2.615-.308-2.462-.769l1.077-2.923c.154-.385,1.462-.692,2.923-.692h10.769c1.462,0,2.538.308,2.462.692Z" transform="translate(-250.081 -352.9)"/>
                </g>
                <g id="Group_479" data-name="Group 479" transform="translate(127.085 8)">
                  <path id="Path_542" data-name="Path 542" class="cls-19" d="M292.384,356.515c-.077.385-1.308.769-2.846.769h-11c-1.539,0-2.615-.308-2.539-.769l.692-2.923c.077-.385,1.385-.692,2.846-.692h10.769c1.462,0,2.615.308,2.538.692Z" transform="translate(-275.995 -352.9)"/>
                </g>
                <g id="Group_480" data-name="Group 480" transform="translate(147.008 8)">
                  <path id="Path_543" data-name="Path 543" class="cls-19" d="M318.284,356.515c0,.385-1.231.769-2.769.769h-11c-1.538,0-2.692-.308-2.615-.769l.385-2.923c.077-.385,1.308-.692,2.769-.692h10.769c1.462,0,2.615.308,2.615.692Z" transform="translate(-301.895 -352.9)"/>
                </g>
                <g id="Group_481" data-name="Group 481" transform="translate(47.206 8)">
                  <path id="Path_544" data-name="Path 544" class="cls-19" d="M188.574,356.515c-.231.385-1.692.769-3.154.769h-11c-1.538,0-2.462-.308-2.231-.769l2.077-2.923c.308-.385,1.692-.692,3.154-.692H188.19c1.462,0,2.462.308,2.231.692Z" transform="translate(-172.154 -352.9)"/>
                </g>
                <g id="Group_482" data-name="Group 482" transform="translate(67.208 8)">
                  <path id="Path_545" data-name="Path 545" class="cls-19" d="M214.575,356.515c-.231.385-1.615.769-3.077.769h-11c-1.538,0-2.538-.308-2.308-.769l1.692-2.923c.231-.385,1.615-.692,3.077-.692h10.769c1.462,0,2.462.308,2.308.692Z" transform="translate(-198.157 -352.9)"/>
                </g>
                <path id="Path_546" data-name="Path 546" class="cls-19" d="M159.966,352.8h-22c-1.462,0-3.462.154-3.846.538l-2.539,2.923c-.385.385,1.077.923,2.615.923h22.462a3.438,3.438,0,0,0,2.692-.923l2.077-2.923C161.813,352.954,161.428,352.8,159.966,352.8Z" transform="translate(-115.571 -344.877)"/>
                <g id="Group_483" data-name="Group 483" transform="translate(136.623 2.846)">
                  <path id="Path_547" data-name="Path 547" class="cls-19" d="M304.322,349.662c0,.385-1.231.692-2.692.692H290.937c-1.462,0-2.615-.308-2.539-.692l.539-2.769c.077-.385,1.308-.692,2.692-.692h10.462c1.385,0,2.538.308,2.538.692Z" transform="translate(-288.395 -346.2)"/>
                </g>
                <g id="Group_484" data-name="Group 484" transform="translate(117.238 2.846)">
                  <path id="Path_548" data-name="Path 548" class="cls-19" d="M279.122,349.662c-.077.385-1.308.692-2.769.692H265.66c-1.462,0-2.539-.308-2.462-.692l.846-2.769c.077-.385,1.385-.692,2.769-.692h10.462c1.385,0,2.539.308,2.462.692Z" transform="translate(-263.195 -346.2)"/>
                </g>
                <g id="Group_485" data-name="Group 485" transform="translate(97.98 2.846)">
                  <path id="Path_549" data-name="Path 549" class="cls-19" d="M254.037,349.662c-.154.385-1.385.692-2.846.692H240.5c-1.462,0-2.538-.308-2.308-.692l1.154-2.769c.154-.385,1.462-.692,2.846-.692h10.462c1.385,0,2.462.308,2.385.692Z" transform="translate(-238.159 -346.2)"/>
                </g>
                <g id="Group_486" data-name="Group 486" transform="translate(78.593 2.846)">
                  <path id="Path_550" data-name="Path 550" class="cls-19" d="M228.836,349.662c-.154.385-1.462.692-2.923.692H215.221c-1.462,0-2.462-.308-2.231-.692l1.462-2.769c.231-.385,1.538-.692,2.923-.692h10.462c1.385,0,2.462.308,2.308.692Z" transform="translate(-212.957 -346.2)"/>
                </g>
                <g id="Group_487" data-name="Group 487" transform="translate(59.263 2.846)">
                  <path id="Path_551" data-name="Path 551" class="cls-19" d="M203.73,349.662c-.231.385-1.539.692-3,.692H190.037c-1.462,0-2.462-.308-2.154-.692l1.769-2.769c.231-.385,1.615-.692,3-.692h10.462c1.385,0,2.385.308,2.231.692Z" transform="translate(-187.828 -346.2)"/>
                </g>
                <g id="Group_488" data-name="Group 488" transform="translate(39.874 2.846)">
                  <path id="Path_552" data-name="Path 552" class="cls-19" d="M178.529,349.662c-.231.385-1.615.692-3.077.692H164.759c-1.462,0-2.385-.308-2.077-.692l2.077-2.769c.308-.385,1.692-.692,3.077-.692H178.3c1.385,0,2.385.308,2.154.692Z" transform="translate(-162.623 -346.2)"/>
                </g>
                <g id="Group_489" data-name="Group 489" transform="translate(20.538 2.846)">
                  <path id="Path_553" data-name="Path 553" class="cls-19" d="M153.42,349.662c-.308.385-1.692.692-3.154.692H139.574c-1.462,0-2.385-.308-2-.692l2.462-2.769c.308-.385,1.769-.692,3.154-.692h10.462c1.385,0,2.308.308,2.077.692Z" transform="translate(-137.486 -346.2)"/>
                </g>
                <g id="Group_490" data-name="Group 490" transform="translate(213.317 2.846)">
                  <path id="Path_554" data-name="Path 554" class="cls-19" d="M404.714,349.662c.154.385-.923.692-2.385.692H391.637c-1.461,0-2.692-.308-2.846-.692l-.692-2.769c-.077-.385,1-.692,2.385-.692h10.462c1.385,0,2.692.308,2.846.692Z" transform="translate(-388.095 -346.2)"/>
                </g>
                <g id="Group_491" data-name="Group 491" transform="translate(194.317 2.846)">
                  <path id="Path_555" data-name="Path 555" class="cls-19" d="M379.707,349.662c.077.385-1,.692-2.462.692H366.553c-1.462,0-2.692-.308-2.769-.692l-.385-2.769c-.077-.385,1.077-.692,2.462-.692h10.462c1.385,0,2.615.308,2.769.692Z" transform="translate(-363.395 -346.2)"/>
                </g>
                <g id="Group_492" data-name="Group 492" transform="translate(175.243 2.846)">
                  <path id="Path_556" data-name="Path 556" class="cls-19" d="M354.6,349.662c.077.385-1.077.692-2.538.692H341.369c-1.461,0-2.615-.308-2.692-.692l-.077-2.769c0-.385,1.154-.692,2.538-.692H351.6c1.385,0,2.615.308,2.692.692Z" transform="translate(-338.6 -346.2)"/>
                </g>
                <g id="Group_493" data-name="Group 493" transform="translate(156.012 2.846)">
                  <path id="Path_557" data-name="Path 557" class="cls-19" d="M329.523,349.662c0,.385-1.154.692-2.615.692H316.215c-1.462,0-2.615-.308-2.615-.692l.231-2.769c0-.385,1.231-.692,2.615-.692h10.462c1.385,0,2.615.308,2.615.692Z" transform="translate(-313.6 -346.2)"/>
                </g>
                <g id="Group_494" data-name="Group 494" transform="translate(251.382 2.846)">
                  <path id="Path_558" data-name="Path 558" class="cls-19" d="M454.9,349.662c.231.385-.769.692-2.231.692H441.98c-1.461,0-2.769-.308-3-.692l-1.385-2.769c-.154-.385.846-.692,2.231-.692h10.462c1.385,0,2.769.308,3,.692Z" transform="translate(-437.58 -346.2)"/>
                </g>
                <g id="Group_495" data-name="Group 495" transform="translate(232.383 2.846)">
                  <path id="Path_559" data-name="Path 559" class="cls-19" d="M429.819,349.662c.154.385-.846.692-2.308.692H416.819c-1.462,0-2.769-.308-2.923-.692l-1-2.769c-.154-.385.923-.692,2.308-.692h10.462c1.385,0,2.692.308,2.923.692Z" transform="translate(-412.881 -346.2)"/>
                </g>
                <path id="Path_560" data-name="Path 560" class="cls-19" d="M467.082,350.354h21.77c1.461,0,2.385-.308,2.077-.692l-2.077-2.769c-.308-.385-1.692-.692-3.077-.692H464.543c-1.462,0-2.385.308-2.154.692l1.692,2.769C464.313,350.046,465.62,350.354,467.082,350.354Z" transform="translate(-191.914 -343.354)"/>
                <g id="Group_496" data-name="Group 496" transform="translate(273.837 25.077)">
                  <path id="Path_561" data-name="Path 561" class="cls-19" d="M484.563,375.869c-.308-.462-1.385-.769-3-.769H469.716c-1.615,0-3.154.308-2.923.769l1.077,2h17.923Z" transform="translate(-466.77 -375.1)"/>
                  <path id="Path_562" data-name="Path 562" class="cls-19" d="M468.3,378.7l.846,1.538c.308.462,2.308,1,3.923,1h12.154c1.692,0,2.308-.539,1.923-1l-1-1.538Z" transform="translate(-467.123 -375.931)"/>
                </g>
                <path id="Path_563" data-name="Path 563" class="cls-19" d="M458.888,380.477c.231.385-.692.692-2,.692H443.5c-1.308,0-2.538-.308-2.692-.692l-.615-1.385c-.154-.385.769-.692,2-.692h13.231c1.308,0,2.462.308,2.692.692Z" transform="translate(-186.797 -350.784)"/>
                <path id="Path_564" data-name="Path 564" class="cls-19" d="M516.089,380.477c.308.385-.538.692-1.846.692H500.858c-1.308,0-2.615-.308-2.846-.692l-.923-1.385c-.231-.385.615-.692,1.846-.692h13.231a4.577,4.577,0,0,1,2.846.692Z" transform="translate(-199.921 -350.784)"/>
                <path id="Path_565" data-name="Path 565" class="cls-19" d="M489.048,344.038c.231.308-.538.539-1.615.539H475.971a3.805,3.805,0,0,1-2.385-.539l-.692-1c-.154-.308.538-.538,1.692-.538h11.308a3.974,3.974,0,0,1,2.385.538Z" transform="translate(-194.341 -342.5)"/>
                <path id="Path_566" data-name="Path 566" class="cls-19" d="M158.44,344.038a4.093,4.093,0,0,1-2.462.539H144.517c-1.154,0-1.846-.231-1.538-.539l.923-1a4.093,4.093,0,0,1,2.462-.538h11.231c1.077,0,1.846.231,1.615.538Z" transform="translate(-118.199 -342.5)"/>
                <path id="Path_567" data-name="Path 567" class="cls-19" d="M183.748,344.038c-.154.308-1.231.539-2.385.539H169.9c-1.154,0-1.846-.231-1.615-.539l.769-1a3.975,3.975,0,0,1,2.385-.538h11.308c1.077,0,1.846.231,1.692.538Z" transform="translate(-124.046 -342.5)"/>
                <path id="Path_568" data-name="Path 568" class="cls-19" d="M209.055,344.038c-.154.308-1.154.539-2.308.539H195.286c-1.154,0-1.846-.231-1.692-.539l.692-1c.154-.308,1.231-.538,2.308-.538H207.9c1.077,0,1.846.231,1.692.538Z" transform="translate(-129.891 -342.5)"/>
                <path id="Path_569" data-name="Path 569" class="cls-19" d="M234.356,344.038c-.154.308-1.154.539-2.231.539H220.664c-1.077,0-1.923-.231-1.769-.539l.538-1c.154-.308,1.154-.538,2.231-.538h11.308c1.077,0,1.923.231,1.769.538Z" transform="translate(-135.73 -342.5)"/>
                <path id="Path_570" data-name="Path 570" class="cls-19" d="M260.56,344.038c-.077.308-1.077.539-2.154.539H246.945c-1.154,0-1.923-.231-1.846-.539l.385-1c.077-.308,1.077-.538,2.231-.538h11.308c1.077,0,1.923.231,1.846.538Z" transform="translate(-141.78 -342.5)"/>
                <path id="Path_571" data-name="Path 571" class="cls-19" d="M285.86,344.038c-.077.308-1,.539-2.154.539H272.245c-1.154,0-1.923-.231-1.846-.539l.308-1c.077-.308,1.077-.538,2.154-.538h11.308c1.077,0,1.923.231,1.923.538Z" transform="translate(-147.618 -342.5)"/>
                <path id="Path_572" data-name="Path 572" class="cls-19" d="M311.16,344.038c0,.308-.923.539-2.077.539H297.622c-1.154,0-2-.231-1.923-.539l.154-1c.077-.308,1-.538,2.077-.538h11.308c1.077,0,2,.231,1.923.538Z" transform="translate(-153.456 -342.5)"/>
                <path id="Path_573" data-name="Path 573" class="cls-19" d="M336.562,344.038c0,.308-.846.539-2,.539H323.1c-1.154,0-2-.231-2-.539l.077-1c0-.308.923-.538,2-.538h11.308c1.077,0,2,.231,2,.538Z" transform="translate(-159.319 -342.5)"/>
                <path id="Path_574" data-name="Path 574" class="cls-19" d="M361.839,344.038c.077.308-.846.539-1.923.539H348.454c-1.077,0-2-.231-2.077-.539l-.077-1c0-.308.846-.538,1.923-.538h11.308c1.077,0,2,.231,2.077.538Z" transform="translate(-165.134 -342.5)"/>
                <path id="Path_575" data-name="Path 575" class="cls-19" d="M387.091,344.038c.077.308-.769.539-1.846.539H373.783c-1.154,0-2.077-.231-2.154-.539l-.231-1c-.077-.308.769-.538,1.923-.538H384.63c1.077,0,2.077.231,2.154.538Z" transform="translate(-170.924 -342.5)"/>
                <path id="Path_576" data-name="Path 576" class="cls-19" d="M413.268,344.038c.077.308-.692.539-1.846.539H399.96c-1.154,0-2.077-.231-2.154-.539l-.308-1c-.077-.308.769-.538,1.846-.538h11.308c1.077,0,2.077.231,2.231.538Z" transform="translate(-176.947 -342.5)"/>
                <path id="Path_577" data-name="Path 577" class="cls-19" d="M438.518,344.038c.154.308-.615.539-1.769.539H425.287c-1.154,0-2.154-.231-2.231-.539l-.461-1c-.154-.308.692-.538,1.769-.538h11.308c1.077,0,2.154.231,2.231.538Z" transform="translate(-182.735 -342.5)"/>
                <path id="Path_578" data-name="Path 578" class="cls-19" d="M463.8,343.985c.154.308-.308.615-1.385.615H450.949c-1.154,0-2.462-.308-2.615-.615l-.538-1c-.154-.308.923-.385,2-.385H461.1c1.077,0,1.846.154,2,.385Z" transform="translate(-188.551 -342.523)"/>
              </g>
            </g>
            <g id="Group_499" data-name="Group 499" transform="translate(94.848 63.847)">
              <path id="Path_579" data-name="Path 579" class="cls-19" d="M180.924,83.1Q150.577,115.754,123,151.024v32.539c27.923-34,56.539-67.924,86.386-100.463H180.924Z" transform="translate(-122.923 -83.023)"/>
              <path id="Path_580" data-name="Path 580" class="cls-20" d="M209.386,83.1C179.539,115.639,150.923,149.562,123,183.563v45.924c39.385-51.155,82.847-98.848,126.694-146.387H209.386Z" transform="translate(-122.923 -83.023)"/>
              <path id="Path_581" data-name="Path 581" class="cls-19" d="M425.9,95.023A11.933,11.933,0,0,0,413.981,83.1H249.594c-43.847,47.462-87.309,95.232-126.694,146.387v30.847H346.749c25.385-39.847,52.155-78.77,79.155-117.617V95.023Z" transform="translate(-122.9 -83.023)"/>
              <path id="Path_582" data-name="Path 582" class="cls-19" d="M502.378,236.154V204c-16.923,27.385-32.847,55.462-48.078,84.232h19.846C483.685,270.924,492.916,253.539,502.378,236.154Z" transform="translate(-199.373 -110.922)"/>
              <path id="Path_583" data-name="Path 583" class="cls-20" d="M508.331,245.8c-9.462,17.308-18.693,34.77-28.231,52.078h10.385c5.923-11,11.923-22.077,17.769-33.154V245.8Z" transform="translate(-205.327 -120.567)"/>
              <path id="Path_584" data-name="Path 584" class="cls-19" d="M511.469,270.4c-5.846,11.077-11.846,22.154-17.77,33.154h17.77Z" transform="translate(-208.465 -126.244)"/>
              <path id="Path_585" data-name="Path 585" class="cls-20" d="M493.055,160.6c-27,38.924-53.77,77.847-79.155,117.617h31c15.231-28.77,31.154-56.847,48.078-84.232V160.6Z" transform="translate(-190.051 -100.907)"/>
              <path id="Path_586" data-name="Path 586" class="cls-20" d="M169.847,83.077C153.847,99.846,138.308,117,123,134.385v16.539Q150.577,115.731,180.924,83H169.847Z" transform="translate(-122.923 -83)"/>
              <path id="Path_587" data-name="Path 587" class="cls-19" d="M134.823,83.1A11.933,11.933,0,0,0,122.9,95.023v39.462q22.962-26.077,46.847-51.308H134.823Z" transform="translate(-122.9 -83.023)"/>
              <path id="Path_588" data-name="Path 588" class="cls-21" d="M417.558,252.564v10.769H138.4V106.869A10.8,10.8,0,0,1,149.169,96.1H406.788a10.8,10.8,0,0,1,10.769,10.769Z" transform="translate(-126.477 -86.023)"/>
              <path id="Path_589" data-name="Path 589" class="cls-22" d="M208.008,241.317l166-4,10.616-93.386L200.7,132.7Z" transform="translate(-140.853 -94.469)"/>
              <path id="Path_590" data-name="Path 590" class="cls-18" d="M134.846,330.577H414c6.539,0,11.923-2.692,11.923-6V313.5H123v11.077C123,327.885,128.308,330.577,134.846,330.577Z" transform="translate(-122.923 -136.19)"/>
              <path id="Path_591" data-name="Path 591" class="cls-20" d="M327.177,321.769c0,2.615-4.692,4.769-10.539,4.769-5.769,0-10.539-2.154-10.539-4.769S310.792,317,316.639,317,327.177,319.154,327.177,321.769Z" transform="translate(-165.175 -136.997)"/>
            </g>
          </g>
        </g>
        <g id="Group_507" data-name="Group 507" transform="translate(320.967 96.543)">
          <g id="Group_502" data-name="Group 502" transform="translate(1.653 20.767)">
            <path id="Path_592" data-name="Path 592" class="cls-23" d="M438.539,167.654c-7.231,0-16.077-1.462-19.539-7.769l1,7.231c2.308,5.769,12.616,7.923,18.539,7.923,12.846,0,26.847-7.154,30.154-15.308l.385-7.231C465,161.039,450.616,167.654,438.539,167.654Z" transform="translate(-419 -152.5)"/>
          </g>
          <g id="Group_503" data-name="Group 503" transform="translate(17.269 0.914)">
            <path id="Path_593" data-name="Path 593" class="cls-23" d="M440.223,140.314l-.923,4.308h0l16.462-11.462.385-.231.385-.231,6.539-4.615a32.274,32.274,0,0,0-14.616-1,39.322,39.322,0,0,0-5.692,1.154l-1.231,5.769-1.154,5.385-.077.462Z" transform="translate(-439.3 -126.692)"/>
          </g>
          <g id="Group_504" data-name="Group 504" transform="translate(0.712 2.766)">
            <path id="Path_594" data-name="Path 594" class="cls-23" d="M465.334,139.485l-.615.154-31.154,7-.385.308.231-.923v-.154h0l.923-4.462.077-.462.077-.462,1.692-7.769.769-3.615a22.817,22.817,0,0,0-3,1c-8.462,3.308-16.616,9.769-16.154,18.693v.385a10.613,10.613,0,0,0,.231,1.538l.231.923c2.077,8.154,11.923,9.923,19.846,9.923,13.077,0,28.923-7.769,30.693-17.231a12.592,12.592,0,0,0,.154-1.692v-1.077a1407.643,1407.643,0,0,1-.154-.923,15.757,15.757,0,0,0-.385-1.846l-2.615.615Z" transform="translate(-417.776 -129.1)"/>
          </g>
          <g id="Group_505" data-name="Group 505" transform="translate(18.192 2.459)">
            <path id="Path_595" data-name="Path 595" class="cls-23" d="M456.885,133.931,440.5,145.316l28.231-6.385.615-.154.615-.154,3.615-.846h0c-1.385-4.077-4.692-7.231-9.385-9.077l-6.616,4.615-.385.231Z" transform="translate(-440.5 -128.7)"/>
          </g>
          <g id="Group_506" data-name="Group 506">
            <path id="Path_596" data-name="Path 596" class="cls-4" d="M469.659,140.116l-.077-.077a13.05,13.05,0,0,0-.462-2.385h0l-.154-.385v-.077l-.077-.308h0c-1.385-4.154-4.692-7.462-9.385-9.462h0l-.692-.231h0l-.154-.077h0a32.607,32.607,0,0,0-15.462-1.231,44.456,44.456,0,0,0-5.385,1.077h0l-.615.154h-.077l-.154.077h0a26.017,26.017,0,0,0-3.462,1.154c-8.385,3.231-17.308,10.308-16.616,19.77h0l.077.385.154,1.308,1.538,11.154v.077c2.462,6.154,13.077,8.462,19.231,8.462,13.154,0,27.539-7.385,30.847-15.846l.615-10.231a14.93,14.93,0,0,0,.154-1.846v-.769Zm-31.616,28.693c-5.923,0-16.154-2.154-18.539-7.923l-1-7.231c3.462,6.308,12.308,7.769,19.539,7.769,12.154,0,26.539-6.616,30.539-15.077l-.385,7.231C464.889,161.655,450.812,168.809,438.043,168.809Zm-4.231-39.693c.846-.308,1.846-.692,3-1l-.769,3.615L434.35,139.5l-.077.462-.077.462-.923,4.462h0v.154l-.231.923.385-.308,31.154-7,.615-.154.615-.154,2.615-.615a15.752,15.752,0,0,1,.385,1.846,7934.193,7934.193,0,0,1,.154.923v1.077a11.521,11.521,0,0,1-.154,1.692C467.043,152.732,451.2,160.5,438.12,160.5c-7.923,0-17.769-1.692-19.846-9.923l-.231-.923c-.077-.538-.154-1-.231-1.538v-.385C417.2,138.963,425.427,132.424,433.812,129.116Zm3.846-1.231a37.341,37.341,0,0,1,5.692-1.154,32.274,32.274,0,0,1,14.616,1l-6.539,4.615-.385.231-.385.231L434.12,144.347h0l.923-4.308.077-.462.077-.462,1.154-5.385Zm30.539,9.308-3.615.846-.615.154-.615.154-28.231,6.385L451.5,133.347l.385-.231.385-.231,6.615-4.615a14.547,14.547,0,0,1,9.308,8.923Z" transform="translate(-416.851 -125.504)"/>
          </g>
        </g>
        <g id="Group_508" data-name="Group 508" transform="translate(124.615 94.827)">
          <path id="Path_597" data-name="Path 597" class="cls-4" d="M186.984,127.448c-2.923-4.692-7.846-4.462-11.846-3.846a17.675,17.675,0,0,0-12.154,8.462c-1.923,3.462-1.846,7.154.231,11.693,1.538,3.308,4.231,5.615,6.846,7.846a13.369,13.369,0,0,1,1.154,1l1.077,6.231c-.077,0-.154.077-.231.077-1.077.308-2.231,1.154-1.538,3.385a3.544,3.544,0,0,0,.692,1.308,2.535,2.535,0,0,0,0,1.077c.308,1.923,1.154,3,2.692,3.462.231.077.538.154.769.231a2.386,2.386,0,0,0,.769,1.846,5.726,5.726,0,0,0,5.077,1.231,10.027,10.027,0,0,0,3.462-1.308,3.183,3.183,0,0,0,1.539-1.923,4.085,4.085,0,0,0,.077-1.385,5.817,5.817,0,0,0,1.462-1.615,3.241,3.241,0,0,0,.154-3.231c-.077-.077-.077-.154-.154-.231a3.421,3.421,0,0,0,.615-1.538,2.2,2.2,0,0,0-1.154-2.615,2.509,2.509,0,0,0-1.308,0,.462.462,0,0,0-.308.077H184.6a26.685,26.685,0,0,0-.308-3.231,22.169,22.169,0,0,1-.308-2.692,5.234,5.234,0,0,1,1.615-2.538,6.962,6.962,0,0,0,1.385-1.769c.385-.615.769-1.231,1.154-1.769a12.213,12.213,0,0,0,2.077-4.385C190.907,137.14,189.754,132.14,186.984,127.448Zm.462,17.846a19.352,19.352,0,0,0-1.154,1.846,6.036,6.036,0,0,1-1.308,1.615c-.846.923-1.769,1.846-1.846,2.923a22.648,22.648,0,0,0,.308,2.846,25.541,25.541,0,0,1,.308,3.154v.308c0,.154-.077.231-.077.308l-.231.462a6.625,6.625,0,0,1-3.846,1.692h0c-2.615.462-5.154-.077-6.539-1.231h0l-.077-.308-.077-.308-1.077-6.462-.077-.077c-.385-.385-.846-.692-1.231-1.077-2.539-2.154-5.231-4.462-6.692-7.615-2.077-4.385-2.154-7.769-.231-11.077a16.972,16.972,0,0,1,11.692-8.154c5.615-.923,9,.154,11.154,3.538,2.692,4.539,3.846,9.385,3,13.308A12.433,12.433,0,0,1,187.446,145.294Zm-1.385,12.923c.692.231.923,1.154.769,1.923a2.529,2.529,0,0,1-.538,1.231,16157.166,16157.166,0,0,0-.462.615,10.528,10.528,0,0,1-4.769,2.615,12.293,12.293,0,0,1-1.615.385c-2.846.462-6.077.308-7.692-1.462a1.062,1.062,0,0,1-.231-.308c-.077-.077-.154-.231-.231-.308-.154-.231-.231-.538-.385-.769-.385-1.385-.077-2.231,1.154-2.538.077,0,.154,0,.154-.077v.154l.077.077c1.538,1.385,4.308,2,7.154,1.538h0a7.5,7.5,0,0,0,4.154-1.923,1.755,1.755,0,0,0,.462-.923c.154,0,.308-.077.462-.077a.836.836,0,0,0,.385-.077A3.236,3.236,0,0,1,186.061,158.218Zm.385,4.154a2.71,2.71,0,0,1-.154,2.539,4.71,4.71,0,0,1-1.154,1.308l-.231.231-.231.231a8.692,8.692,0,0,1-3.539,1.308,16.218,16.218,0,0,1-5.769-.154c-.077,0-.231-.077-.308-.077s-.231-.077-.308-.077l-.692-.231a3.1,3.1,0,0,1-2.231-2.923v-.308c1.846,1.615,5.077,1.846,7.923,1.385h0a10.916,10.916,0,0,0,1.692-.385,11.3,11.3,0,0,0,5-2.846Zm-1.692,5.769a2.515,2.515,0,0,1-1.231,1.462,11.144,11.144,0,0,1-3.231,1.231,5.16,5.16,0,0,1-4.539-1.077,1.53,1.53,0,0,1-.539-1.231,17.571,17.571,0,0,0,6,.154,10.076,10.076,0,0,0,3.615-1.308C184.83,167.525,184.754,167.833,184.754,168.141Z" transform="translate(-161.597 -123.274)"/>
        </g>
        <g id="Group_517" data-name="Group 517" transform="translate(332.851 160.233)">
          <g id="Group_509" data-name="Group 509" transform="translate(22.983 25.444)">
            <path id="Path_598" data-name="Path 598" class="cls-4" d="M468.118,241.549a4.7,4.7,0,1,0,3.308,5.769A4.819,4.819,0,0,0,468.118,241.549Zm-2.385,8.615a4.264,4.264,0,1,1,5.231-3A4.222,4.222,0,0,1,465.733,250.164Z" transform="translate(-462.177 -241.377)"/>
          </g>
          <g id="Group_510" data-name="Group 510" transform="translate(13.077 15.154)">
            <path id="Path_599" data-name="Path 599" class="cls-4" d="M474.07,248l.077-.154a3.213,3.213,0,0,0,.308-.769,4.409,4.409,0,0,0,.308-1.077c.077-.308.154-.692.231-1a.836.836,0,0,1,.077-.385c0-.154.077-.385.077-.538,0-.308.077-.615.077-.923l3.462-1.308-2.462-6.462-3,1.154c-.154-.154-.231-.385-.385-.538a4.978,4.978,0,0,0-.615-.692l-.077-.077-.615-.615-.154-.154c-.231-.154-.385-.308-.615-.462l-.308-.231c-.154-.154-.385-.231-.538-.385-.077-.077-.231-.077-.308-.154l-.231-.154a1.68,1.68,0,0,1-.385-.231l-.462-.231-.231-.077c-.077-.077-.154-.077-.308-.154a11.891,11.891,0,0,0-1.769-.538L465.685,228l-6.846.923.462,3.692-.462.231-.077.077A10.831,10.831,0,0,0,455.916,235a4.394,4.394,0,0,0-.539.615l-.154.077c-.154.231-.308.385-.462.615l-.077.154a1.351,1.351,0,0,1-.308.385l-3.692-.769-1.385,6.769,3.231.615v.615a3.272,3.272,0,0,0,.154.846V245a10.756,10.756,0,0,0,2.077,4.692l-1.923,3.154,5.846,3.615,1.692-2.769a11.242,11.242,0,0,0,1.538.385.582.582,0,0,1,.308.077h.077c.231,0,.462.077.615.077h1.846a12.353,12.353,0,0,0,2.923-.615l2.539,2.846,5.154-4.539-2.231-2.462A5.13,5.13,0,0,0,474.07,248Zm.769,3.923-4.462,4-2.385-2.692a10.519,10.519,0,0,1-3.077.692h-1.769c-.231,0-.384-.077-.615-.077a.694.694,0,0,1-.385-.077c-.308-.077-.692-.154-1-.231a3.751,3.751,0,0,1-.846-.308l-1.692,2.692-5.077-3.154,1.846-3A10.784,10.784,0,0,1,453.223,245v-.077a3.156,3.156,0,0,1-.077-.846V244c0-.308-.077-.538-.077-.846l-3.154-.615,1.154-5.846,3.538.692a4.269,4.269,0,0,1,.462-.615c0-.077.077-.077.077-.154.154-.231.308-.385.462-.615,0-.077.077-.077.077-.154a1.8,1.8,0,0,1,.538-.538h0a11.519,11.519,0,0,1,2.769-2h0c.231-.154.539-.231.769-.385h0l-.462-3.615,5.923-.769.462,3.769c.308.077.692.154,1,.231.385.077.692.231,1,.308.154.077.231.154.385.154.154.077.385.154.538.231a4.409,4.409,0,0,1,.538.308c.154.077.231.154.385.231.154.154.385.231.538.385.077.077.154.154.231.154.231.154.385.308.615.462l.154.154c.231.154.385.385.615.538l.077.077a4.225,4.225,0,0,1,.538.692l.077.077a6.649,6.649,0,0,1,.539.769h0l2.923-1.154,2.154,5.615-3.308,1.308a6.624,6.624,0,0,1-.077,1.231,1.308,1.308,0,0,1-.077.538.694.694,0,0,1-.077.385l-.231.923c-.077.308-.231.692-.308,1-.077.231-.231.538-.308.769a.269.269,0,0,1-.077.154,12.23,12.23,0,0,1-1,1.692Z" transform="translate(-449.3 -228)"/>
          </g>
          <g id="Group_511" data-name="Group 511" transform="translate(22.501 25.04)">
            <path id="Path_600" data-name="Path 600" class="cls-4" d="M468.05,241.043a5.141,5.141,0,1,0,3.615,6.308A5.1,5.1,0,0,0,468.05,241.043Zm-2.538,9.462a4.719,4.719,0,0,1-3.308-5.769,4.66,4.66,0,0,1,5.769-3.308,4.7,4.7,0,0,1-2.462,9.077Z" transform="translate(-461.551 -240.851)"/>
          </g>
          <g id="Group_512" data-name="Group 512" transform="translate(13.846 15.616)">
            <path id="Path_601" data-name="Path 601" class="cls-4" d="M473.916,247.908c0-.077.077-.077.077-.154a7.981,7.981,0,0,0,.308-.769,4.981,4.981,0,0,0,.308-1l.231-.923c0-.154.077-.231.077-.385s.077-.385.077-.538c0-.385.077-.846.077-1.231l3.308-1.308-2.154-5.615-2.923,1.154h0c-.154-.231-.385-.538-.538-.769l-.077-.077c-.154-.231-.385-.462-.538-.692l-.077-.077a2.075,2.075,0,0,0-.615-.538l-.154-.154a4.265,4.265,0,0,0-.615-.462c-.077-.077-.154-.154-.231-.154-.154-.154-.385-.231-.538-.385-.154-.077-.231-.154-.385-.231a4.417,4.417,0,0,1-.539-.308c-.154-.077-.385-.154-.538-.231s-.231-.154-.385-.154a4.974,4.974,0,0,0-1-.308c-.308-.077-.692-.154-1-.231l-.462-3.769-5.923.769.462,3.615h0a3.592,3.592,0,0,0-.769.385h0a10.188,10.188,0,0,0-2.769,2h0l-.538.538c0,.077-.077.077-.077.154a4.267,4.267,0,0,0-.461.615c0,.077-.077.077-.077.154-.154.231-.308.385-.462.615l-3.539-.692L450.3,242.6l3.154.615a3.156,3.156,0,0,0,.077.846v.077c0,.308.077.538.077.846v.077a10.783,10.783,0,0,0,2.154,4.769l-1.846,3,5.077,3.154,1.692-2.692c.308.077.538.231.846.308s.692.154,1,.231a.693.693,0,0,1,.385.077c.231,0,.385.077.615.077H465.3a9.987,9.987,0,0,0,3.077-.692l2.385,2.692,4.462-4-2.154-2.385Zm.462,4.077-3.769,3.385-2.308-2.615-.308.154a9.507,9.507,0,0,1-3,.692h-1.769c-.231,0-.385-.077-.615-.077H462.3a7.511,7.511,0,0,1-1.769-.462l-.308-.154-1.615,2.615-4.308-2.692,1.846-2.923-.231-.231a10.1,10.1,0,0,1-2.077-4.615c-.077-.231-.077-.538-.154-.846,0-.308-.077-.538-.077-.846v-.385l-3.077-.615,1-5,3.462.692.154-.308c.154-.231.231-.385.462-.692l.077-.077c.154-.154.308-.385.462-.539l.077-.154a3.554,3.554,0,0,1,.538-.538,11.394,11.394,0,0,1,2.692-1.923h0a2.3,2.3,0,0,1,.769-.308l.308-.154-.462-3.539,5.077-.692.462,3.615.308.077a7.9,7.9,0,0,1,1.923.538c.077,0,.154.077.231.077l.231.077.462.231c.154.077.231.154.385.231l.231.154c.077.077.154.077.231.154a2.34,2.34,0,0,1,.538.385l.231.154a3.851,3.851,0,0,1,.615.538l.077.077a3.558,3.558,0,0,1,.538.538l.077.077a5.6,5.6,0,0,1,.615.692,6.669,6.669,0,0,1,.538.769l.231.308,2.846-1.077,1.846,4.769-3.231,1.231v.308a5.826,5.826,0,0,1-.077,1.154,1.5,1.5,0,0,1-.077.538.463.463,0,0,1-.077.308,4.055,4.055,0,0,1-.231.923c-.077.308-.231.615-.308,1-.077.231-.231.462-.308.692l-.077.154a18.4,18.4,0,0,1-1,1.615l-.231.308Z" transform="translate(-450.3 -228.6)"/>
          </g>
          <g id="Group_513" data-name="Group 513" transform="translate(8.816 8.739)">
            <path id="Path_602" data-name="Path 602" class="cls-4" d="M448.1,219.768A3.434,3.434,0,1,0,450.483,224,3.526,3.526,0,0,0,448.1,219.768Zm-1.692,6.154a2.948,2.948,0,1,1,3.615-2.077A2.885,2.885,0,0,1,446.406,225.922Z" transform="translate(-443.761 -219.661)"/>
          </g>
          <g id="Group_514" data-name="Group 514">
            <path id="Path_603" data-name="Path 603" class="cls-4" d="M449.685,231.454l5.077-4.692-2.692-2.923,4.692-.692-1-6.846-4.692.692h0l2.769-4.077-.385-.231c-5-3.385-5-3.385-5.077-3.462l-.769-.231.154.538c-.385.538-1.692,2.462-2.385,3.539h-.231c-.769-1.385-1.692-2.923-2.462-4.385l-.231-.385-6.077,3.308,2.154,4.077-4.616-1.077L432.3,221.3l3.923.923-3.231,2.615,4.385,5.308,2.846-2.308-.615,3.462,6.769,1.154.692-3.769Zm-9.539-.538.769-4.154-3.385,2.769-3.769-4.615,3.539-2.923-4.385-1.077,1.385-5.846,4.769,1.154.231-.231-2.231-4.154,5.231-2.846c.846,1.538,1.769,3.077,2.615,4.615a2.13,2.13,0,0,1,.692.077c.846-1.154,2.692-3.923,2.692-3.923l4.923,3.385-2.692,3.923a1.93,1.93,0,0,0,.308.538l4.539-.692.846,5.923-5.077.769,3,3.231-4.385,4.077-2.923-3.154-.769,4.231Z" transform="translate(-432.3 -208.3)"/>
          </g>
          <g id="Group_515" data-name="Group 515" transform="translate(8.335 8.258)">
            <path id="Path_604" data-name="Path 604" class="cls-4" d="M448.031,219.162a3.873,3.873,0,1,0,2.692,4.769A3.838,3.838,0,0,0,448.031,219.162Zm-1.923,7.077a3.434,3.434,0,1,1,4.231-2.385A3.368,3.368,0,0,1,446.108,226.239Z" transform="translate(-443.135 -219.035)"/>
          </g>
          <g id="Group_516" data-name="Group 516" transform="translate(0.539 0.615)">
            <path id="Path_605" data-name="Path 605" class="cls-4" d="M449.846,231.023l4.385-4.077-3-3.231,5.077-.769-.846-5.923-4.539.692a1.927,1.927,0,0,0-.308-.538l2.692-3.923-4.923-3.385s-1.846,2.769-2.692,3.923c-.231,0-.462-.077-.692-.077-.846-1.462-1.769-3.077-2.615-4.615l-5.231,2.846,2.231,4.154-.231.231-4.769-1.154L433,221.023l4.385,1.077-3.538,2.923,3.769,4.615L441,226.869l-.769,4.154,5.923,1,.769-4.231Zm-9-.308.846-4.923-4,3.231-3.231-3.923,3.923-3.154-4.846-1.154,1.154-4.923,4.616,1.077.154-.231c.077-.077.077-.154.154-.154l.231-.308-2.154-4.077,4.462-2.385c.769,1.462,1.615,2.923,2.385,4.231l.154.231h.231a1.5,1.5,0,0,1,.615.077l.308.077.154-.231c.462-.692,1.846-2.539,2.462-3.539.923.615,3.308,2.231,4.231,2.846l-2.615,3.769.154.231a3.758,3.758,0,0,1,.231.538l.154.308,4.462-.615.769,5-5.462.769,3.231,3.538-3.769,3.462-3.231-3.539-.846,4.692Z" transform="translate(-433 -209.1)"/>
          </g>
        </g>
        <g id="Group_523" data-name="Group 523" transform="translate(124.212 178.541)">
          <g id="Group_518" data-name="Group 518" transform="translate(2.251 0.538)">
            <path id="Path_606" data-name="Path 606" class="cls-4" d="M196.231,263.108H164.385a.363.363,0,0,1-.385-.385V233.185a.385.385,0,1,1,.769,0v29.154h31.539a.363.363,0,0,1,.385.385.488.488,0,0,1-.462.385" transform="translate(-164 -232.8)"/>
          </g>
          <g id="Group_519" data-name="Group 519">
            <path id="Path_607" data-name="Path 607" class="cls-4" d="M161.4,239.715h-.077a.374.374,0,0,1-.231-.462l2.308-6.923a.412.412,0,0,1,.308-.231c.154,0,.308.077.308.231l2.077,6.923c.077.154-.077.385-.231.462s-.385-.077-.462-.231l-1.769-5.846-2,5.846a.246.246,0,0,1-.231.231" transform="translate(-161.073 -232.1)"/>
          </g>
          <g id="Group_520" data-name="Group 520" transform="translate(27.616 27.903)">
            <path id="Path_608" data-name="Path 608" class="cls-4" d="M197.3,273.548c-.154,0-.308-.077-.308-.231-.077-.154.077-.385.231-.462l5.846-1.769-5.846-2a.365.365,0,1,1,.231-.692l6.923,2.308c.154.077.231.154.231.308s-.077.308-.231.308l-6.923,2.077c-.077.154-.154.154-.154.154" transform="translate(-196.973 -268.373)"/>
          </g>
          <g id="Group_521" data-name="Group 521" transform="translate(2.298 1.278)">
            <path id="Path_609" data-name="Path 609" class="cls-4" d="M164.4,263.33c-.077,0-.154,0-.154-.077a.37.37,0,0,1-.154-.462l7.616-13.769a.4.4,0,0,1,.308-.154c.154,0,.231,0,.308.154l5.692,6.462,5.462-12.308c.077-.077.154-.231.308-.231s.231,0,.308.154l4.231,5.462,7-14.616a.344.344,0,1,1,.615.308L188.63,249.33a1.063,1.063,0,0,1-.308.231.307.307,0,0,1-.308-.154l-4.154-5.462-5.385,12.231-.231.231c-.154,0-.231,0-.308-.154l-5.692-6.539-7.385,13.308c-.231.231-.308.308-.462.308" transform="translate(-164.061 -233.761)"/>
          </g>
          <g id="Group_522" data-name="Group 522" transform="translate(28.752 0.507)">
            <path id="Path_610" data-name="Path 610" class="cls-4" d="M202.873,240.56h0a.412.412,0,0,1-.385-.385l.769-6.077-4.231,4.539c-.154.154-.385.154-.462,0-.154-.154-.154-.385,0-.462l5-5.308a.338.338,0,0,1,.385-.077.423.423,0,0,1,.231.385l-.923,7.154a.423.423,0,0,1-.385.231" transform="translate(-198.45 -232.759)"/>
          </g>
        </g>
        <g id="Group_524" data-name="Group 524" transform="translate(175.079 144.694)">
          <path id="Path_611" data-name="Path 611" class="cls-4" d="M245.739,218.716h0a3.7,3.7,0,0,1-1.692-.308,3.1,3.1,0,0,1-1.462-2.077,6.025,6.025,0,0,0-.385-1.077l-4.692,2.538-3.923-7,.538-.077a3.352,3.352,0,0,0,2.231-1.846c.538-1.077.231-3.462-1.077-4.077a3.017,3.017,0,0,0-1.385-.308,2.426,2.426,0,0,0-2.308,1.385l-.308.615-4.077-7.231,4.615-2.615c-.308-.615-.692-1.308-1.077-1.923-1-1.615-2.077-3.231-1.231-4.846a3.871,3.871,0,0,1,3.385-1.769,2.665,2.665,0,0,1,1.846.615,6.552,6.552,0,0,1,1.462,2.462,4.369,4.369,0,0,0,1.462,2.231l.308-.154,4-2.231,3.539,6.308c.923-1,2.077-2.077,3.462-2.077a3.161,3.161,0,0,1,1.769.538,4.367,4.367,0,0,1,1.538,4.923,6.1,6.1,0,0,1-3.385,2.615l3.462,6.308-4.462,2.462c1.769,1.923,2.308,3.538,1.615,5C248.97,218.254,247.2,218.716,245.739,218.716Zm-3.077-4.539.154.385a8,8,0,0,1,.615,1.538c.231.846.385,1.308,1,1.615a3.458,3.458,0,0,0,1.385.231h0c1.154,0,2.692-.385,3.077-1.308.615-1.231,0-2.692-1.769-4.462l-.385-.385,4.692-2.615-3.538-6.462.462-.154c1.231-.385,2.846-1.154,3.385-2.308a3.494,3.494,0,0,0-1.231-3.923,2.481,2.481,0,0,0-1.385-.462c-1.154,0-2.077,1-3,2l-.615.615-3.692-6.539-3.385,1.923-.692.308-.154-.077a4.235,4.235,0,0,1-2-2.692,6.569,6.569,0,0,0-1.231-2.154,1.867,1.867,0,0,0-1.385-.385,3.126,3.126,0,0,0-2.692,1.385c-.615,1.231.308,2.615,1.231,4.154a14.371,14.371,0,0,1,1.308,2.385l.077.308-.923.615-3.539,2,3.077,5.462a3.4,3.4,0,0,1,2.615-1.231,4.563,4.563,0,0,1,1.769.385c1.692.846,2.077,3.692,1.462,5.077a4.212,4.212,0,0,1-2.231,2.077l3.077,5.462Z" transform="translate(-227.2 -188.1)"/>
        </g>
        <g id="Group_536" data-name="Group 536" transform="translate(293.466 165.925)">
          <g id="Group_525" data-name="Group 525" transform="translate(8.231 0.411)">
            <path id="Path_612" data-name="Path 612" class="cls-23" d="M392.339,234.593c-.154.385-.308.923-.539,1.385l.154.154,1.077.846c.308.231.769.462,1.154.692l1.154.692a6.132,6.132,0,0,0,1.231.615l1.231.615a5.957,5.957,0,0,0,1.231.538c.385.154.846.231,1.308.385.462.077.846.154,1.308.231a7.912,7.912,0,0,0,1.308.077,2.041,2.041,0,0,0,1.077-.385l.231-.231a1.105,1.105,0,0,1,.231-.154,3.346,3.346,0,0,0,.462-.538,2.336,2.336,0,0,0,.385-.538l.154-.231.077-.077h0v.154l.462-.462h.462a.4.4,0,0,0,.308-.154,1.564,1.564,0,0,0,.462-.692c.154-.615.154-1.385.385-2.231l.077-.231.308-.077.231-.077.231-.077a.6.6,0,0,0,.308-.308,3.329,3.329,0,0,0,.385-.923,3.735,3.735,0,0,0-.385-2.077l-.231-.385.385-.308c.154-.154.385-.231.462-.385a2.038,2.038,0,0,0,.385-.462,1.093,1.093,0,0,0,.154-.462.976.976,0,0,0-.077-.462,1.609,1.609,0,0,0-.308-.462,2.04,2.04,0,0,0-.462-.385,8.4,8.4,0,0,0-1.154-.615,14.263,14.263,0,0,0-2.539-.923,8.048,8.048,0,0,0-1.308-.308c-.231-.077-.462-.077-.692-.154a.462.462,0,0,1-.308-.077h-.154c.077,0-.538-.538-.538-.538a29.355,29.355,0,0,0,1.538-4.077,9.86,9.86,0,0,0,.385-2.077,4.388,4.388,0,0,0-.077-1,3.193,3.193,0,0,1-.154-.462l-.154-.231s-.077-.154-.154-.154a4.127,4.127,0,0,0-1.538-1.308.882.882,0,0,0-.769.077,1.964,1.964,0,0,0-.538.769,8.205,8.205,0,0,0-.615,2.077l-.231,1.077a3.033,3.033,0,0,1-.385,1.077h0l-.231.462a1.61,1.61,0,0,1-.308.462l-.385.385c-.154.154-.231.308-.385.385a5.87,5.87,0,0,1-.846.615,5.169,5.169,0,0,1-.923.462l-.462.154a1.111,1.111,0,0,1-.538.154c-.385.077-.692.154-1,.231h-.462A33.053,33.053,0,0,1,392.339,234.593Z" transform="translate(-391.8 -216.234)"/>
          </g>
          <g id="Group_526" data-name="Group 526" transform="translate(15.846 5.615)">
            <path id="Path_613" data-name="Path 613" class="cls-24" d="M401.7,223Z" transform="translate(-401.7 -223)"/>
          </g>
          <g id="Group_527" data-name="Group 527" transform="translate(7.846 9)">
            <path id="Path_614" data-name="Path 614" class="cls-4" d="M391.762,237.016c-.154.385-.308.846-.462,1.231a1.676,1.676,0,0,0,.385.308c.231-.462.385-1,.538-1.385a24.421,24.421,0,0,0,1.462-9.769h-.462A22.546,22.546,0,0,1,391.762,237.016Z" transform="translate(-391.3 -227.4)"/>
          </g>
          <g id="Group_528" data-name="Group 528" transform="translate(7.616 19.846)">
            <path id="Path_615" data-name="Path 615" class="cls-4" d="M391.231,241.5l-.231.462.308.308c.077-.154.231-.308.308-.462C391.462,241.731,391.385,241.577,391.231,241.5Z" transform="translate(-391 -241.5)"/>
          </g>
          <g id="Group_529" data-name="Group 529" transform="translate(9.769 9)">
            <path id="Path_616" data-name="Path 616" class="cls-4" d="M393.8,227.477h.462V227.4a.975.975,0,0,0-.462.077Z" transform="translate(-393.8 -227.4)"/>
          </g>
          <g id="Group_530" data-name="Group 530" transform="translate(7.462 9.077)">
            <path id="Path_617" data-name="Path 617" class="cls-4" d="M393.108,227.5h-.462a23.847,23.847,0,0,1-1.462,9.385c-.154.385-.231.692-.385,1.077l.308.308c.154-.385.308-.846.462-1.231A21.307,21.307,0,0,0,393.108,227.5Z" transform="translate(-390.8 -227.5)"/>
          </g>
          <g id="Group_533" data-name="Group 533">
            <g id="Group_531" data-name="Group 531" transform="translate(7.616)">
              <path id="Path_618" data-name="Path 618" class="cls-4" d="M409.693,233.469a4.185,4.185,0,0,0,0-1.385,4.339,4.339,0,0,0-.308-.923l.231-.231a4.4,4.4,0,0,0,.538-.615,1.613,1.613,0,0,0,.308-.846,1.324,1.324,0,0,0-.154-.923,5.4,5.4,0,0,0-.462-.692,7.189,7.189,0,0,0-1.923-1.154,15.873,15.873,0,0,0-2.692-.923,8.942,8.942,0,0,0-1.385-.308c-.231-.077-.462-.077-.692-.154H403a28.87,28.87,0,0,0,1.308-3.615,10.4,10.4,0,0,0,.308-2.231,5.937,5.937,0,0,0-.154-1.154,5.3,5.3,0,0,0-.231-.615l-.154-.231c-.077-.154-.154-.154-.231-.231a7.654,7.654,0,0,0-.769-.846,2.714,2.714,0,0,0-1-.615,1.344,1.344,0,0,0-1.308.231,2.928,2.928,0,0,0-.692,1,11.339,11.339,0,0,0-.615,2.154,9.149,9.149,0,0,1-.538,2.077h0l-.231.462-.231.462-.308.385a1.679,1.679,0,0,1-.308.385,5.389,5.389,0,0,1-.769.615,5.166,5.166,0,0,1-.923.462l-.462.231a1.093,1.093,0,0,1-.462.154l-.539.154a4.9,4.9,0,0,1-.538.154c-.154,0-.308.077-.462.077v.077h.462c.385-.077.692-.154,1-.231a1.958,1.958,0,0,0,.538-.154l.462-.154.923-.462a5.881,5.881,0,0,0,.846-.615c.154-.077.231-.231.385-.385l.385-.385c.154-.154.154-.308.308-.462l.231-.462c.154-.385.231-.692.385-1.077l.231-1.077a21.231,21.231,0,0,1,.615-2.077,1.964,1.964,0,0,1,.539-.769.693.693,0,0,1,.769-.077,4.821,4.821,0,0,1,1.539,1.308l.154.154.154.231c.077.154.077.308.154.462a4.067,4.067,0,0,1,.077,1,6.594,6.594,0,0,1-.385,2.077c-.385,1.385-1,2.692-1.538,4.077,0,0,.615.462.539.538h.154a.462.462,0,0,1,.308.077,2.246,2.246,0,0,1,.692.154c.462.077.846.231,1.308.308a14.261,14.261,0,0,1,2.538.923,8.4,8.4,0,0,1,1.154.615c.154.154.308.231.462.385a1.609,1.609,0,0,1,.308.462.976.976,0,0,1,.077.462,1.094,1.094,0,0,1-.154.462,2.039,2.039,0,0,1-.385.462c-.154.154-.308.231-.462.385l-.385.308.231.385a3.085,3.085,0,0,1,.385,2.077,1.689,1.689,0,0,1-.385.923c-.077.154-.231.231-.308.308l-.231.077-.231.077-.308.077-.077.231a16.741,16.741,0,0,1-.385,2.231c-.077.308-.231.615-.462.692a.583.583,0,0,1-.308.154h-.462l-.462.462v-.154h0l-.077.077-.154.231c-.154.154-.231.385-.385.538s-.308.385-.462.538a1.106,1.106,0,0,0-.231.154l-.231.231a1.838,1.838,0,0,1-1.077.385c-.385,0-.923-.077-1.308-.077-.462-.077-.846-.154-1.308-.231a11.861,11.861,0,0,1-1.308-.385c-.385-.154-.769-.308-1.231-.539l-1.231-.615c-.385-.231-.846-.385-1.231-.615l-1.154-.692-1.154-.692-1.077-.846-.154-.154a1.609,1.609,0,0,1-.308.462c.077,0,.077.077.154.154l1.077.846a10.021,10.021,0,0,0,1.154.769l1.154.769c.385.231.769.462,1.231.692l1.231.615c.385.231.846.385,1.308.615.462.154.923.231,1.385.385l1.385.231a8.361,8.361,0,0,0,1.385.077,2.429,2.429,0,0,0,1.462-.538c.154-.077.154-.154.308-.231.077-.077.154-.077.308-.231s.308-.385.462-.538.308-.385.462-.538c.077-.077.154-.231.231-.308a.075.075,0,0,1,.077-.077.462.462,0,0,0,.308-.077,2.733,2.733,0,0,0,.692-.308,2.773,2.773,0,0,0,.769-1.154,9.742,9.742,0,0,0,.308-2h.077c.154-.077.231-.077.385-.154a2.074,2.074,0,0,0,.615-.538A3.327,3.327,0,0,0,409.693,233.469Z" transform="translate(-391 -215.7)"/>
            </g>
            <g id="Group_532" data-name="Group 532" transform="translate(0 5.308)">
              <path id="Path_619" data-name="Path 619" class="cls-4" d="M388.331,237.292a1.8,1.8,0,0,1-1.538,1.154,13.293,13.293,0,0,1-2.385-.385,7.138,7.138,0,0,1-2.231-.846l3.308-13.539h0q1.154.231,2.538.462c.769.154,1.615.231,2.308.385a13.621,13.621,0,0,1,.077,1.769h.385a.976.976,0,0,0,.461-.077,18.881,18.881,0,0,0-.154-2.077v-.308l-.308-.077a15.136,15.136,0,0,0-2.692-.462,20.981,20.981,0,0,1-2.846-.538l-.461-.154L381.1,237.446l.077.154c.077.154.462.769,2.923,1.385a23.8,23.8,0,0,0,2.615.462,2.626,2.626,0,0,0,2.231-1.385l-.308-.308A.981.981,0,0,0,388.331,237.292Z" transform="translate(-381.1 -222.6)"/>
            </g>
          </g>
          <g id="Group_534" data-name="Group 534" transform="translate(9.385 9)">
            <path id="Path_620" data-name="Path 620" class="cls-4" d="M393.3,227.4h0l.308.077h.154V227.4H393.3Z" transform="translate(-393.3 -227.4)"/>
          </g>
          <g id="Group_535" data-name="Group 535" transform="translate(7.231 19.539)">
            <path id="Path_621" data-name="Path 621" class="cls-4" d="M390.5,241.562l.308.308.231-.462-.308-.308A.665.665,0,0,1,390.5,241.562Z" transform="translate(-390.5 -241.1)"/>
          </g>
        </g>
        <g id="Group_583" data-name="Group 583" transform="translate(93.117 160.036)">
          <g id="Group_591" data-name="Group 591" transform="translate(0 0)">
            <g id="Group_540" data-name="Group 540">
              <g id="Group_537" data-name="Group 537" transform="translate(70.369 22.814)">
                <path id="Path_622" data-name="Path 622" class="cls-4" d="M370.955,274.163a15.219,15.219,0,0,0-4.154.385,23.973,23.973,0,0,0-.462-6.846c-3.077-11.923-16.923-9.308-18.077,1.385-.539-5.462-4.923-8.693-8.462-4.077,1.539-3,2-5.077.308-7.923-1.538-2.846-5.769-5.077-7.923-2,2.539-9.462-6.769-15.923-14.231-14.769-4.385.769-7.539,4.231-9.616,8.769-3.077.154-3.923.385-7.154.769-4.231.385-8.616.846-12.846-.385-.923-.231.692-.308-.385-.462a18,18,0,0,0-.231-2.923c-1.154-6.539-7.231-8.846-12.539-8.308-7.308.846-9,6.077-9.923,13.462-7.769-10.154-24.77,4.692-16.77,15.308-2.769-.539-5.769.846-5.077,4.692-3.692-7.923-13.077-1.385-9.616,6.539-1.846-3.308-7.539-2.462-7.539,1.923-6.615-12.616-18.308,4.077-12.616,14.77,4.615,8.462,14.462,3.308,19.693-1.385h.077a11.616,11.616,0,0,0,.692,4.615c2.385,5.077,9.616,6.231,12.693,1.615,1.539,4.462,7.462,7.462,11.308,7.462,4.923,0,8.308-3.231,12.154-6.231,2.692,8.692,13,10.077,19.308,5.077a13.477,13.477,0,0,0,1.769-1.846c4.308,9.462,20.231,11.462,23.846,0a2.648,2.648,0,0,0,5.231.385c1.692,4.462,7.077,1.385,8.154-2,.846,5.077,8.462,7.308,12,6.077,4.769-1.385,7.308-6.077,8.769-11.308,2,6.231,11.692,8.692,13.846,1.231,5.769,8.923,17.077,5.692,19.616-4.846C385.648,282.47,380.032,274.778,370.955,274.163Z" transform="translate(-212.129 -237.702)"/>
              </g>
              <g id="Group_538" data-name="Group 538" transform="translate(0 59.866)">
                <path id="Path_623" data-name="Path 623" class="cls-4" d="M121,318.585a20.637,20.637,0,0,1,0-7.539c1.692-10.693,12.769-14.77,19.154-6.385,1.615-7.616,11.385-5.923,13.923.154,1.077-5.385,3.308-10.154,7.923-11.923,3.462-1.462,11.231.154,12.462,5.077.769-3.539,5.923-6.923,7.923-2.615a2.64,2.64,0,0,1,5.231,0c2.692-11.693,18.693-10.923,23.77-1.846A9.738,9.738,0,0,1,213,291.585c5.846-5.539,16.231-4.923,19.616,3.538,3.615-3.308,6.769-6.846,11.693-7.154,3.846-.308,10,2.231,11.846,6.539,1.923-3.539,6.462-4.154,9.769-2.308,3.231-.769,6.846.692,10,2.769a14.4,14.4,0,0,1,7-2.231c3.308-3.308,9.231-3.231,11.539,1,1.846-4.308,8-6.846,11.846-6.539,4.923.385,8,3.846,11.692,7.154,3.385-8.462,13.769-9.077,19.616-3.539a13.349,13.349,0,0,1,1.615,1.923c5-9.077,21.077-9.846,23.77,1.846a2.64,2.64,0,0,1,5.231,0c2-4.308,7.231-.846,7.923,2.615,1.231-5,9-6.615,12.462-5.077,4.615,1.769,6.769,6.616,7.923,11.923,2.538-6.077,12.308-7.769,13.923-.154,6.462-8.385,17.462-4.308,19.154,6.385a20.638,20.638,0,0,1,0,7.539v8.616h-307.7Z" transform="translate(-120.65 -285.868)"/>
              </g>
              <g id="Group_539" data-name="Group 539" transform="translate(138.887)">
                <path id="Path_624" data-name="Path 624" class="cls-4" d="M301.2,263.626c5-1.308,7.077-8.231,8-13.923.923-6.077,1.231-29.77,1.077-35.462a33.451,33.451,0,0,0-.462-5.692c5-1.308,11.308.385,16.616,0-1.231,9.923-.154,20.77.615,30.693.615,8.923,1.539,20.616,8.308,25.539" transform="translate(-301.2 -208.044)"/>
              </g>
              <g id="Group_587" data-name="Group 587" transform="translate(138.887 0)">
                <path id="Path_624-2" data-name="Path 624" class="cls-4" d="M301.2,263.626c5-1.308,7.077-8.231,8-13.923.923-6.077,1.231-29.77,1.077-35.462a33.451,33.451,0,0,0-.462-5.692c5-1.308,11.308.385,16.616,0-1.231,9.923-.154,20.77.615,30.693.615,8.923,1.539,20.616,8.308,25.539" transform="translate(-301.2 -208.044)"/>
              </g>
            </g>
          </g>
        </g>
        <g id="Group_584" data-name="Group 584" transform="translate(94.924 63.847)">
          <path id="Path_660" data-name="Path 660" class="cls-25" d="M209.386,83.1C179.539,115.639,150.923,149.562,123,183.563v45.924c39.385-51.155,82.847-98.848,126.694-146.387H209.386Z" transform="translate(-123 -83.023)"/>
          <path id="Path_661" data-name="Path 661" class="cls-25" d="M508.331,245.8c-9.462,17.308-18.693,34.77-28.231,52.078h10.385c5.923-11,11.923-22.077,17.769-33.154V245.8Z" transform="translate(-205.404 -120.567)"/>
          <path id="Path_662" data-name="Path 662" class="cls-25" d="M493.055,160.6c-27,38.924-53.77,77.847-79.155,117.617h31c15.231-28.77,31.154-56.847,48.078-84.232V160.6Z" transform="translate(-190.128 -100.907)"/>
          <path id="Path_663" data-name="Path 663" class="cls-25" d="M169.847,83.077C153.847,99.846,138.308,117,123,134.385v16.539Q150.577,115.731,180.924,83H169.847Z" transform="translate(-123 -83)"/>
        </g>
      </g>
      <g class="cls-45" transform="matrix(1, 0, 0, 1, -2330, -166.44)">
        <path id="Path_788-2" data-name="Path 788" class="cls-4" d="M51.324,35.674H35.334V76h-18.1V35.674H1.248V21.4H51.324ZM84.4,77.248a33.688,33.688,0,0,1-15.834-3.666A27.344,27.344,0,0,1,53.586,48.7,27.344,27.344,0,0,1,68.562,23.818,33.688,33.688,0,0,1,84.4,20.152a33.688,33.688,0,0,1,15.834,3.666A27.344,27.344,0,0,1,115.206,48.7,27.344,27.344,0,0,1,100.23,73.582,33.688,33.688,0,0,1,84.4,77.248Zm0-14.9a11.735,11.735,0,0,0,6.2-1.677A12.008,12.008,0,0,0,95,55.915,15.152,15.152,0,0,0,96.642,48.7,15.152,15.152,0,0,0,95,41.485,12.008,12.008,0,0,0,90.6,36.727a12.3,12.3,0,0,0-12.4,0,12.008,12.008,0,0,0-4.407,4.758A15.152,15.152,0,0,0,72.15,48.7a15.152,15.152,0,0,0,1.638,7.215,12.008,12.008,0,0,0,4.407,4.758A11.735,11.735,0,0,0,84.4,62.35Zm79.4-14.976a14.555,14.555,0,0,1,7.02,4.875,12.854,12.854,0,0,1,2.418,7.917,13.591,13.591,0,0,1-5.811,11.583Q161.616,76,151.008,76H121.836V21.4h27.69q10.14,0,15.717,3.744a11.97,11.97,0,0,1,5.577,10.53,12.781,12.781,0,0,1-1.833,6.864A13.917,13.917,0,0,1,163.8,47.374Zm-23.868-4.992h7.8q4.524,0,4.524-3.978,0-4.134-4.524-4.134h-7.8ZM150.15,63.13q4.524,0,4.524-4.368,0-4.212-4.524-4.212H139.932v8.58Zm68.172,3.354H197.574L193.908,76h-18.72l23.868-54.6h18.1L241.02,76H221.988Zm-5.07-13.26-5.3-13.728-5.3,13.728ZM272.376,21.4a32.229,32.229,0,0,1,13.182,2.5,18.888,18.888,0,0,1,11.7,18.1,18.888,18.888,0,0,1-11.7,18.1,32.229,32.229,0,0,1-13.182,2.5H264.5V76H246.09V21.4Zm-1.17,26.988q3.744,0,5.616-1.677a6.008,6.008,0,0,0,1.872-4.719,6.008,6.008,0,0,0-1.872-4.719Q274.95,35.6,271.206,35.6H264.5V48.388ZM356.616,21.4V76H338.208V55.876h-17V76H302.8V21.4H321.2V40.744h17V21.4Zm39.078,16.77q10.218,0,15.756,4.563t5.538,13.455q0,9.594-6.318,14.7T393.354,76H366.288V21.4h18.1V38.17Zm-3.588,24.96a6.305,6.305,0,0,0,4.6-1.755A6.507,6.507,0,0,0,398.5,56.5q0-5.46-6.4-5.46h-7.722V63.13ZM421.98,21.4h18.1V76h-18.1Zm27.768,0h18.1V49.792l18.8-28.392h17.316V76h-18.1V47.686L467.142,76H449.748Zm27.066-3.12q-9.048,0-13.026-3.354T459.81,4.864h12.246a5.644,5.644,0,0,0,1.053,3.822q1.053,1.17,3.705,1.17a5.108,5.108,0,0,0,3.783-1.17,5.373,5.373,0,0,0,1.131-3.822h12.246q0,6.708-4.056,10.062T476.814,18.28ZM537.03,21.4h47.346V35.284h-29.25V41.6h13.026q9.984,0,15.327,4.251t5.343,12.285q0,8.346-6.084,13.1T565.812,76H537.03Zm27.534,41.73a6.83,6.83,0,0,0,4.251-1.17,3.979,3.979,0,0,0,1.521-3.354q0-4.212-5.772-4.212h-9.438V63.13ZM595.14,21.4h18.1V49.792l18.8-28.392H649.35V76h-18.1V47.686L612.534,76H595.14ZM695.6,47.608a15.3,15.3,0,0,1,6.825,5.226,13.067,13.067,0,0,1,2.457,7.8,12.476,12.476,0,0,1-3.627,8.931,23.087,23.087,0,0,1-9.75,5.772A43.9,43.9,0,0,1,677.9,77.326a55.528,55.528,0,0,1-22.7-4.758l5.382-12.714a43.235,43.235,0,0,0,7.956,2.379,40.215,40.215,0,0,0,7.8.819,17.71,17.71,0,0,0,7.215-1.248q2.769-1.248,2.769-3.666,0-3.276-5.382-3.276H666.2V41.6H679.38a6.111,6.111,0,0,0,3.549-.858,2.793,2.793,0,0,0,1.209-2.418,3.4,3.4,0,0,0-2.145-3.12,12.51,12.51,0,0,0-5.655-1.092,29.963,29.963,0,0,0-7.1.936,34.53,34.53,0,0,0-7.254,2.652L656.6,24.052a46.73,46.73,0,0,1,19.656-4.134,42.594,42.594,0,0,1,13.143,1.95,23.221,23.221,0,0,1,9.672,5.655,12.032,12.032,0,0,1,3.627,8.7,12.159,12.159,0,0,1-1.872,6.63A13.633,13.633,0,0,1,695.6,47.608ZM765.258,21.4V76H746.85V55.876h-17V76H711.438V21.4h18.408V40.744h17V21.4Zm55.068,40.716V76h-45.4V21.4h44.382V35.284H793.026v6.4h23.088V54.94H793.026v7.176ZM855.27,77.248a33.175,33.175,0,0,1-15.6-3.627,27.116,27.116,0,0,1-10.881-10.14A28,28,0,0,1,824.85,48.7a28,28,0,0,1,3.939-14.781,27.116,27.116,0,0,1,10.881-10.14,33.175,33.175,0,0,1,15.6-3.627,34.246,34.246,0,0,1,14.2,2.808,26.349,26.349,0,0,1,10.3,8.112L868.14,41.446q-5.07-6.4-11.934-6.4a12.191,12.191,0,0,0-9.282,3.705q-3.51,3.705-3.51,9.945t3.51,9.945a12.191,12.191,0,0,0,9.282,3.705q6.864,0,11.934-6.4l11.622,10.374a26.349,26.349,0,0,1-10.3,8.112A34.246,34.246,0,0,1,855.27,77.248Z" transform="translate(2398.72 189.47)"/>
      </g>
      <g class="cls-44" transform="matrix(1, 0, 0, 1, -2330, -166.44)">
        <path id="Path_787-2" data-name="Path 787" class="cls-26" d="M35.7,1.05A39.23,39.23,0,0,1,18.218-2.73,29.22,29.22,0,0,1,6.143-13.335,28.067,28.067,0,0,1,1.785-28.77,27.809,27.809,0,0,1,6.143-44.153,29.351,29.351,0,0,1,18.218-54.705,39.23,39.23,0,0,1,35.7-58.485q10.5,0,17.955,4.515a23.428,23.428,0,0,1,10.29,12.495L45.57-32.445Q42.21-40,35.6-40.005a9.211,9.211,0,0,0-6.983,2.94q-2.783,2.94-2.783,8.3,0,5.46,2.783,8.4A9.211,9.211,0,0,0,35.6-17.43q6.615,0,9.975-7.56l18.375,9.03a23.428,23.428,0,0,1-10.29,12.5Q46.2,1.05,35.7,1.05Zm97.02.63a32.565,32.565,0,0,1-17.272-4.568,31.026,31.026,0,0,1-11.76-13.23Q99.435-24.78,99.435-36.75t4.253-20.632a31.026,31.026,0,0,1,11.76-13.23A32.565,32.565,0,0,1,132.72-75.18a32.565,32.565,0,0,1,17.272,4.567,31.026,31.026,0,0,1,11.76,13.23q4.253,8.663,4.253,20.632t-4.253,20.633a31.026,31.026,0,0,1-11.76,13.23A32.565,32.565,0,0,1,132.72,1.68Zm0-19.845q8.4,0,8.4-18.585t-8.4-18.585q-8.4,0-8.4,18.585T132.72-18.165Zm144.795-.42V11.34H255.57V0H223.86V11.34H201.915V-18.585h1.68a7.092,7.092,0,0,0,7.035-4.778q2-4.777,2.31-13.808l.735-20.265H269.85v38.85Zm-43.26-16.8a76.46,76.46,0,0,1-.893,10.448,14,14,0,0,1-2.678,6.353h15.54v-20.37H234.36Zm79.8,36.435a37.644,37.644,0,0,1-17.167-3.833A29.494,29.494,0,0,1,284.97-13.388a28.06,28.06,0,0,1-4.3-15.383,28.06,28.06,0,0,1,4.3-15.382,29.126,29.126,0,0,1,11.918-10.553,38.078,38.078,0,0,1,17.167-3.78,38.32,38.32,0,0,1,17.273,3.78,28.76,28.76,0,0,1,11.865,10.553,28.318,28.318,0,0,1,4.253,15.382,28.318,28.318,0,0,1-4.253,15.383A29.121,29.121,0,0,1,331.327-2.783,37.882,37.882,0,0,1,314.055,1.05Zm0-18.48a8.537,8.537,0,0,0,6.72-2.993q2.625-2.993,2.625-8.348t-2.625-8.3a8.6,8.6,0,0,0-6.72-2.94,8.6,8.6,0,0,0-6.72,2.94q-2.625,2.94-2.625,8.3t2.625,8.348A8.537,8.537,0,0,0,314.055-17.43ZM418.635-73.5V0h-24.78V-54.81h-12.6V-73.5ZM460.95,1.68a32.565,32.565,0,0,1-17.273-4.568,31.026,31.026,0,0,1-11.76-13.23q-4.252-8.663-4.252-20.633t4.252-20.632a31.026,31.026,0,0,1,11.76-13.23A32.565,32.565,0,0,1,460.95-75.18a32.565,32.565,0,0,1,17.272,4.567,31.026,31.026,0,0,1,11.76,13.23q4.252,8.663,4.253,20.632t-4.253,20.633a31.026,31.026,0,0,1-11.76,13.23A32.565,32.565,0,0,1,460.95,1.68Zm0-19.845q8.4,0,8.4-18.585t-8.4-18.585q-8.4,0-8.4,18.585T460.95-18.165ZM533.61,1.68a32.565,32.565,0,0,1-17.272-4.568,31.026,31.026,0,0,1-11.76-13.23q-4.252-8.663-4.253-20.633t4.253-20.632a31.026,31.026,0,0,1,11.76-13.23A32.565,32.565,0,0,1,533.61-75.18a32.565,32.565,0,0,1,17.273,4.567,31.026,31.026,0,0,1,11.76,13.23Q566.9-48.72,566.9-36.75t-4.253,20.633a31.026,31.026,0,0,1-11.76,13.23A32.565,32.565,0,0,1,533.61,1.68Zm0-19.845q8.4,0,8.4-18.585t-8.4-18.585q-8.4,0-8.4,18.585T533.61-18.165ZM606.27,1.68A32.565,32.565,0,0,1,589-2.888a31.026,31.026,0,0,1-11.76-13.23q-4.253-8.663-4.253-20.633t4.253-20.632A31.026,31.026,0,0,1,589-70.613,32.565,32.565,0,0,1,606.27-75.18a32.565,32.565,0,0,1,17.272,4.567,31.026,31.026,0,0,1,11.76,13.23q4.253,8.663,4.253,20.632T635.3-16.118a31.026,31.026,0,0,1-11.76,13.23A32.565,32.565,0,0,1,606.27,1.68Zm0-19.845q8.4,0,8.4-18.585t-8.4-18.585q-8.4,0-8.4,18.585T606.27-18.165ZM678.93,1.68a32.565,32.565,0,0,1-17.273-4.568,31.026,31.026,0,0,1-11.76-13.23q-4.253-8.663-4.253-20.633T649.9-57.383a31.026,31.026,0,0,1,11.76-13.23A32.565,32.565,0,0,1,678.93-75.18,32.565,32.565,0,0,1,696.2-70.613a31.026,31.026,0,0,1,11.76,13.23q4.253,8.663,4.253,20.632t-4.253,20.633A31.026,31.026,0,0,1,696.2-2.888,32.565,32.565,0,0,1,678.93,1.68Zm0-19.845q8.4,0,8.4-18.585t-8.4-18.585q-8.4,0-8.4,18.585T678.93-18.165ZM751.59,1.68a32.565,32.565,0,0,1-17.273-4.568,31.026,31.026,0,0,1-11.76-13.23Q718.3-24.78,718.3-36.75t4.253-20.632a31.026,31.026,0,0,1,11.76-13.23A32.565,32.565,0,0,1,751.59-75.18a32.565,32.565,0,0,1,17.272,4.567,31.026,31.026,0,0,1,11.76,13.23q4.253,8.663,4.253,20.632t-4.253,20.633a31.026,31.026,0,0,1-11.76,13.23A32.565,32.565,0,0,1,751.59,1.68Zm0-19.845q8.4,0,8.4-18.585t-8.4-18.585q-8.4,0-8.4,18.585T751.59-18.165ZM856.8-23.52v5.46h22.05V-6.3H856.8V0H832.02V-6.3h-9.45V-18.06h9.45V-73.5H867.4q15.75,0,24.622,6.248T900.9-48.51q0,12.5-8.872,18.743T867.4-23.52ZM875.91-48.2a5.235,5.235,0,0,0-2.31-4.62,11.472,11.472,0,0,0-6.51-1.575H856.8V-42h10.29a11.472,11.472,0,0,0,6.51-1.575A5.235,5.235,0,0,0,875.91-48.2Z" transform="translate(2515.15 349.1)"/>
      </g>
    </g>
    <g id="Group_589" data-name="Group 589" transform="translate(1215.437 259.477)">
      <path id="Path_624-3" data-name="Path 624" class="cls-4" d="M301.2,424.545c5.932-5.094,8.4-32.061,9.492-54.233,1.1-23.671,1.46-115.957,1.278-138.13,0-7.491-.183-15.581-.548-22.173,5.932-5.094,13.416,1.5,19.714,0-1.46,38.652-.183,80.9.73,119.552.73,34.757,1.825,80.3,9.857,99.477" transform="translate(-301.2 -208.044)"/>
    </g>
    <g id="Group_588" data-name="Group 588" transform="translate(1187.651 181.855)">
      <g id="Group_557" data-name="Group 557" transform="translate(41.497 89.73)">
        <path id="Path_634" data-name="Path 634" class="cls-27" d="M322.043,208.2c-3.1.365-5.2,4.29-5.659,7.119-.913,5.75,2.19,9.127,5.932,13.051,3.925-1.46,6.3-7.119,6.3-11.043,0-2.647-1.369-8.579-4.837-8.579Z" transform="translate(-316.224 -208.2)"/>
      </g>
      <g id="Group_558" data-name="Group 558" transform="translate(43.754 89.73)">
        <path id="Path_635" data-name="Path 635" class="cls-28" d="M322.259,208.2c-1.917.274-3.286,2.647-3.468,4.381-.548,3.559,1.369,5.659,3.651,8.123,2.464-.913,3.925-4.381,3.925-6.845,0-1.643-.821-5.385-3.012-5.385Z" transform="translate(-318.697 -208.2)"/>
      </g>
      <g id="Group_559" data-name="Group 559" transform="translate(26.129 75.986)">
        <path id="Path_636" data-name="Path 636" class="cls-29" d="M299.4,210.627c-.274-5.659,3.651-12.047,8.305-14.877,5.476-3.1,12.869-3.1,18.8-1.734a21.421,21.421,0,0,1,11.135,7.119c1.369,1.734,5.111,7.94,3.651,9.492Z" transform="translate(-299.385 -193.142)"/>
      </g>
      <g id="Group_564" data-name="Group 564" transform="translate(26.129 75.986)">
        <g id="Group_561" data-name="Group 561" class="cls-30">
          <g id="Group_560" data-name="Group 560" transform="translate(-7.03 13.892)">
            <path id="Path_637" data-name="Path 637" class="cls-31" d="M292.337,209.583c9.492-1,19.166-.73,28.658-.73q14.375,0,28.75.821c.548,0-.091-.365-.365-.456q-14.785-.821-29.571-.821c-9.309,0-18.71-.274-27.928.73-.548.091.183.456.456.456Z" transform="translate(-291.682 -208.363)"/>
          </g>
        </g>
        <g id="Group_563" data-name="Group 563" class="cls-30">
          <g id="Group_562" data-name="Group 562" transform="translate(-6.958 8.051)">
            <path id="Path_639" data-name="Path 639" class="cls-31" d="M292.162,203.092c9.492-1,19.075-.73,28.658-.73s19.166.274,28.749.821c.365,0,.821-.365.183-.365Q334.967,202,320.181,202c-9.309,0-18.71-.274-27.928.73-.639,0-.639.365-.091.365Z" transform="translate(-291.762 -201.963)"/>
          </g>
        </g>
      </g>
      <path id="Path_641" data-name="Path 641" class="cls-32" d="M274.6,185.853h87.435s0-44.448-41.983-75.753C320.052,110.1,281.9,130.635,274.6,185.853Z" transform="translate(-271.092 -109.904)"/>
      <g id="Group_572" data-name="Group 572" class="cls-33" transform="translate(3.508 0.196)">
        <g id="Group_571" data-name="Group 571" class="cls-34">
          <path id="Path_642" data-name="Path 642" class="cls-35" d="M274.6,159.646h15.789V134" transform="translate(-274.6 -112.187)"/>
          <g id="Group_566" data-name="Group 566" transform="translate(-1.643 20.17)">
            <g id="Group_565" data-name="Group 565">
              <line id="Line_14" data-name="Line 14" class="cls-36" x2="0.456" transform="translate(0 25.738)"/>
              <line id="Line_15" data-name="Line 15" class="cls-37" x2="13.508" transform="translate(1.369 25.738)"/>
              <path id="Path_643" data-name="Path 643" class="cls-36" d="M289.6,160.356h.456V159.9" transform="translate(-274.267 -134.619)"/>
              <line id="Line_16" data-name="Line 16" class="cls-38" y1="23.456" transform="translate(15.789 0.913)"/>
              <line id="Line_17" data-name="Line 17" class="cls-36" y1="0.456" transform="translate(15.789)"/>
            </g>
          </g>
          <path id="Path_644" data-name="Path 644" class="cls-35" d="M367.389,159.646H351.6V134" transform="translate(-281.323 -112.187)"/>
          <g id="Group_568" data-name="Group 568" transform="translate(71.828 20.17)">
            <g id="Group_567" data-name="Group 567">
              <line id="Line_18" data-name="Line 18" class="cls-36" x1="0.456" transform="translate(15.424 25.738)"/>
              <line id="Line_19" data-name="Line 19" class="cls-37" x1="13.599" transform="translate(0.913 25.738)"/>
              <path id="Path_645" data-name="Path 645" class="cls-36" d="M353.756,160.356H353.3V159.9" transform="translate(-353.3 -134.619)"/>
              <line id="Line_20" data-name="Line 20" class="cls-38" y1="23.456" transform="translate(0 0.913)"/>
              <line id="Line_21" data-name="Line 21" class="cls-36" y1="0.456"/>
            </g>
          </g>
          <line id="Line_22" data-name="Line 22" class="cls-35" x2="94.006" transform="translate(-2.556 61.971)"/>
          <g id="Group_570" data-name="Group 570" transform="translate(-2.556 63.523)">
            <g id="Group_569" data-name="Group 569">
              <line id="Line_23" data-name="Line 23" class="cls-36" x2="0.456"/>
              <line id="Line_24" data-name="Line 24" class="cls-39" x2="91.633" transform="translate(1.369)"/>
              <line id="Line_25" data-name="Line 25" class="cls-36" x2="0.456" transform="translate(93.55)"/>
            </g>
          </g>
        </g>
      </g>
      <g id="Group_574" data-name="Group 574" transform="translate(24.309)">
        <path id="Path_647" data-name="Path 647" class="cls-40" d="M333.726,120.76c-4.746-7.575-9.857-11.865-12.686-10.678-1.278.548-5.567,4.381-10.04,10.678,1.369.183,2.647.183,3.651.274A83.569,83.569,0,0,0,333.726,120.76Z" transform="translate(-298.579 -109.886)"/>
        <g id="Group_573" data-name="Group 573" transform="translate(0 10.874)">
          <path id="Path_648" data-name="Path 648" class="cls-41" d="M332.537,121.8c-6.3,1-12.96.73-19.075.274-1-.091-2.282-.183-3.651-.274-9.583,13.508-20.079,38.515-4.381,67.265h31.122c1.46-1.46,1.825-3.468,2.464-5.2C348.144,160.133,340.934,135.49,332.537,121.8Z" transform="translate(-297.391 -121.8)"/>
        </g>
      </g>
      <path id="Path_649" data-name="Path 649" class="cls-40" d="M312.6,142.944a8.944,8.944,0,1,1,8.944,8.944A8.959,8.959,0,0,1,312.6,142.944Z" transform="translate(-274.41 -111.991)"/>
      <path id="Path_650" data-name="Path 650" class="cls-40" d="M326.132,185.476c0,9.4-1.825,16.976-4.016,16.976s-4.016-7.575-4.016-16.976,1.825-16.976,4.016-16.976S326.132,176.075,326.132,185.476Z" transform="translate(-274.89 -115.004)"/>
      <path id="Path_651" data-name="Path 651" class="cls-40" d="M277.185,185.475c-2.282,9.127-5.02,16.337-6.024,16.063s-.091-7.849,2.19-16.976,5.02-16.337,6.024-16.063S279.467,176.348,277.185,185.475Z" transform="translate(-270.756 -115.003)"/>
      <path id="Path_652" data-name="Path 652" class="cls-40" d="M368.048,185.475c2.282,9.127,5.02,16.337,6.024,16.063,1.1-.274.091-7.849-2.19-16.976s-5.02-16.337-6.024-16.063C364.762,168.773,365.766,176.348,368.048,185.475Z" transform="translate(-279.022 -115.003)"/>
      <g id="Group_580" data-name="Group 580" transform="translate(42.297 26.116)">
        <path id="Path_653" data-name="Path 653" class="cls-23" d="M320.783,150.8a.319.319,0,0,0-.183.091A.283.283,0,0,1,320.783,150.8Z" transform="translate(-317.406 -139.574)"/>
        <g id="Group_575" data-name="Group 575" transform="translate(5.476 6.663)">
          <path id="Path_654" data-name="Path 654" class="cls-42" d="M327.025,145.8c-1.278,1-2.647,2.008-3.925,3.012A4.983,4.983,0,0,0,327.025,145.8Z" transform="translate(-323.1 -145.8)"/>
        </g>
        <g id="Group_576" data-name="Group 576">
          <path id="Path_655" data-name="Path 655" class="cls-42" d="M323.945,138.956a4.974,4.974,0,0,0-2.008-.456,4.869,4.869,0,0,0-4.837,4.837,2.009,2.009,0,0,0,.091.73c1-.73,2.008-1.46,3.012-2.1C321.572,140.964,322.759,139.96,323.945,138.956Z" transform="translate(-317.1 -138.5)"/>
        </g>
        <g id="Group_577" data-name="Group 577" transform="translate(2.008 2.921)">
          <path id="Path_656" data-name="Path 656" class="cls-43" d="M327.058,143.617a6.5,6.5,0,0,0-.365-1.917c-2.464,1.825-5.02,3.742-7.393,5.75a4.716,4.716,0,0,0,2.921,1h.548c1.278-1,2.647-2.008,3.925-3.012A5.9,5.9,0,0,0,327.058,143.617Z" transform="translate(-319.3 -141.7)"/>
        </g>
        <g id="Group_578" data-name="Group 578" transform="translate(0.091 0.456)">
          <path id="Path_657" data-name="Path 657" class="cls-43" d="M323.954,139c-1.186,1-2.464,2.1-3.742,3.012-1,.73-2.008,1.369-3.012,2.1a3.28,3.28,0,0,0,.639,1.643c2.464-2.008,5.02-4.016,7.484-5.932A4.955,4.955,0,0,0,323.954,139Z" transform="translate(-317.2 -139)"/>
        </g>
        <g id="Group_579" data-name="Group 579" transform="translate(0.73 1.369)">
          <path id="Path_658" data-name="Path 658" class="cls-42" d="M325.384,140c-2.555,1.917-5.02,3.925-7.484,5.932a4.58,4.58,0,0,0,1.278,1.369q3.559-3.012,7.393-5.75A5.017,5.017,0,0,0,325.384,140Z" transform="translate(-317.9 -140)"/>
        </g>
      </g>
    </g>
  </g>
</svg>
