<svg xmlns="http://www.w3.org/2000/svg" viewBox="3143.986 1353.997 426 473.324">
  <defs>
    <style>
      .cls-1 {
        fill: #bab2fc;
      }

      .cls-2 {
        fill: #1f3a49;
      }

      .cls-11, .cls-12, .cls-14, .cls-3 {
        fill: none;
        stroke-miterlimit: 10;
      }

      .cls-3 {
        stroke: #292c3b;
      }

      .cls-4 {
        fill: #7aafda;
      }

      .cls-5 {
        fill: #f8d2a1;
      }

      .cls-6 {
        fill: #e9526a;
      }

      .cls-7 {
        fill: #d4d3d3;
      }

      .cls-8 {
        fill: #30567a;
      }

      .cls-9 {
        fill: #234361;
      }

      .cls-10 {
        fill: #43253d;
      }

      .cls-11 {
        stroke: #d5253d;
      }

      .cls-11, .cls-12 {
        stroke-width: 0.614px;
      }

      .cls-12 {
        stroke: #43253d;
      }

      .cls-13 {
        fill: #4c89c2;
      }

      .cls-14 {
        stroke: #fff;
      }

      .cls-15 {
        fill: #fff;
        font-size: 27px;
        font-family: SegoeUI, Segoe UI;
      }
    </style>
  </defs>
  <g id="item1" transform="translate(3096.113 1352.321)">
    <g id="Group_622" data-name="Group 622" transform="translate(227.089 33)">
      <path id="Path_741" data-name="Path 741" class="cls-1" d="M156.338,38.249V22.569H149.2a26.612,26.612,0,0,0-1.19-3.088l5.237-5.227L142.055,3.088l-5.237,5.227a11.972,11.972,0,0,0-3.094-1.188V0h-15.71V7.365a26.729,26.729,0,0,0-3.095,1.188l-5.237-5.227L98.494,14.492l5.475,5.227a11.921,11.921,0,0,0-1.19,3.088H95.4v15.68h7.379a26.616,26.616,0,0,0,1.19,3.088L98.733,46.8,109.92,57.967l5.237-5.227a11.971,11.971,0,0,0,3.094,1.188v7.365h15.71V53.928a26.726,26.726,0,0,0,3.094-1.188l5.237,5.227L153.481,46.8l-5.237-5.227a11.92,11.92,0,0,0,1.19-3.088h6.9Zm-30.469,3.564a11.417,11.417,0,0,1-11.426-11.4,11.269,11.269,0,0,1,11.426-11.4,11.4,11.4,0,1,1,0,22.807Z" transform="translate(-95.4)"/>
    </g>
    <g id="Group_623" data-name="Group 623" transform="translate(177.815 65.784)">
      <path id="Path_742" data-name="Path 742" class="cls-1" d="M121.593,43.021V31.142H115.88a16.357,16.357,0,0,0-.952-2.376l4.047-4.039-8.569-8.552-4.047,4.039a7.136,7.136,0,0,0-2.38-.95V13.8h-11.9v5.464a16.431,16.431,0,0,0-2.38.95L85.65,16.176,77.08,24.728l4.047,4.039a7.107,7.107,0,0,0-.952,2.376H74.7V43.021h5.475a16.36,16.36,0,0,0,.952,2.376L77.08,49.435l8.569,8.552L89.7,53.949a7.136,7.136,0,0,0,2.38.95v5.464h11.9V54.9a16.43,16.43,0,0,0,2.38-.95l4.047,4.039,8.569-8.552L114.928,45.4a7.106,7.106,0,0,0,.952-2.376ZM98.266,45.872a8.552,8.552,0,1,1,8.569-8.552A8.525,8.525,0,0,1,98.266,45.872Z" transform="translate(-74.7 -13.8)"/>
    </g>
    <g id="Group_635" data-name="Group 635" transform="translate(47.872 1.676)">
      <path id="Subtraction_1" data-name="Subtraction 1" class="cls-1" d="M341.295,384.229H0L178.052,217.635,134.968,180.3,338.49,0h2.3V383.849h.5v.379Z" transform="translate(19.208 0.32)"/>
      <path id="Rectangle_139" data-name="Rectangle 139" class="cls-1" d="M0,0H47A20,20,0,0,1,67,20V364.229a20,20,0,0,1-20,20H0a0,0,0,0,1,0,0V0A0,0,0,0,1,0,0Z" transform="translate(359.002)"/>
      <g id="Group_628" data-name="Group 628" transform="translate(0 181.35)">
        <path id="Path_744" data-name="Path 744" class="cls-2" d="M52.372,96.544c-1.235,12.673.705,13.905,1.058,19.714.353,5.632-.705,21.3-17.107,11.969S34.912,93.2,34.912,93.2Z" transform="translate(21.876 -60.373)"/>
        <path id="Path_745" data-name="Path 745" class="cls-3" d="M87.4,93.432,93.044,87.8l13.933,13.905a4.268,4.268,0,0,0,6.173,0h0a4.248,4.248,0,0,0,0-6.16l-5.467-5.456" transform="translate(66.74 -64.478)"/>
        <path id="Path_746" data-name="Path 746" class="cls-4" d="M111.321,107.553,85.044,81.327a2.549,2.549,0,0,1,0-3.7l2.293-2.288a2.561,2.561,0,0,1,3.7,0l26.1,26.4a2.549,2.549,0,0,1,0,3.7l-2.293,2.288A2.516,2.516,0,0,1,111.321,107.553Z" transform="translate(64.334 -74.55)"/>
        <g id="Group_624" data-name="Group 624" transform="translate(27.171 25.125)">
          <path id="Path_747" data-name="Path 747" class="cls-5" d="M37.533,129.4s5.114,3.344,6.349,3.7-3.7,6.689-3.7,6.689.176,1.584-3.174-1.76-3.7-5.632-3.7-5.632Z" transform="translate(-1.743 -57.981)"/>
          <path id="Path_786" data-name="Path 786" class="cls-2" d="M0,0,3.35,0l-.156,157.18-3.35,0Z" transform="matrix(0.659, 0.752, -0.752, 0.659, 128.273, 0)"/>
          <path id="Path_748" data-name="Path 748" class="cls-6" d="M35.853,104.408c-9.7,2.112-18.694,18.305-19.4,22.882-.882,4.752-3.88,9.681,7.054,17.073,10.934,7.569,23.809,9.5,23.809,9.5l3.88-5.28s-16.931-8.273-19.223-14.257c-2.645-6.689,5.644-9.857,10.053-17.249C45.553,110.568,43.789,102.647,35.853,104.408Z" transform="translate(-15.406 -77.168)"/>
          <path id="Path_749" data-name="Path 749" class="cls-7" d="M35.853,104.408c-9.7,2.112-18.694,18.305-19.4,22.882-.882,4.752-3.88,9.681,7.054,17.073,10.934,7.569,23.809,9.5,23.809,9.5l3.88-5.28s-16.931-8.273-19.223-14.257c-2.645-6.689,5.644-9.857,10.053-17.249C45.553,110.568,43.789,102.647,35.853,104.408Z" transform="translate(-15.406 -77.168)"/>
          <path id="Path_750" data-name="Path 750" class="cls-5" d="M40.368,138.793c-2.469.528-5.467-1.584-2.822-3.7,2.469-2.112.882-3.7,3.351-3.7s3.88.352,5.114,1.232S43.366,138.089,40.368,138.793Z" transform="translate(0.713 -56.461)"/>
          <path id="Path_751" data-name="Path 751" class="cls-5" d="M36.4,129.9c1.587.88,3.351.176,5.291,1.584,1.94,1.232,3.527,2.288,1.411,2.64a12.787,12.787,0,0,1-5.291-.352C36.226,133.42,36.4,129.9,36.4,129.9Z" transform="translate(0.622 -57.601)"/>
        </g>
        <path id="Path_752" data-name="Path 752" class="cls-5" d="M11.594,196.128l-1.235,5.456a67.509,67.509,0,0,1,3.351,5.984c1.94,4.048,1.764,4.224,1.764,4.224l-12.7-11.265L2.6,194.544,6.48,191.2Z" transform="translate(1.985 14.12)"/>
        <path id="Path_753" data-name="Path 753" class="cls-2" d="M4.585,193.1,0,196.972s5.644,7.921,8.994,12.673c1.94,2.992,14.638,2.288,14.638,2.288,1.94-2.288-7.76-5.808-7.76-5.808a10.44,10.44,0,0,1-6.349-4.048A36.726,36.726,0,0,1,4.585,193.1Z" transform="translate(0 15.564)"/>
        <g id="Group_625" data-name="Group 625" transform="translate(7.417 111.857)">
          <path id="Path_754" data-name="Path 754" class="cls-8" d="M26.065,138.1s0,13.025.529,17.425c1.411,9.857,4.938,32.387,4.938,32.387L4.372,231.035s-1.764,1.76,6.173,6.865c0,0,25.749-33.795,31.569-39.251S51.108,142.5,51.108,142.5Z" transform="translate(-4.205 -138.1)"/>
        </g>
        <g id="Group_626" data-name="Group 626" transform="translate(29.1 111.681)">
          <path id="Path_755" data-name="Path 755" class="cls-9" d="M21.791,186.4c1.587,6.513,3.174,12.849,4.762,19.362a84.626,84.626,0,0,1,6.173-7.041c5.82-5.456,8.994-56.148,8.994-56.148L16.5,138s0,13.025.529,17.425C18.264,163.874,21.085,181.123,21.791,186.4Z" transform="translate(-16.5 -138)"/>
        </g>
        <path id="Path_756" data-name="Path 756" class="cls-5" d="M30.858,199.1l-.529,2.64a31.873,31.873,0,0,0,4.056,3.7c3.88,2.288,3.88,2.464,3.88,2.464l-14.814-2.816L20.1,203.677l3.351-8.977Z" transform="translate(15.349 16.781)"/>
        <path id="Path_757" data-name="Path 757" class="cls-2" d="M38.858,85.851c4.585-.7,10.053,1.76,11.111,6.16S48.558,102.4,48.558,102.4s-.705-10.385-7.936-11.441S38.858,85.851,38.858,85.851Z" transform="translate(28.159 -66.05)"/>
        <path id="Path_758" data-name="Path 758" class="cls-5" d="M43.1,88.275c2.469-1.056,7.054-.352,8.289,5.808s2.293,11.089,0,15.137-5.291.528-12.874,3.344c-7.054,2.64-4.762-15.313-4.762-15.313S40.1,89.507,43.1,88.275Z" transform="translate(25.503 -64.425)"/>
        <path id="Path_759" data-name="Path 759" class="cls-10" d="M44.064,93.18a.882.882,0,1,1-.882-.88A.832.832,0,0,1,44.064,93.18Z" transform="translate(32.301 -61.058)"/>
        <path id="Path_760" data-name="Path 760" class="cls-11" d="M42.3,97.6a3.463,3.463,0,0,0,3.527.88" transform="translate(32.301 -57.029)"/>
        <path id="Path_761" data-name="Path 761" class="cls-5" d="M43.853,93.1c.882,1.936,1.587,3.872,2.469,5.808,0,.176.176.352,0,.528a.649.649,0,0,1-.529.176c-.705.176-1.411.176-2.293.352" transform="translate(33.217 -60.449)"/>
        <path id="Path_762" data-name="Path 762" class="cls-8" d="M18.1,140.9s1.94,13.025,3,17.073c2.822,9.5,11.993,30.978,11.993,30.978l-9.876,50.164s3,1.232,9.171.88c0,0,14.462-41.891,14.462-49.812s-3.175-48.58-3.175-48.58Z" transform="translate(13.821 -24.115)"/>
        <path id="Path_763" data-name="Path 763" class="cls-6" d="M22.142,139.855c-6.525,22.882-8.642,61.077-8.642,61.077s20.634,9.5,41.268-3.168c0-8.1-8.465-48.228,2.645-57.557,7.407-6.336,2.469-23.41.176-27.458s0-4.928,0-4.928L44.54,99.9C44.54,100.076,30.431,110.637,22.142,139.855Z" transform="translate(10.309 -55.281)"/>
        <path id="Path_764" data-name="Path 764" class="cls-7" d="M40.667,133.67c6.349-5.456,3.527-19.009,1.235-25.17-5.644,10.385-6.349,23.938-6.7,35.907C36.787,140.711,37.669,136.31,40.667,133.67Z" transform="translate(26.879 -48.743)"/>
        <path id="Path_765" data-name="Path 765" class="cls-2" d="M20.864,199.8l-1.764,6.16s5.467.88,11.463,1.232c3.527.176,16.225-.176,16.225-.176.353-2.992-11.816-5.456-11.816-5.456s-.705,1.056-5.291-.352A26.727,26.727,0,0,0,20.864,199.8Z" transform="translate(14.585 20.655)"/>
        <g id="Group_627" data-name="Group 627" transform="translate(54.436 59.032)">
          <path id="Path_766" data-name="Path 766" class="cls-5" d="M58,116.884a25.121,25.121,0,0,0,4.762-3.7c1.764-1.76,2.822-2.992,3.7-3.168s.705.88,3.7.88c3,.176,5.644-2.464,6.173-.88.529,1.408-1.235,4.4-2.822,6.336-1.587,2.112-4.056,1.936-7.054,2.464s-7.407,3.168-7.407,3.168Z" transform="translate(-10.146 -107.007)"/>
          <path id="Path_767" data-name="Path 767" class="cls-6" d="M39.744,108.109c6.525.352,13.051,16.369,18.871,16.017,5.82-.176,21.869-7.745,21.869-7.745l1.587,6.865s-17.107,11.265-28.041,11.265c-8.994,0-18.342-8.1-21.869-13.905C30.22,117.438,28.986,107.581,39.744,108.109Z" transform="translate(-30.866 -108.088)"/>
        </g>
        <path id="Path_768" data-name="Path 768" class="cls-2" d="M53.859,108.517c0,2.64.882,5.1,1.411,7.745,2.116,11.265-3.351,26.578-16.049,28.338-6.878,1.056-18.165-3.344-18.518-11.617-.176-6.16,3.351-12.849,7.231-17.425,1.94-2.464,4.585-4.4,6.349-7.041,2.293-3.52.529-6.513.529-10.737,0-11.617,13.051-15.313,19.4-11.441C61.619,91.268,53.859,102.18,53.859,108.517Z" transform="translate(15.804 -66.714)"/>
        <path id="Path_769" data-name="Path 769" class="cls-12" d="M41.4,91.428a2.984,2.984,0,0,1,1.764-.528,2.8,2.8,0,0,1,2.116.88" transform="translate(31.613 -62.122)"/>
      </g>
      <g id="Group_631" data-name="Group 631" transform="translate(303.264 329.909)">
        <g id="Group_629" data-name="Group 629">
          <path id="Path_770" data-name="Path 770" class="cls-2" d="M180.744,123.832H135.6l.636-3.332H181.38Z" transform="translate(-108.418 -109.395)"/>
          <path id="Path_771" data-name="Path 771" class="cls-2" d="M121.838,256.915,148.384,113.5h-3.338L118.5,256.915Z" transform="translate(-118.5 -113.5)"/>
          <path id="Path_772" data-name="Path 772" class="cls-2" d="M152.338,256.915,178.884,113.5h-3.338L149,256.915Z" transform="translate(-100.518 -113.5)"/>
          <path id="Path_773" data-name="Path 773" class="cls-2" d="M178.244,137.19H133.1l.636-3.49H178.88Z" transform="translate(-109.892 -101.654)"/>
          <path id="Path_774" data-name="Path 774" class="cls-2" d="M175.844,150.332H130.7l.636-3.332H176.48Z" transform="translate(-111.307 -93.854)"/>
          <path id="Path_775" data-name="Path 775" class="cls-2" d="M173.344,163.69H128.2l.636-3.49H173.98Z" transform="translate(-112.781 -86.113)"/>
          <path id="Path_776" data-name="Path 776" class="cls-2" d="M170.944,176.832H125.8l.636-3.332H171.58Z" transform="translate(-114.196 -78.313)"/>
          <path id="Path_777" data-name="Path 777" class="cls-2" d="M168.385,190.19H123.4l.477-3.49h45.144Z" transform="translate(-115.611 -70.572)"/>
        </g>
        <g id="Group_630" data-name="Group 630" transform="translate(25.751)">
          <path id="Path_778" data-name="Path 778" class="cls-6" d="M138.736,123.832H183.88l-.636-3.332H138.1Z" transform="translate(-132.695 -109.395)"/>
          <path id="Path_779" data-name="Path 779" class="cls-6" d="M195.243,256.915,168.7,113.5h-3.5l26.546,143.415Z" transform="translate(-116.718 -113.5)"/>
          <path id="Path_780" data-name="Path 780" class="cls-6" d="M164.584,256.915,138.038,113.5H134.7l26.546,143.415Z" transform="translate(-134.7 -113.5)"/>
          <path id="Path_781" data-name="Path 781" class="cls-6" d="M141.236,137.19H186.38l-.636-3.49H140.6Z" transform="translate(-131.221 -101.654)"/>
          <path id="Path_782" data-name="Path 782" class="cls-6" d="M143.636,150.332H188.78L188.144,147H143Z" transform="translate(-129.806 -93.854)"/>
          <path id="Path_783" data-name="Path 783" class="cls-6" d="M146.136,163.69H191.28l-.636-3.49H145.5Z" transform="translate(-128.332 -86.113)"/>
          <path id="Path_784" data-name="Path 784" class="cls-6" d="M148.536,176.832H193.68l-.636-3.332H147.9Z" transform="translate(-126.918 -78.313)"/>
          <path id="Path_785" data-name="Path 785" class="cls-6" d="M151.036,190.19H196.18l-.636-3.49H150.4Z" transform="translate(-125.444 -70.572)"/>
        </g>
      </g>
      <g id="Group_632" data-name="Group 632" transform="translate(320.272 162.697)">
        <path id="Path_786-2" data-name="Path 786" class="cls-3" d="M229.026,61.563,227.754,47.92,218.694,43.8h0l-4.133-1.9-5.4,3.807-60.245-26.97-.636-6.5L139.214,8.1l-5.4,4.442,7.948,3.649.636,6.346-5.246,3.649L129.2,22.537l.159,6.98,9.061,4.125,5.246-3.807L203.91,56.8l.636,6.346,9.061,4.125h0l4.133,1.9Zm-17.485-1.9-.477-.159-.636-6.346h0l5.246-3.649,5.564,2.538.636,6.346-5.246,3.649Z" transform="translate(-129.2 -8.1)"/>
        <path id="Path_787" data-name="Path 787" class="cls-5" d="M152.482,65.288s-3.5-8.091-3.656-14.278,2.7-21.417,2.7-21.417l-5.723-.793S140.56,48,140.4,56.246s6.835,18.879,6.835,18.879Z" transform="translate(-122.598 4.04)"/>
        <path id="Path_788" data-name="Path 788" class="cls-6" d="M145.015,54.173A70.493,70.493,0,0,1,151.373,51c.636,1.111.954,2.856,2.066,4.759,4.769,7.615,7.789,10.153,7.789,10.153l-1.113,17.768a125.745,125.745,0,0,1-10.968-11.264A38.347,38.347,0,0,1,141.2,57.029,10.963,10.963,0,0,1,145.015,54.173Z" transform="translate(-122.125 17.059)"/>
        <path id="Path_789" data-name="Path 789" class="cls-5" d="M147.985,36.525c.318-.317,1.59-2.221,1.59-2.221s1.113-1.428,1.59-1.586a4.269,4.269,0,0,0,.954-1.428,17.084,17.084,0,0,1-1.272-1.745A8,8,0,0,1,151,24.468c.795-1.9.795-3.49-.636-3.649s-3.815,0-4.292,1.111-1.749,6.187-2.384,7.774.159,3.49,0,4.442C143.534,34.939,147.985,36.525,147.985,36.525Z" transform="translate(-120.803 -0.671)"/>
        <path id="Path_790" data-name="Path 790" class="cls-5" d="M155.817,66.394c1.272.952,2.066.159,2.7,1.269.477,1.111-1.113,6.346-1.113,6.346h11.286l-.636-10.153a23.43,23.43,0,0,0-.636-9.519c-1.431-5.394-11.445-8.884-11.445-8.884-.477-.317-1.113-2.38-1.749-1.586-1.272,1.269-3.5,4.125-3.815,6.187C149.936,52.433,154.7,65.442,155.817,66.394Z" transform="translate(-116.713 12.77)"/>
        <path id="Path_791" data-name="Path 791" class="cls-2" d="M150.453,51.492A22.17,22.17,0,0,0,152.52,57.2h0c1.272,0,2.543,1.428,2.7,3.966.159,2.7-.318.793.795,2.856a20.072,20.072,0,0,0,3.02,3.966c2.225.159,9.379,0,9.379,0,1.272-3.966,3.02-6.663,4.133-10.153,1.272-3.49,1.908-6.822,1.113-10.153-.477-1.9-3.656-4.125-6.2-3.173,0,0-1.749-3.807-6.835-2.856C156.653,42.45,149.182,43.878,150.453,51.492Z" transform="translate(-116.754 11.49)"/>
        <path id="Path_792" data-name="Path 792" class="cls-8" d="M168.711,94c0,6.029,0,11.105-4.133,23.321s-4.451,62.348-4.451,62.348H151.7s-.636-33.95-2.066-51.877a224.3,224.3,0,0,1,0-33.791Z" transform="translate(-117.526 42.276)"/>
        <path id="Path_793" data-name="Path 793" class="cls-5" d="M158.176,148.476c-.318.476,0,13.8,0,13.8H151.5V148Z" transform="translate(-116.052 73.945)"/>
        <rect id="Rectangle_120" data-name="Rectangle 120" class="cls-13" width="9.22" height="3.649" transform="translate(42.58 224.702) rotate(180)"/>
        <path id="Path_794" data-name="Path 794" class="cls-2" d="M161.3,155.8h-6.676s0,1.269-3.815,1.9c-3.815.793-4.61,4.918-4.61,4.918h15.1V155.8Z" transform="translate(-119.177 78.519)"/>
        <path id="Path_795" data-name="Path 795" class="cls-8" d="M178.472,93.2c0,6.029.477,11.581-1.272,24.431-2.384,17.134-3.656,62.348-3.656,62.348H165.12s-1.431-33.95-2.861-51.877A175.512,175.512,0,0,0,155.9,94.311Z" transform="translate(-113.458 41.807)"/>
        <path id="Path_796" data-name="Path 796" class="cls-5" d="M169.176,148.476c-.318.476,0,13.8,0,13.8H162.5V148Z" transform="translate(-109.567 73.945)"/>
        <rect id="Rectangle_121" data-name="Rectangle 121" class="cls-13" width="9.22" height="3.649" transform="translate(60.126 224.702) rotate(180)"/>
        <path id="Path_797" data-name="Path 797" class="cls-2" d="M172.3,155.8h-6.676s0,1.269-3.815,1.9c-3.815.793-4.61,4.918-4.61,4.918h15.1V155.8Z" transform="translate(-112.692 78.519)"/>
        <path id="Path_798" data-name="Path 798" class="cls-5" d="M173.218,68.2s7.153-5.077,10.491-10.471c3.338-5.235,8.743-19.831,8.743-19.831l5.4,2.221s-5.4,19.2-9.379,26.494C184.345,73.754,172.9,79.306,172.9,79.306Z" transform="translate(-103.435 9.376)"/>
        <path id="Path_799" data-name="Path 799" class="cls-6" d="M184.584,118.723s-.954-9.836-2.225-25.859C181.086,77,173.933,60.5,173.933,60.5H156.607a32.406,32.406,0,0,0-5.4,13.168c-.795,7.139-2.7,46.483-2.7,46.483s8.425,4.283,21.141,4.442C182.2,124.751,184.584,118.723,184.584,118.723Z" transform="translate(-117.821 22.63)"/>
        <path id="Path_800" data-name="Path 800" class="cls-6" d="M183.729,62.429a65.332,65.332,0,0,0-3.815-6.029c-1.113.635-2.384,1.9-4.292,3.014-7.948,4.125-11.922,4.759-11.922,4.759l2.066,13.485s3.974,3.332,10.332-1.745c4.292-3.49,7.312-7.3,9.22-9.2A11.769,11.769,0,0,0,183.729,62.429Z" transform="translate(-108.859 20.226)"/>
        <path id="Path_801" data-name="Path 801" class="cls-5" d="M185.654,45.367c0-.476-.318-2.856-.318-2.856s-.318-1.745-.477-2.221a8.524,8.524,0,0,1-.159-1.745,6.3,6.3,0,0,0,1.908-.952c.795-.476,2.066-2.538,2.384-4.6s1.113-3.332,2.543-2.856c1.272.635,3.338,1.9,3.179,3.173s-1.59,6.187-1.908,7.932-1.907,3.014-2.225,3.966C190.423,46.16,185.654,45.367,185.654,45.367Z" transform="translate(-96.478 4.765)"/>
      </g>
      <g id="Group_633" data-name="Group 633" transform="translate(195.163 141.011)">
        <ellipse id="Ellipse_63" data-name="Ellipse 63" class="cls-14" cx="33.278" cy="33.336" rx="33.278" ry="33.336" transform="translate(0 64.762) rotate(-76.798)"/>
        <text id="_" data-name="&lt;/&gt;" class="cls-15" transform="translate(16.382 44.758)"><tspan x="0" y="0">&lt;/&gt;</tspan></text>
      </g>
    </g>
  </g>
</svg>
