<svg xmlns="http://www.w3.org/2000/svg" viewBox="2780 5757 400 518.001">
  <defs>
    <style>
      .cls-1 {
      opacity: 0;
      }

      .cls-2 {
        fill: #5fd6a5;
        opacity: 0.6;
      }
    </style>
  </defs>
  <g id="cart2" transform="translate(1990)">
    <rect id="Rectangle_175" data-name="Rectangle 175" class="cls-1" width="400" height="518" transform="translate(790 5757)"/>
    <path id="Union_2" data-name="Union 2" class="cls-2" d="M-1989.918,309.01s-7.933-74.908,131.768-110.154,135.035-74.625,164.991-134.159C-1667.733,14.168-1625.9,2.4-1613.822,0V278.01h0v31h-20Z" transform="translate(2803.821 5965.99)"/>
  </g>
</svg>
