<svg xmlns="http://www.w3.org/2000/svg" viewBox="2360 5757 400 518.5">
  <defs>
    <style>
      .cls-1 {
        fill: #fff;
      }

      .cls-2 {
        fill: #6bb1ef;
        opacity: 0.6;
      }
    </style>
  </defs>
  <g id="cart1" transform="translate(1990)">
    <rect id="Rectangle_168" data-name="Rectangle 168" class="cls-1" width="400" height="518" transform="translate(370 5757)"/>
    <path id="Union_1" data-name="Union 1" class="cls-2" d="M-1653.321,309.51v-.5h-336.6s-7.933-74.908,131.768-110.154,135.035-74.625,164.991-134.159C-1667.733,14.168-1625.9,2.4-1613.822,0V289.01a20.06,20.06,0,0,1-.5,4.461V309.51Z" transform="translate(2383.821 5965.99)"/>
  </g>
</svg>
