<svg xmlns="http://www.w3.org/2000/svg" xmlns:xlink="http://www.w3.org/1999/xlink" viewBox="3083.165 2459.478 467 274">
  <defs>
    <style>
      .cls-1 {
        fill: #fff;
      }

      .cls-10, .cls-11, .cls-12, .cls-18, .cls-2, .cls-3, .cls-8, .cls-9 {
        opacity: 0.5;
      }

      .cls-2 {
        fill: url(#linear-gradient);
      }

      .cls-3 {
        fill: url(#linear-gradient-2);
      }

      .cls-4 {
        fill: #eff2f7;
      }

      .cls-5 {
        fill: #5bb59b;
      }

      .cls-6 {
        fill: #524f63;
      }

      .cls-7 {
        fill: #63a590;
      }

      .cls-8 {
        fill: url(#linear-gradient-3);
      }

      .cls-9 {
        fill: url(#linear-gradient-4);
      }

      .cls-10 {
        fill: url(#linear-gradient-5);
      }

      .cls-11 {
        fill: url(#linear-gradient-6);
      }

      .cls-12 {
        fill: url(#linear-gradient-7);
      }

      .cls-13 {
        fill: #e0e4ed;
      }

      .cls-14 {
        fill: #424051;
      }

      .cls-15 {
        fill: #eebcc5;
      }

      .cls-16 {
        fill: #ff8288;
      }

      .cls-17 {
        fill: #ead18c;
      }

      .cls-18 {
        fill: url(#linear-gradient-8);
      }

      .cls-19 {
        fill: #91616a;
      }

      .cls-20 {
        fill: url(#linear-gradient-9);
      }

      .cls-21 {
        fill: url(#linear-gradient-10);
      }

      .cls-22, .cls-26 {
        fill: #4a4549;
      }

      .cls-23 {
        fill: url(#linear-gradient-11);
      }

      .cls-24 {
        fill: #d98e9d;
      }

      .cls-25 {
        fill: url(#linear-gradient-12);
      }

      .cls-26 {
        opacity: 0.7;
      }

      .cls-27 {
        fill: #75454f;
      }

      .cls-28 {
        fill: #e6676e;
      }

      .cls-29 {
        fill: #37354c;
      }

      .cls-30 {
        fill: url(#linear-gradient-13);
      }

      .cls-31 {
        fill: none;
        stroke: #524f63;
        stroke-miterlimit: 10;
      }

      .cls-32 {
        fill: #bcbace;
      }

      .cls-33 {
        fill: url(#linear-gradient-14);
      }
    </style>
    <linearGradient id="linear-gradient" x1="1.058" y1="-2.183" x2="-0.576" y2="5.664" gradientUnits="objectBoundingBox">
      <stop offset="0" stop-color="#4a50c2" stop-opacity="0.02"/>
      <stop offset="1" stop-color="#444bcc" stop-opacity="0.639"/>
    </linearGradient>
    <linearGradient id="linear-gradient-2" x1="1.06" y1="-2.178" x2="-0.573" y2="5.67" xlink:href="#linear-gradient"/>
    <linearGradient id="linear-gradient-3" x1="1.058" y1="-2.37" x2="-0.574" y2="6.035" xlink:href="#linear-gradient"/>
    <linearGradient id="linear-gradient-4" x1="1.059" y1="-2.373" x2="-0.574" y2="6.032" xlink:href="#linear-gradient"/>
    <linearGradient id="linear-gradient-5" x1="1.059" y1="-2.378" x2="-0.574" y2="6.027" xlink:href="#linear-gradient"/>
    <linearGradient id="linear-gradient-6" x1="1.059" y1="-2.375" x2="-0.574" y2="6.03" xlink:href="#linear-gradient"/>
    <linearGradient id="linear-gradient-7" x1="1.062" y1="-1.225" x2="-0.584" y2="3.83" xlink:href="#linear-gradient"/>
    <linearGradient id="linear-gradient-8" x1="-0.004" y1="0.5" x2="0.997" y2="0.5" gradientUnits="objectBoundingBox">
      <stop offset="0" stop-color="#ead18c" stop-opacity="0"/>
      <stop offset="1" stop-color="#524f63" stop-opacity="0.702"/>
    </linearGradient>
    <linearGradient id="linear-gradient-9" y1="0.499" x2="0.998" y2="0.499" gradientUnits="objectBoundingBox">
      <stop offset="0" stop-color="#484ec2" stop-opacity="0"/>
      <stop offset="1" stop-color="#ff8288" stop-opacity="0.502"/>
    </linearGradient>
    <linearGradient id="linear-gradient-10" x1="-1.057" y1="0.88" x2="2.717" y2="0.177" xlink:href="#linear-gradient-8"/>
    <linearGradient id="linear-gradient-11" x1="0.194" y1="1.475" x2="0.716" y2="-0.381" xlink:href="#linear-gradient-9"/>
    <linearGradient id="linear-gradient-12" x1="-0.002" y1="0.499" x2="0.999" y2="0.499" gradientUnits="objectBoundingBox">
      <stop offset="0" stop-color="#b6567a" stop-opacity="0"/>
      <stop offset="1" stop-color="#c45771"/>
    </linearGradient>
    <linearGradient id="linear-gradient-13" x1="0.301" y1="1.144" x2="0.876" y2="-0.139" xlink:href="#linear-gradient-9"/>
    <linearGradient id="linear-gradient-14" x1="0.495" y1="0.764" x2="0.565" y2="-2.77" gradientUnits="objectBoundingBox">
      <stop offset="0" stop-color="#676475" stop-opacity="0"/>
      <stop offset="1" stop-color="#524f63" stop-opacity="0.702"/>
    </linearGradient>
  </defs>
  <g id="item3" transform="translate(3083.165 2459.478)">
    <g id="Group_637" data-name="Group 637" transform="translate(239.643)">
      <rect id="Rectangle_122" data-name="Rectangle 122" class="cls-1" width="184.727" height="150.289"/>
    </g>
    <path id="Path_803" data-name="Path 803" class="cls-2" d="M55.959,237.1c0,1.708-9.936,3.1-22.33,3.1S11.3,238.8,11.3,237.1s9.936-3.1,22.33-3.1S55.959,235.388,55.959,237.1Z" transform="translate(0.773 15.77)"/>
    <path id="Path_804" data-name="Path 804" class="cls-3" d="M439.959,238c0,1.708-9.936,3.1-22.33,3.1-12.287,0-22.33-1.388-22.33-3.1s9.936-3.1,22.33-3.1S439.959,236.288,439.959,238Z" transform="translate(27.041 15.831)"/>
    <g id="Group_638" data-name="Group 638" transform="translate(39.424)">
      <rect id="Rectangle_123" data-name="Rectangle 123" class="cls-1" width="184.727" height="150.289"/>
    </g>
    <path id="Path_805" data-name="Path 805" class="cls-4" d="M409.027,49.675H389.369V87.461h-24.36V98.135H345.243V40.709H321.418v71.409H298.554V49.782H280.6v51.342h-4.487V90.449H252.933V111.8h-8.761V37.4H224.407V98.135H224.3v49.634H409.027Z" transform="translate(15.343 2.521)"/>
    <path id="Path_806" data-name="Path 806" class="cls-4" d="M221.734,49.675H205.922V87.461H181.669V98.135H161.8V40.709H137.971v71.409H115.107V49.782H97.265v51.342H92.778V90.449H69.486V111.8H60.832V37.4H36.9V147.769H221.734Z" transform="translate(2.524 2.521)"/>
    <g id="Group_639" data-name="Group 639" transform="translate(14.933 148.901)">
      <path id="Path_807" data-name="Path 807" class="cls-5" d="M16.138,146.5s-6.945,30.527,4.06,51.342,10.9,20.707,10.9,20.707S33.981,166.674,16.138,146.5Z" transform="translate(-13.977 -139.028)"/>
      <path id="Path_808" data-name="Path 808" class="cls-1" d="M16.427,222.139a32.381,32.381,0,0,0,3.419,10.887c1.816,3.309,4.808,6.191,8.547,7.045a16.622,16.622,0,0,0,5.128.32,11.106,11.106,0,0,0,5.556-1.174c2.137-1.281,3.205-3.629,4.06-5.977a69.722,69.722,0,0,0,3.312-12.062c.427-2.348.748-4.91-.427-7.045-1.5-2.882-5.022-4.056-8.227-4.59-5.342-.854-12.714-1.281-17.842.854C15.465,212.319,15.679,217.977,16.427,222.139Z" transform="translate(-13.838 -134.827)"/>
      <path id="Path_809" data-name="Path 809" class="cls-6" d="M28.356,214.345c4.274.213,8.868-.427,11.539-1.815.534-.32.962-.64.748-.961a3.574,3.574,0,0,0-2.457-.64,60.3,60.3,0,0,0-15.812.107C15.107,212.21,24.4,214.132,28.356,214.345Z" transform="translate(-13.587 -134.718)"/>
      <path id="Path_810" data-name="Path 810" class="cls-7" d="M25.746,139.5s-3.419,58.173,4.594,79.521C30.341,219.021,35.576,167.145,25.746,139.5Z" transform="translate(-13.221 -139.5)"/>
      <path id="Path_811" data-name="Path 811" class="cls-5" d="M29.253,217.785h1.923c2.778-11.528,11-48.887,6.624-66.285,0,0-13.889,48.993-10.364,59.988C28.185,214.369,28.826,216.4,29.253,217.785Z" transform="translate(-13.095 -138.691)"/>
    </g>
    <g id="Group_640" data-name="Group 640" transform="translate(426.269 150.929)">
      <path id="Path_812" data-name="Path 812" class="cls-5" d="M401.138,148.4s-6.945,30.527,4.06,51.342l11,20.707S418.981,168.574,401.138,148.4Z" transform="translate(-398.977 -140.928)"/>
      <path id="Path_813" data-name="Path 813" class="cls-1" d="M401.427,223.939a32.381,32.381,0,0,0,3.419,10.887c1.923,3.309,4.808,6.191,8.547,7.045a16.622,16.622,0,0,0,5.128.32,11.107,11.107,0,0,0,5.556-1.174c2.137-1.281,3.205-3.629,4.06-5.977a69.722,69.722,0,0,0,3.312-12.062c.427-2.348.748-4.91-.427-7.045-1.5-2.882-5.022-4.056-8.227-4.59-5.342-.854-12.714-1.281-17.842.854C400.465,214.119,400.679,219.883,401.427,223.939Z" transform="translate(-398.838 -136.733)"/>
      <path id="Path_814" data-name="Path 814" class="cls-6" d="M413.356,216.245c4.274.213,8.868-.427,11.539-1.815.534-.32.962-.64.748-.961a3.574,3.574,0,0,0-2.457-.64,60.294,60.294,0,0,0-15.812.107C400.107,214,409.4,216.032,413.356,216.245Z" transform="translate(-398.587 -136.618)"/>
      <path id="Path_815" data-name="Path 815" class="cls-7" d="M410.746,141.4s-3.419,58.173,4.594,79.521C415.341,220.921,420.576,169.046,410.746,141.4Z" transform="translate(-398.221 -141.4)"/>
      <path id="Path_816" data-name="Path 816" class="cls-5" d="M414.253,219.685h1.923c2.778-11.528,11-48.887,6.624-66.285,0,0-13.889,48.993-10.364,59.988C413.185,216.27,413.826,218.3,414.253,219.685Z" transform="translate(-398.095 -140.591)"/>
    </g>
    <ellipse id="Ellipse_64" data-name="Ellipse 64" class="cls-8" cx="50.322" cy="6.511" rx="50.322" ry="6.511" transform="translate(19.018 255.961)"/>
    <path id="Path_817" data-name="Path 817" class="cls-9" d="M431.644,251.011c0,3.522-22.543,6.511-50.322,6.511S331,254.64,331,251.011c0-3.522,22.543-6.511,50.322-6.511C409.1,244.607,431.644,247.489,431.644,251.011Z" transform="translate(22.642 16.478)"/>
    <ellipse id="Ellipse_65" data-name="Ellipse 65" class="cls-10" cx="50.322" cy="6.511" rx="50.322" ry="6.511" transform="translate(134.512 254.573)"/>
    <path id="Path_818" data-name="Path 818" class="cls-11" d="M350.544,243.111c0,3.522-22.543,6.511-50.322,6.511S249.9,246.74,249.9,243.111c0-3.522,22.543-6.511,50.322-6.511S350.544,239.482,350.544,243.111Z" transform="translate(17.095 15.945)"/>
    <ellipse id="Ellipse_66" data-name="Ellipse 66" class="cls-12" cx="30.022" cy="6.511" rx="30.022" ry="6.511" transform="translate(208.125 241.658)"/>
    <g id="Group_642" data-name="Group 642" transform="translate(0 58.457)">
      <path id="Path_819" data-name="Path 819" class="cls-13" d="M73.3,84.227l19.018,3.1L83.236,79.1l4.274-4.8,16.453,14.623a3.8,3.8,0,0,1-2.671,6.4l-22.971.747Z" transform="translate(5.014 -53.449)"/>
      <path id="Path_820" data-name="Path 820" class="cls-6" d="M82.629,129.242l-.321,123.818-6.517.427L71.2,148.455l-5.983.534-6.2,103.537L52.5,252.1,53.355,127Z" transform="translate(3.591 -49.898)"/>
      <path id="Path_821" data-name="Path 821" class="cls-13" d="M75.079,83.661l-21.9-.961A7.208,7.208,0,0,0,47.3,85.262l6.41,50.168,29.915.64-2.778-46C80.848,90.172,75.933,83.661,75.079,83.661Z" transform="translate(3.236 -52.884)"/>
      <path id="Path_822" data-name="Path 822" class="cls-1" d="M82.693,74.84c-1.175.961-2.778,1.815-2.992,3.309a2.978,2.978,0,0,0,2.03,3.1,5.32,5.32,0,0,0,3.846-.32,6.921,6.921,0,0,0,3.953-4.8c.214-1.494-.427-4.483-2.244-5.017C85.258,70.57,84.189,73.666,82.693,74.84Z" transform="translate(5.45 -53.669)"/>
      <path id="Path_823" data-name="Path 823" class="cls-14" d="M53.314,244.2,40.6,248.043l.427,1.067,18.483-2.028.321-2.455Z" transform="translate(2.777 -41.999)"/>
      <path id="Path_824" data-name="Path 824" class="cls-15" d="M15.065,85.2l-2.03-3.416,2.244-4.59a22.431,22.431,0,0,0,1.175-4.27c0-.961-.962-2.455-2.03-.64a25.169,25.169,0,0,1-2.03,3.2L6.41,66.627a1.082,1.082,0,0,0-.748-.427h0a.983.983,0,0,0-.855,1.388L6.2,70.149a.9.9,0,0,1-1.282,1.174l-.321-.213A3.29,3.29,0,0,0,0,71.964v.107l.107,2.989a6.9,6.9,0,0,0,2.457,5.017c3.526,2.882,9.722,7.9,9.936,7.472A16.012,16.012,0,0,1,15.065,85.2Z" transform="translate(0 -53.995)"/>
      <path id="Path_825" data-name="Path 825" class="cls-15" d="M77.985,65.544a2.035,2.035,0,0,0-2.457.747,2.937,2.937,0,0,0-.214,2.668,3.754,3.754,0,0,0,4.06,2.455,3.3,3.3,0,0,0,2.778-3.629,3.557,3.557,0,0,0-2.244-2.668,5.318,5.318,0,0,0-3.633.107" transform="translate(5.137 -54.086)"/>
      <path id="Path_826" data-name="Path 826" class="cls-15" d="M77.537,67.3l9.829,7.792s.214,4.27-2.137,4.7c-.748.427-9.829-9.18-9.829-9.18Z" transform="translate(5.158 -53.921)"/>
      <path id="Path_827" data-name="Path 827" class="cls-14" d="M74.3,245.527l.321,2.028,15.919,2.668s.748-1.281.321-1.388S80.817,245.1,80.817,245.1Z" transform="translate(5.083 -41.938)"/>
      <path id="Path_828" data-name="Path 828" class="cls-15" d="M59.7,73.7l.534,13.663a3.313,3.313,0,0,0,2.671,3.2h0a3.262,3.262,0,0,0,3.739-2.775l.641-11.848Z" transform="translate(4.084 -53.49)"/>
      <g id="Group_641" data-name="Group 641" transform="translate(74.329 7.52)">
        <rect id="Rectangle_124" data-name="Rectangle 124" class="cls-6" width="7.049" height="14.836" transform="translate(2.736 0) rotate(10.539)"/>
        <rect id="Rectangle_125" data-name="Rectangle 125" class="cls-6" width="6.301" height="14.836" transform="translate(2.716 0.069) rotate(10.539)"/>
      </g>
      <path id="Path_829" data-name="Path 829" class="cls-1" d="M58.969,84.681A6.05,6.05,0,0,0,57.9,85.855c-.107.32,3.846,6.4,3.846,6.4L64.417,88.1l3.312,4.163,1.389-7.578-2.244-.534-2.457,2.775L60.037,83.4Z" transform="translate(3.961 -52.836)"/>
      <path id="Path_830" data-name="Path 830" class="cls-16" d="M64.1,87.7l-1.6,2.775L63.675,92.5l-.641,1.6.641,20.067,2.244,2.562,2.03-2.455L65.812,94l-1.175-1.6,1.5-2.135Z" transform="translate(4.275 -52.546)"/>
      <path id="Path_831" data-name="Path 831" class="cls-15" d="M54.469,60.336a16.763,16.763,0,0,0-.534,10.247A17.056,17.056,0,0,0,59.17,80.4c2.885,2.348,7.479,3.1,10.47.747a11.62,11.62,0,0,0,3.526-5.657,19.115,19.115,0,0,0-.107-13.129C69.854,54.892,58.315,51.37,54.469,60.336Z" transform="translate(3.652 -54.749)"/>
      <path id="Path_832" data-name="Path 832" class="cls-13" d="M52.406,99.623,28.794,107.2,11.7,88.522,15.974,85,31.786,97.915l17.949-12.7,2.992,5.337Z" transform="translate(0.8 -52.728)"/>
      <path id="Path_833" data-name="Path 833" class="cls-1" d="M9.2,87.517l1.816,2.775,8.013-4.59-3.205-3.2Z" transform="translate(0.629 -52.897)"/>
      <path id="Path_834" data-name="Path 834" class="cls-15" d="M50.69,65.715A2.651,2.651,0,0,0,49.3,68.49a6.41,6.41,0,0,0,1.389,2.989,4.87,4.87,0,0,0,1.282,1.281,4.58,4.58,0,0,0,1.709.534,2.222,2.222,0,0,0,2.03-.534,2.058,2.058,0,0,0,.321-1.067,4.208,4.208,0,0,0-1.282-3.843C53.788,66.568,52.506,64.861,50.69,65.715Z" transform="translate(3.371 -54.043)"/>
      <path id="Path_835" data-name="Path 835" class="cls-6" d="M57.214,66.544a6.007,6.007,0,0,1-2.671,4.8,10.81,10.81,0,0,1-2.137-5.55A9.285,9.285,0,0,1,61.381,54.8a18.734,18.734,0,0,1,8.334,1.6c1.175.427,2.564.961,3.526.107a6.335,6.335,0,0,1,.748,2.775,3.747,3.747,0,0,1-.534,2.135,5.389,5.389,0,0,1-3.1,2.455C61.06,65.9,56.787,60.886,56.68,61.1a4.145,4.145,0,0,0,.214,1.6A15.576,15.576,0,0,1,57.214,66.544Z" transform="translate(3.578 -54.766)"/>
    </g>
    <g id="Group_645" data-name="Group 645" transform="translate(110.524 95.311)">
      <path id="Path_836" data-name="Path 836" class="cls-17" d="M188.312,166.589l-2.671-51.342s-13.248-.747-17.094-.747c-2.137,0-5.769,1.067-8.654,1.921-2.671.854-4.915.747-6.3,3.309L131.9,161.252l13.355,1.281,4.487-5.017L147.5,154.1l8.12-19.106-.107,32.342Z" transform="translate(-101.501 -87.594)"/>
      <path id="Path_837" data-name="Path 837" class="cls-18" d="M154.617,126.5,140.3,152.438l4.487,5.23a8.471,8.471,0,0,0,3.526-.213l.748-.854-2.244-3.416,8.12-19.106Z" transform="translate(-100.927 -86.786)"/>
      <path id="Path_838" data-name="Path 838" class="cls-19" d="M165.409,153.675c-.534-.213-5.022-2.775-8.334-2.775s-7.372,3.522-7.372,3.522-.534,1.815,1.709,1.494l3.739-.534s-3.846,2.028-1.282,2.455c2.564.32,13.569,0,13.569,0Z" transform="translate(-100.287 -85.141)"/>
      <path id="Path_839" data-name="Path 839" class="cls-16" d="M166.336,160.8H123.6v-3.1h42.736a1.642,1.642,0,0,1,1.6,1.6h0A1.627,1.627,0,0,1,166.336,160.8Z" transform="translate(-102.069 -84.683)"/>
      <path id="Path_840" data-name="Path 840" class="cls-16" d="M155.96,162.837h-41.24a3.889,3.889,0,0,1-3.846-2.989l-7.265-27.432a4.016,4.016,0,0,1,3.846-5.017h36.005a3.889,3.889,0,0,1,3.846,2.989Z" transform="translate(-103.445 -86.725)"/>
      <path id="Path_841" data-name="Path 841" class="cls-20" d="M107.457,127.4a3.919,3.919,0,0,0-3.846,5.017l7.265,27.432a4.157,4.157,0,0,0,1.389,2.135L137.372,127.4Z" transform="translate(-103.448 -86.725)"/>
      <path id="Path_842" data-name="Path 842" class="cls-1" d="M130.337,146.5a2.446,2.446,0,0,1-2.564,3.2,4.6,4.6,0,0,1-4.167-3.2,2.446,2.446,0,0,1,2.564-3.2A4.357,4.357,0,0,1,130.337,146.5Z" transform="translate(-102.075 -85.653)"/>
      <path id="Path_843" data-name="Path 843" class="cls-19" d="M164.9,108.736c.321.747,2.992,10.887,2.992,10.887a3.242,3.242,0,0,0,3.1,1.494c2.244-.213,3.1-3.309,3.1-3.309L170.242,105Z" transform="translate(-99.244 -88.235)"/>
      <path id="Path_844" data-name="Path 844" class="cls-19" d="M179.321,103.4c0,7.045-7.479,14.73-14.423,14.73-7.051,0-10.9-7.792-10.9-14.73a12.661,12.661,0,1,1,25.321,0Z" transform="translate(-99.99 -89.198)"/>
      <path id="Path_845" data-name="Path 845" class="cls-1" d="M166.9,115.781l-1.5,3.843.962,4.056,2.992-4.27,2.992,4.8,3.312-5.871-2.244-3.843a5.561,5.561,0,0,1-3.526,3.1A2.355,2.355,0,0,1,166.9,115.781Z" transform="translate(-99.21 -87.594)"/>
      <path id="Path_846" data-name="Path 846" class="cls-16" d="M169.278,119.2l-2.244,2.775,1.068,1.708-1.6,3.522.321,23.056,2.244,4.7,3.205-5.23-.748-21.988-1.709-4.27,1.282-1.815Z" transform="translate(-99.135 -87.278)"/>
      <path id="Path_847" data-name="Path 847" class="cls-21" d="M184.877,125.2l.748,40.561-19.124-.213Z" transform="translate(-99.135 -86.873)"/>
      <path id="Path_848" data-name="Path 848" class="cls-17" d="M183.226,115.2l1.709,38.213L167.2,157.042l2.457,4.59,25.321,1.494L191.56,125.34a11.022,11.022,0,0,0-6.2-9.073Z" transform="translate(-99.087 -87.547)"/>
      <path id="Path_849" data-name="Path 849" class="cls-1" d="M164.4,153.5l3.526.427,3.1,5.123-5.876.427Z" transform="translate(-99.278 -84.966)"/>
      <path id="Path_850" data-name="Path 850" class="cls-6" d="M149.9,169.8l-31.3,8.005,15.919,62.549,5.449-2.775-4.7-53.8,27.992-8.753-16.24,9.286.321,51.021h4.915s13.782-49.954,15.065-49.954c1.389,0,24.466-15.37,24.466-15.37Z" transform="translate(-102.411 -83.867)"/>
      <path id="Path_851" data-name="Path 851" class="cls-6" d="M117.755,240.926l21.8-1.494.641-6.831L116.9,237.83Z" transform="translate(-102.527 -79.635)"/>
      <path id="Path_852" data-name="Path 852" class="cls-6" d="M134.3,244.863l4.38.534,12.287-4.59.321-9.607h-4.915l-2.244,5.977-6.624,4.056Z" transform="translate(-101.337 -79.729)"/>
      <path id="Path_853" data-name="Path 853" class="cls-22" d="M153.648,99.014a3.877,3.877,0,0,0-.641,2.989c.427,1.174,1.923,1.6,3.205,1.708,2.137.213,4.38.32,6.517.32a20.319,20.319,0,0,0,4.38-.427,25.308,25.308,0,0,0,6.517-2.882c1.5-.854,3.1-1.921,3.419-3.522.214-1.708-.962-3.2-2.03-4.376a18.2,18.2,0,0,0-2.03-2.028,9.28,9.28,0,0,0-6.731-1.388C160.379,90.261,156.319,94.1,153.648,99.014Z" transform="translate(-100.065 -89.293)"/>
      <path id="Path_854" data-name="Path 854" class="cls-22" d="M173.18,102.676a1.3,1.3,0,0,1,1.709-.747,1.9,1.9,0,0,1,1.175,1.6,3.5,3.5,0,0,1-.427,2.028c-.107.32-.321.64-.427.961a2.348,2.348,0,0,0-.107.854c0,1.281,0,2.455.107,3.736a4.6,4.6,0,0,0,2.137-2.348c1.175-2.135,2.35-4.376,2.137-6.831a11.836,11.836,0,0,0-2.137-5.55,3.324,3.324,0,0,0-.748-.961,2.413,2.413,0,0,0-1.709-.213,11.681,11.681,0,0,0-1.6.854c-.534.32-.962.64-1.5.961a4.428,4.428,0,0,0-1.282,1.174c-.427.961.214,1.388.748,1.921C171.684,100.328,171.15,106.518,173.18,102.676Z" transform="translate(-98.87 -88.899)"/>
      <g id="Group_643" data-name="Group 643" transform="translate(51.26 17.94)">
        <path id="Path_855" data-name="Path 855" class="cls-4" d="M155.779,112.611a4.792,4.792,0,0,1-4.167-3.2,2.75,2.75,0,0,1,.214-2.455,2.283,2.283,0,0,1,1.816-.854,4.792,4.792,0,0,1,4.167,3.2,2.75,2.75,0,0,1-.214,2.455A2.009,2.009,0,0,1,155.779,112.611Zm-2.137-6.084a1.47,1.47,0,0,0-1.389.64,2.224,2.224,0,0,0-.107,2.028,4.349,4.349,0,0,0,3.739,2.882,1.47,1.47,0,0,0,1.389-.64,2.225,2.225,0,0,0,.107-2.028A4.349,4.349,0,0,0,153.642,106.527Z" transform="translate(-151.426 -106.1)"/>
      </g>
      <g id="Group_644" data-name="Group 644" transform="translate(59.7 17.94)">
        <path id="Path_856" data-name="Path 856" class="cls-4" d="M163.679,112.611a4.792,4.792,0,0,1-4.167-3.2,2.75,2.75,0,0,1,.214-2.455,2.283,2.283,0,0,1,1.816-.854,4.792,4.792,0,0,1,4.167,3.2,2.75,2.75,0,0,1-.214,2.455A2.008,2.008,0,0,1,163.679,112.611Zm-2.137-6.084a1.47,1.47,0,0,0-1.389.64,2.225,2.225,0,0,0-.107,2.028,4.349,4.349,0,0,0,3.739,2.882,1.47,1.47,0,0,0,1.389-.64,2.224,2.224,0,0,0,.107-2.028A4.349,4.349,0,0,0,161.542,106.527Z" transform="translate(-159.326 -106.1)"/>
      </g>
    </g>
    <g id="Group_646" data-name="Group 646" transform="translate(199.258 73.171)">
      <path id="Path_857" data-name="Path 857" class="cls-6" d="M207.019,84.442c.107,2.028,1.175,3.949.641,5.871-.427,1.6-1.923,2.668-2.35,4.27-.534,1.815.427,3.629,1.282,5.23.748,1.388,1.816,2.882,3.312,2.882a4.559,4.559,0,0,0,1.923-.64l4.487-2.242a6.615,6.615,0,0,0,1.816-1.174,7.028,7.028,0,0,0,1.5-2.775,23.541,23.541,0,0,0,1.923-9.713c-.214-3.309-2.03-6.725-5.235-8.005-1.709-.64-6.838-1.281-8.334.213-.641.64-.321,1.388-.427,2.242C207.447,81.987,206.912,83.161,207.019,84.442Z" transform="translate(-185.224 -67.952)"/>
      <path id="Path_858" data-name="Path 858" class="cls-15" d="M211.192,93.3l-1.5.427a22.728,22.728,0,0,0-10.791,17.185L195.7,162.787l4.808-2.135Z" transform="translate(-185.871 -66.883)"/>
      <path id="Path_859" data-name="Path 859" class="cls-16" d="M242.492,93.068,216.85,92a30.654,30.654,0,0,0-8.12,1.281l-3.312,1.494,5.769,27.432h0a54.58,54.58,0,0,0-7.586,29.353l3.1,37.466h28.74l3.633-39.494a54.22,54.22,0,0,0-4.38-23.589l-1.6-3.629Z" transform="translate(-185.332 -66.971)"/>
      <path id="Path_860" data-name="Path 860" class="cls-23" d="M211.184,104.246a9.844,9.844,0,0,0,2.992,3.309,8.3,8.3,0,0,0,5.769.747,17.569,17.569,0,0,0,5.449-2.348,31.628,31.628,0,0,0,8.334-6.725c1.6-1.921,2.778-4.8,1.5-6.938a6.43,6.43,0,0,0-4.06-2.455C222.83,87.488,204.881,92.292,211.184,104.246Z" transform="translate(-184.901 -67.155)"/>
      <path id="Path_861" data-name="Path 861" class="cls-15" d="M231.28,81.182c0,6.831-7.265,16.118-14.1,16.118S206.6,88.013,206.6,81.182a12.34,12.34,0,1,1,24.68,0Z" transform="translate(-185.125 -68.534)"/>
      <path id="Path_862" data-name="Path 862" class="cls-15" d="M240.445,93l17.842,23.162a5.271,5.271,0,0,1-1.389,7.578l-20.834,12.7-2.564-4.056,14.317-11.421a2.522,2.522,0,0,0,.534-3.416L237.56,102.18Z" transform="translate(-183.285 -66.903)"/>
      <path id="Path_863" data-name="Path 863" class="cls-15" d="M186.5,160.883h11.218a3.4,3.4,0,0,0,3.419-3.2l.107-1.281Z" transform="translate(-186.5 -62.63)"/>
      <path id="Path_864" data-name="Path 864" class="cls-15" d="M215,88.369c-.214-.427,2.992,8.112,2.992,8.112s.748,3.522,3.633,2.668c2.992-.854,1.175-13.342.748-13.449C221.838,85.593,215.214,89.116,215,88.369Z" transform="translate(-184.551 -67.395)"/>
      <path id="Path_865" data-name="Path 865" class="cls-6" d="M222.977,79.6c-5.769,3.522-11.752,7.045-18.377,7.472,1.5-1.815,1.175-4.483,1.5-6.938a13.293,13.293,0,0,1,6.09-9.607,13.6,13.6,0,0,1,11.325-1.281,7.56,7.56,0,0,1,3.526,2.455C229.494,75.221,225.648,78,222.977,79.6Z" transform="translate(-185.262 -68.551)"/>
      <path id="Path_866" data-name="Path 866" class="cls-6" d="M221.375,93.155c.427,1.815,1.5,3.416,1.709,5.337a10.566,10.566,0,0,1-.427,3.629c-.321,1.388-.641,2.882-.962,4.27a12.041,12.041,0,0,0,5.342-2.668,20.775,20.775,0,0,0,7.372-19.533,29.654,29.654,0,0,0-1.816-5.977,13.659,13.659,0,0,0-2.244-4.27,5.277,5.277,0,0,0-4.06-2.242,6.163,6.163,0,0,0-4.808,2.775A6.506,6.506,0,0,0,220.2,78.1c0,1.281.534,5.764,1.709,6.3a3.088,3.088,0,0,1,4.38,1.6c.962,2.668-1.389,3.2-2.992,4.056C221.482,91.02,220.948,91.02,221.375,93.155Z" transform="translate(-184.195 -68.339)"/>
      <path id="Path_867" data-name="Path 867" class="cls-6" d="M234.5,84.409c1.175.961,2.564,1.6,3.633,2.668a3.871,3.871,0,0,1,1.175,4.163,6.918,6.918,0,0,1-1.816,2.135,3.19,3.19,0,0,0-1.175,2.455,3.7,3.7,0,0,0,.855,1.708,6.185,6.185,0,0,1,1.389,4.59,4.762,4.762,0,0,1-2.244,3.1,6.055,6.055,0,0,1-3.846.64,16.223,16.223,0,0,0-2.244-.32c-2.03.107-3.633,1.921-5.663,2.135a3.682,3.682,0,0,1-3.1-1.174,3.868,3.868,0,0,1-.962-3.2c.321-1.815,1.923-3.2,3.419-4.27,1.5-1.174,3.1-2.562,3.312-4.376.214-1.388-.534-2.775-.321-4.163.214-2.028,2.137-3.522,2.564-5.444.214-1.067-.107-3.949,1.6-3.949C232.363,81.207,233.538,83.662,234.5,84.409Z" transform="translate(-184.178 -67.705)"/>
      <path id="Path_868" data-name="Path 868" class="cls-6" d="M220.005,82.327a20.025,20.025,0,0,1-1.282,1.921L216.8,86.81a13.911,13.911,0,0,0,.427-5.123c0-.213-.107-.534,0-.747a1.605,1.605,0,0,1,.962-1.067c.641-.427,2.137-1.708,2.778-.854C221.394,79.659,220.326,81.793,220.005,82.327Z" transform="translate(-184.427 -67.865)"/>
    </g>
    <g id="Group_648" data-name="Group 648" transform="translate(248.725 93.752)">
      <path id="Path_869" data-name="Path 869" class="cls-6" d="M233.975,126.4l-1.175,1.067,4.06,4.7Z" transform="translate(-232.8 -85.234)"/>
      <path id="Path_870" data-name="Path 870" class="cls-24" d="M318.812,166.717l-2.671-51.342s-13.248-2.775-17.094-2.775c-2.137,0-5.769,1.067-8.654,1.921a11.065,11.065,0,0,0-6.3,5.337L262.4,161.38l13.355,1.281,4.487-5.017L278,154.228l8.12-19.106-.107,32.342Z" transform="translate(-230.775 -86.164)"/>
      <path id="Path_871" data-name="Path 871" class="cls-15" d="M315.094,102.1a12.67,12.67,0,0,1-12.714,12.7c-3.846,0-6.624-4.056-8.868-6.725-1.923-2.242-3.312-2.882-3.312-5.977a12.223,12.223,0,0,1,12.287-12.6A12.489,12.489,0,0,1,315.094,102.1Z" transform="translate(-228.874 -87.721)"/>
      <path id="Path_872" data-name="Path 872" class="cls-6" d="M286.648,162.837H242.2L232.8,127.4h44.339Z" transform="translate(-232.8 -85.166)"/>
      <path id="Path_873" data-name="Path 873" class="cls-1" d="M286.572,162.9H243.516L233.9,126.4l43.484,1.067Z" transform="translate(-232.725 -85.234)"/>
      <rect id="Rectangle_126" data-name="Rectangle 126" class="cls-6" width="30.45" height="2.562" transform="translate(9.829 75.109)"/>
      <path id="Path_874" data-name="Path 874" class="cls-25" d="M299.464,157.237l16.988-8.112L315.063,121.8l-2.992.213-22.009,23.056s-3.312,8.539-5.663,15.37v6.3l22.864-.427Z" transform="translate(-229.27 -85.544)"/>
      <path id="Path_875" data-name="Path 875" class="cls-16" d="M273.954,154.167H250.235L245,134.1l23.932.534Z" transform="translate(-231.965 -84.715)"/>
      <path id="Path_876" data-name="Path 876" class="cls-16" d="M280.4,169.8l-31.3,8.005,15.919,62.549,5.449-2.775-4.7-53.8,27.992-8.753-16.24,9.286.321,51.021h4.915s13.782-49.954,15.065-49.954c1.389,0,24.466-15.37,24.466-15.37Z" transform="translate(-231.685 -82.309)"/>
      <path id="Path_877" data-name="Path 877" class="cls-6" d="M248.255,240.926l21.8-1.494.641-6.831L247.4,237.83Z" transform="translate(-231.801 -78.077)"/>
      <path id="Path_878" data-name="Path 878" class="cls-4" d="M294.2,117.843a33.523,33.523,0,0,0,1.389,7.258,2.231,2.231,0,0,0,.748,1.388c.855.64,2.137.107,3.1-.534a16.677,16.677,0,0,0,4.274-3.949,7.555,7.555,0,0,0,1.709-3.309,3.6,3.6,0,0,0-.962-3.416c-1.5-1.281-4.594-1.174-6.41-1.281C295.378,114,293.882,115.067,294.2,117.843Z" transform="translate(-228.603 -86.069)"/>
      <path id="Path_879" data-name="Path 879" class="cls-6" d="M264.8,244.863l4.38.534,12.393-4.59.214-9.607h-4.915l-2.244,5.977-6.624,4.056Z" transform="translate(-230.611 -78.171)"/>
      <path id="Path_880" data-name="Path 880" class="cls-15" d="M297.262,107.374l-.962,10.674s.748,4.483,3.419,3.736a3.827,3.827,0,0,0,2.992-2.775l1.175-12.809Z" transform="translate(-228.456 -86.595)"/>
      <path id="Path_881" data-name="Path 881" class="cls-22" d="M307.194,98.045a15.518,15.518,0,0,0,5.876-1.067,5.482,5.482,0,0,0,3.312-4.59c0-2.028-2.137-3.843-3.953-3.309-.427.107-.855.427-1.282.534a3.779,3.779,0,0,1-2.137-.213c-5.128-1.494-10.9-2.562-15.706-.107a5.559,5.559,0,0,0-2.244,1.921,7.651,7.651,0,0,0-.534,2.242c-.214,2.028-.32,4.163-.427,6.191,1.389-.747,2.778-1.6,4.167-2.242s2.351,0,3.846.32A51.707,51.707,0,0,0,307.194,98.045Z" transform="translate(-228.88 -87.833)"/>
      <path id="Path_882" data-name="Path 882" class="cls-26" d="M295.249,94.2a4.848,4.848,0,0,0-3.739,1.067,11.654,11.654,0,0,0-1.709,5.337,6.562,6.562,0,0,1,.214,2.028,8.454,8.454,0,0,0,.427,1.815c.748,1.067,1.923,1.815,3.1,3.2,0,.107.107.107.107.213,1.282-2.135,3.205-6.938,3.633-7.472.534-.747,2.457-2.989,2.137-3.949S296.1,94.417,295.249,94.2Z" transform="translate(-228.901 -87.407)"/>
      <path id="Path_883" data-name="Path 883" class="cls-15" d="M295.151,99.134c-.107-.107-.214-.32-.32-.427a1.356,1.356,0,0,0-.641-.107,3,3,0,0,0-2.35.747,3.79,3.79,0,0,0-.427.961,6.9,6.9,0,0,0-.107,2.562c.107,1.281.748,2.775,2.03,2.989a2.28,2.28,0,0,0,2.137-.64C297.5,103.4,296.433,101.055,295.151,99.134Z" transform="translate(-228.803 -87.107)"/>
      <path id="Path_884" data-name="Path 884" class="cls-22" d="M310.944,105.568a4.29,4.29,0,0,1,2.03-.107,1.484,1.484,0,0,1,1.282,1.388c0,.32-.107.64-.107.961a5.939,5.939,0,0,0,.534,2.989c.748,2.028,1.282,4.59,0,6.4-1.175,1.708-3.526,2.135-5.556,2.135a15.807,15.807,0,0,1-13.889-10.567,10.569,10.569,0,0,1-.214-6.3c.214-.64.748-1.388,1.389-1.067a7.689,7.689,0,0,0,4.06,5.657C304.32,108.663,307.311,106.422,310.944,105.568Z" transform="translate(-228.57 -86.923)"/>
      <g id="Group_647" data-name="Group 647" transform="translate(1.175 41.166)">
        <path id="Path_885" data-name="Path 885" class="cls-6" d="M235.289,127.467l41.24.961,8.547,33.3H244.264l-8.975-34.263M233.9,126.4l9.616,36.5h42.95l-9.081-35.437L233.9,126.4Z" transform="translate(-233.9 -126.4)"/>
      </g>
      <path id="Path_886" data-name="Path 886" class="cls-1" d="M303.006,160.762H242V158.2h61.006a1.234,1.234,0,0,1,1.282,1.281h0A1.378,1.378,0,0,1,303.006,160.762Z" transform="translate(-232.171 -83.091)"/>
      <path id="Path_887" data-name="Path 887" class="cls-16" d="M272.129,160.762H242V158.2h30.129a1.234,1.234,0,0,1,1.282,1.281h0A1.378,1.378,0,0,1,272.129,160.762Z" transform="translate(-232.171 -83.091)"/>
      <path id="Path_888" data-name="Path 888" class="cls-24" d="M315.224,115.2l-11.111,29.353L275.8,148.289l1.068,5.657,36.219-1.174,9.829-25.724a6.269,6.269,0,0,0,.214-3.949,11.212,11.212,0,0,0-5.769-6.725Z" transform="translate(-229.859 -85.989)"/>
      <path id="Path_889" data-name="Path 889" class="cls-15" d="M276.8,146.712,261.518,138.6a1.617,1.617,0,0,0,.427,2.242c1.175.961,5.022,3.843,5.022,3.843v2.242c1.282,4.163,5.235,6.084,9.509,5.657l1.389-.107Z" transform="translate(-230.855 -84.412)"/>
    </g>
    <g id="Group_649" data-name="Group 649" transform="translate(331.808 85.868)">
      <path id="Path_890" data-name="Path 890" class="cls-27" d="M335.165,160.81H317s-.534-1.281,2.35-1.815,11.111-.747,11.111-.747L332.6,155.9l2.885.747Z" transform="translate(-310.126 -75.362)"/>
      <path id="Path_891" data-name="Path 891" class="cls-28" d="M349.245,108.705l-19.445,52.3,4.808,1.174,29.809-51.021s-.855-3.309-5.876-6.511C353.519,101.554,349.245,108.705,349.245,108.705Z" transform="translate(-309.248 -78.868)"/>
      <path id="Path_892" data-name="Path 892" class="cls-19" d="M350,86.268a12.744,12.744,0,0,0-17.522-3.843,13.015,13.015,0,0,0-5.769,9.82,6.573,6.573,0,0,0,.641,4.483c.855,1.815,2.992,4.376,1.709,8.005a2.1,2.1,0,0,0,.962,2.562c.962.427,1.923-.64,2.885-.747,1.816-.107,5.449,2.668,6.731,3.843a4.274,4.274,0,0,0,1.923,1.067,2.719,2.719,0,0,0,1.816-.427c2.778-1.494,4.487-4.376,5.876-7.152a23.741,23.741,0,0,0,2.671-8.326A12.692,12.692,0,0,0,350,86.268Z" transform="translate(-309.467 -80.447)"/>
      <path id="Path_893" data-name="Path 893" class="cls-19" d="M348.662,110.073c.534.534,1.175,1.174,1.923,1.067a1.921,1.921,0,0,0,.962-.427,17.433,17.433,0,0,0,2.137-1.815,2.642,2.642,0,0,0,.855-1.494,3.114,3.114,0,0,0-.214-.961c-1.282-2.882-3.953-5.123-4.808-8.112-.427-1.388-.427-2.882-.962-4.163s-1.6-2.668-2.992-2.668a4.843,4.843,0,0,0-2.35.854,8.148,8.148,0,0,0,.427,13.449A26.662,26.662,0,0,1,348.662,110.073Z" transform="translate(-308.558 -79.702)"/>
      <path id="Path_894" data-name="Path 894" class="cls-22" d="M332.421,82.425a12.744,12.744,0,0,0-5.021,6.511c2.457,1.174,8.654-1.494,10.363-2.455a11.981,11.981,0,0,0,5.769,10.674c2.244,1.281,4.915,1.921,7.051,3.2a19.709,19.709,0,0,0,1.175-4.8,12.144,12.144,0,0,0-1.816-9.286A12.744,12.744,0,0,0,332.421,82.425Z" transform="translate(-309.412 -80.447)"/>
      <path id="Path_895" data-name="Path 895" class="cls-19" d="M338.519,94.662a2.948,2.948,0,0,1,1.389-3.843,3.965,3.965,0,0,1,4.167.747,5.37,5.37,0,0,1,1.389,4.163c-.107,1.921-1.5,3.949-3.419,3.843a3.7,3.7,0,0,1-2.564-1.6,13.6,13.6,0,0,1-1.175-2.882" transform="translate(-308.671 -79.768)"/>
      <path id="Path_896" data-name="Path 896" class="cls-1" d="M355.2,103.07l-3.633-4.27L345.9,109.367l2.03,6.618,7.586-8.539Z" transform="translate(-308.146 -79.21)"/>
      <path id="Path_897" data-name="Path 897" class="cls-16" d="M359.34,103.383l33.975,37.786-20.834,18.252-25.428-39.067c-2.564-3.736,1.389-12.062,3.953-15.8h0A5.7,5.7,0,0,1,359.34,103.383Z" transform="translate(-308.124 -78.989)"/>
      <path id="Path_898" data-name="Path 898" class="cls-29" d="M390.459,254.726l-9.081-51.555L370.8,156.952,391.634,138.7l-1.175,63.937,5.128,49.527Z" transform="translate(-306.443 -76.521)"/>
      <path id="Path_899" data-name="Path 899" class="cls-6" d="M391.73,138.7,374.635,256.327l-5.235-.854,1.5-98.52Z" transform="translate(-306.539 -76.521)"/>
      <path id="Path_900" data-name="Path 900" class="cls-6" d="M360.671,252.737l13.676-.534.855-4.27-3.953-.534L358,251.136l.321,1.815Z" transform="translate(-307.319 -69.195)"/>
      <path id="Path_901" data-name="Path 901" class="cls-29" d="M395.006,245.054l.32,3.949-15.812.961-.214-1.281,14.1-4.483Z" transform="translate(-305.862 -69.411)"/>
      <path id="Path_902" data-name="Path 902" class="cls-19" d="M328.872,160.817H310.6s-.534-1.281,2.351-1.815,11.752-.747,11.752-.747l1.5-2.455,3.953,1.494Z" transform="translate(-310.563 -75.369)"/>
      <path id="Path_903" data-name="Path 903" class="cls-16" d="M353.95,106.647,340.06,132.691,323.5,161.617l5.342.213,14.744-20.387,19.552-24.977a6.756,6.756,0,0,0,1.816-8.432h0A6.633,6.633,0,0,0,353.95,106.647Z" transform="translate(-309.679 -78.838)"/>
      <path id="Path_904" data-name="Path 904" class="cls-30" d="M359.906,139.575c-.427-5.337-2.244-21.775-2.244-21.775L352,127.407Z" transform="translate(-307.729 -77.929)"/>
    </g>
    <g id="Group_650" data-name="Group 650" transform="translate(216.673 190.85)">
      <path id="Path_905" data-name="Path 905" class="cls-15" d="M219.272,178.8c-.962,0-8.334,3.1-8.334,3.1l5.769,47.712a34.618,34.618,0,0,1-4.38,1.388c-2.885.854-5.449,1.067-7.906,2.775-.214.107-.214.854-.321,1.067-.107.534.641.747,1.175.854,3.419.107,6.945.213,10.364,0,2.244-.107,3.953-1.174,5.983-2.242a3.375,3.375,0,0,0,1.5-3.1C223.118,230.142,220.127,178.8,219.272,178.8Z" transform="translate(-202.712 -178.8)"/>
      <path id="Path_906" data-name="Path 906" class="cls-6" d="M212.95,230.743a22.226,22.226,0,0,0,10.364-3.843c.214,2.242-.427,4.27-4.594,5.337-4.808,1.281-10.043,2.562-14.851,1.174-.534-.107-1.068-.427-1.068-.961a.922.922,0,0,1,.321-.64c.855-1.174,3.419-3.2,4.915-2.668.748.213,1.389,1.174,2.244,1.388A7.361,7.361,0,0,0,212.95,230.743Z" transform="translate(-202.8 -175.558)"/>
    </g>
    <g id="Group_651" data-name="Group 651" transform="translate(233.233 190.957)">
      <path id="Path_907" data-name="Path 907" class="cls-15" d="M218.3,232.1" transform="translate(-218.3 -175.315)"/>
      <path id="Path_908" data-name="Path 908" class="cls-15" d="M235.68,230.455c0-.213-2.992-51.555-3.846-51.555-.962,0-8.334,3.1-8.334,3.1l5.769,47.712a45.167,45.167,0,0,0,3.205,7.365,14.963,14.963,0,0,0,5.769,5.764,1.207,1.207,0,0,0,.855.107.809.809,0,0,0,.214-.427c.427-1.388-.214-2.882-.748-4.27C237.6,235.685,235.893,233.124,235.68,230.455Z" transform="translate(-217.944 -178.9)"/>
      <path id="Path_909" data-name="Path 909" class="cls-6" d="M230.518,233.511c1.5,2.775,3.312,5.55,6.2,6.831a2.719,2.719,0,0,0,1.5.32,1.83,1.83,0,0,0,1.389-1.494,3.648,3.648,0,0,0-.107-2.135,14.83,14.83,0,0,0-1.282-2.989,1.287,1.287,0,0,0-.534-.534,1.319,1.319,0,0,0-.855.427,2.462,2.462,0,0,1-2.564,0,6.592,6.592,0,0,1-1.923-1.921c-1.068-1.494-2.03-4.163-3.526-5.017C228.274,229.242,229.45,231.59,230.518,233.511Z" transform="translate(-217.59 -175.658)"/>
    </g>
    <g id="Group_652" data-name="Group 652" transform="translate(161.009 211.024)">
      <ellipse id="Ellipse_67" data-name="Ellipse 67" class="cls-6" cx="3.526" cy="3.522" rx="3.526" ry="3.522" transform="translate(0 41.949)"/>
      <ellipse id="Ellipse_68" data-name="Ellipse 68" class="cls-6" cx="3.526" cy="3.522" rx="3.526" ry="3.522" transform="translate(42.736 41.949)"/>
      <path id="Path_910" data-name="Path 910" class="cls-6" d="M176.951,240.522A3.526,3.526,0,1,1,173.426,237,3.555,3.555,0,0,1,176.951,240.522Z" transform="translate(-149.387 -195.051)"/>
      <path id="Path_911" data-name="Path 911" class="cls-31" d="M154,243.171v-1.815a7.5,7.5,0,0,1,7.479-7.472h13.889V197.7" transform="translate(-150.474 -197.7)"/>
      <path id="Path_912" data-name="Path 912" class="cls-31" d="M194.975,243.171v-1.815a7.5,7.5,0,0,0-7.479-7.472h-14V197.7" transform="translate(-149.14 -197.7)"/>
      <line id="Line_26" data-name="Line 26" class="cls-31" y1="9.286" transform="translate(24.039 36.185)"/>
      <rect id="Rectangle_127" data-name="Rectangle 127" class="cls-6" width="7.906" height="17.932" transform="translate(20.193 17.932)"/>
      <rect id="Rectangle_128" data-name="Rectangle 128" class="cls-6" width="5.022" height="20.387" transform="translate(21.475 0.32)"/>
    </g>
    <g id="Group_653" data-name="Group 653" transform="translate(297.337 211.024)">
      <ellipse id="Ellipse_69" data-name="Ellipse 69" class="cls-6" cx="3.526" cy="3.522" rx="3.526" ry="3.522" transform="translate(0 41.949)"/>
      <ellipse id="Ellipse_70" data-name="Ellipse 70" class="cls-6" cx="3.526" cy="3.522" rx="3.526" ry="3.522" transform="translate(42.736 41.949)"/>
      <ellipse id="Ellipse_71" data-name="Ellipse 71" class="cls-6" cx="3.526" cy="3.522" rx="3.526" ry="3.522" transform="translate(20.407 41.949)"/>
      <path id="Path_913" data-name="Path 913" class="cls-31" d="M281.6,243.171v-1.815a7.5,7.5,0,0,1,7.479-7.472h14V197.7" transform="translate(-278.074 -197.7)"/>
      <path id="Path_914" data-name="Path 914" class="cls-31" d="M322.575,243.171v-1.815a7.5,7.5,0,0,0-7.479-7.472h-14V197.7" transform="translate(-276.74 -197.7)"/>
      <line id="Line_27" data-name="Line 27" class="cls-31" y1="9.286" transform="translate(23.932 36.185)"/>
      <rect id="Rectangle_129" data-name="Rectangle 129" class="cls-6" width="7.906" height="17.932" transform="translate(20.193 17.932)"/>
      <rect id="Rectangle_130" data-name="Rectangle 130" class="cls-6" width="5.022" height="20.387" transform="translate(21.475 0.32)"/>
    </g>
    <g id="Group_654" data-name="Group 654" transform="translate(97.866 171.423)">
      <rect id="Rectangle_131" data-name="Rectangle 131" class="cls-32" width="243.917" height="38.64" transform="translate(9.509 3.736)"/>
      <rect id="Rectangle_132" data-name="Rectangle 132" class="cls-6" width="4.06" height="98.414" transform="translate(9.829 4.056)"/>
      <rect id="Rectangle_133" data-name="Rectangle 133" class="cls-6" width="4.06" height="98.414" transform="translate(252.037 4.056)"/>
      <path id="Path_915" data-name="Path 915" class="cls-33" d="M347.215,186.922,100.2,164.4H347.215Z" transform="translate(-91.012 -160.344)"/>
      <rect id="Rectangle_134" data-name="Rectangle 134" class="cls-13" width="265.285" height="6.511"/>
    </g>
  </g>
</svg>
