<svg xmlns="http://www.w3.org/2000/svg" viewBox="2367.425 3137.937 228.575 413.266">
  <defs>
    <style>
      .cls-1, .cls-2 {
        fill: #bab2fc;
      }

      .cls-1 {
        opacity: 0.54;
      }

      .cls-3 {
        fill: #e5ae81;
      }

      .cls-4 {
        fill: #7e474a;
      }

      .cls-5 {
        fill: #da896f;
      }

      .cls-6 {
        fill: #965c52;
      }

      .cls-7 {
        fill: #283543;
      }

      .cls-8 {
        fill: #f2f3cd;
      }

      .cls-9 {
        fill: #a38037;
      }

      .cls-10 {
        fill: #7e612e;
      }

      .cls-11 {
        fill: #242c34;
      }

      .cls-12 {
        fill: #c48056;
      }

      .cls-13 {
        fill: #5a4029;
      }

      .cls-14 {
        fill: #4a3622;
      }

      .cls-15 {
        fill: #965429;
      }

      .cls-16 {
        fill: #eab64b;
      }
    </style>
  </defs>
  <g id="man1" transform="translate(1990)">
    <g id="Group_92" data-name="Group 92" transform="translate(395.355 3137.937)">
      <ellipse id="Ellipse_55" data-name="Ellipse 55" class="cls-1" cx="97.989" cy="167.094" rx="97.989" ry="167.094" transform="translate(4.429 73.858)"/>
      <path id="Path_88" data-name="Path 88" class="cls-2" d="M8.5,547.328s102.29-19.6,210.645,4.388C219.145,551.643,108.445,569.12,8.5,547.328Z" transform="translate(-8.5 -145.012)"/>
      <g id="Group_91" data-name="Group 91" transform="translate(13.935 0)">
        <path id="Path_89" data-name="Path 89" class="cls-3" d="M145.5,275.8s-8.336,1.828-8.7,5.777c0,4.022,7.24,14.845,11.993,17.038,2.559,1.1,6.143-7.605,5.777-8.7s-4.022,2.559-4.022,2.559l.366-5.046-2.925,1.463C148.061,288.816,150.182,278.359,145.5,275.8Z" transform="translate(-36.763 -74.07)"/>
        <path id="Path_90" data-name="Path 90" class="cls-3" d="M79.778,56.014s8.7,2.925,10.165-2.413,5.338-13.09,3.876-14.04-6.289,7.751-6.289,7.751l.512-7.24s2.925-9.653,0-14.04-1.9,6.8-3.876,11.115c-1.9,4.388-5.338,10.676-7.24,12.066C74.951,50.675,79.778,56.014,79.778,56.014Z" transform="translate(-20.545 -6.679)"/>
        <g id="Group_90" data-name="Group 90" transform="translate(64.772)">
          <g id="Group_89" data-name="Group 89">
            <g id="Group_88" data-name="Group 88">
              <path id="Path_91" data-name="Path 91" class="cls-4" d="M101.955,41.3s-9.8,5.192-10.165,12.139c-.439,6.947,4.9,25.521,4.9,25.521S112.412,51.172,101.955,41.3Z" transform="translate(-89.433 -11.051)"/>
              <path id="Path_92" data-name="Path 92" class="cls-3" d="M146.729,95.479C135.1,115.3,113.6,117.417,103.877,112.956S85.3,94.528,89.763,84.8s5.046-17.55,5.7-30.567c.658-13.09,13.309-19.525,13.309-19.525S132.031,23.23,151.409,41.8C170.861,60.451,146.729,95.479,146.729,95.479Z" transform="translate(-88.575 -8.337)"/>
              <path id="Path_93" data-name="Path 93" class="cls-5" d="M167.886,106.372s12.724-11.7,13.382-1.024S156.99,127.213,167.886,106.372Z" transform="translate(-109.148 -27.056)"/>
              <path id="Path_94" data-name="Path 94" class="cls-5" d="M145.865,68.7s.8,17.7-.658,25.667c-1.463,7.9-7.459,24.424-31.079,28.227-8.483-1.609-18.428-8.117-18.428-8.117a22.557,22.557,0,0,0,16.673,11.335c11.993,1.682,27.715-4.168,36.124-17.843,6.362-12.285,11.846-35.32,11.846-35.32Z" transform="translate(-90.49 -18.414)"/>
              <path id="Path_95" data-name="Path 95" class="cls-4" d="M129.321,38.813S111.99,51.39,104.6,43.858,83.4,16.143,97.95,3.931,153.307,8.977,164.129,35.6a8.418,8.418,0,0,1-6.069,4.168s6.874,5.7,6.581,11.773c-.951,5.119-9.726,23.693-9.726,23.693s-5.7,2.413-10.75,10.311l-3.071-2.34,10.53-23.547Z" transform="translate(-89.376 0.065)"/>
              <path id="Path_96" data-name="Path 96" class="cls-6" d="M114.18,4.369S99.263,2.76,97.8,13.656c1.389,11.408,52.578,19.744,53.09,16.965.512-2.852-22.157-16.453-19.744-16.6,2.34-.146,21.06,9.8,26.545,17.843C156.74,27.55,145.405,9.561,114.18,4.369Z" transform="translate(-91.054 -1.104)"/>
              <path id="Path_97" data-name="Path 97" class="cls-6" d="M172.733,59.945s7.532-.366,6.508,7.386c-1.316,7.24-4.826,7.02-7.166,5.265s-16.234-14.479-10.311-12.943A24.662,24.662,0,0,0,172.733,59.945Z" transform="translate(-107.852 -15.949)"/>
            </g>
            <path id="Path_98" data-name="Path 98" class="cls-4" d="M127.1,80.573s11.408,1.243,16.161,4.241c.073-2.486-7.093-7.02-9.726-7.532C130.976,76.771,127.1,80.573,127.1,80.573Z" transform="translate(-98.928 -20.708)"/>
            <path id="Path_99" data-name="Path 99" class="cls-4" d="M108.158,76.544s-8.483-.366-12.358,1.243c.219-1.828,6-4.314,7.971-4.388S108.158,76.544,108.158,76.544Z" transform="translate(-90.517 -19.677)"/>
            <ellipse id="Ellipse_45" data-name="Ellipse 45" class="cls-4" cx="2.852" cy="1.755" rx="2.852" ry="1.755" transform="translate(29.959 70.082) rotate(-79.432)"/>
            <path id="Path_100" data-name="Path 100" class="cls-4" d="M105.707,86.435c-.293,1.536-1.316,2.706-2.267,2.486-.951-.146-1.463-1.609-1.17-3.144s1.316-2.706,2.267-2.486C105.487,83.437,106,84.9,105.707,86.435Z" transform="translate(-92.234 -22.328)"/>
            <path id="Path_101" data-name="Path 101" class="cls-5" d="M105.475,98.377,91.8,92.6s.146,12.651,10.091,11.627C105.109,104.008,105.475,98.377,105.475,98.377Z" transform="translate(-89.442 -24.837)"/>
          </g>
        </g>
        <path id="Path_102" data-name="Path 102" class="cls-7" d="M70.6,304.091S91.149,455.755,91.149,474.622a31.671,31.671,0,0,0,3.656.731s-2.925,4.388-10.9,7.24c-5.777,2.925,17.4.731,20.329-1.463-.731-2.194-5.046-7.24-5.046-7.24,1.463-1.463-1.024-137.843-1.024-137.843s32.249,100.11,37.294,142.889h-.731l5.046,2.925-9.433,7.24s15.576,0,16.307-3.656c-.731-3.656-1.463-6.508-1.463-6.508S123.544,319.3,121.862,305.481C112.94,298.314,70.6,304.091,70.6,304.091Z" transform="translate(-18.973 -81.081)"/>
        <path id="Path_103" data-name="Path 103" class="cls-8" d="M115.418,153.1s20.695,11.627,22.889,13.455,5.7,5.192,5.7,5.192l-12.139,14.479s-21.28,48.848-11.115,79.342c0,0-23.693,10.676-51.262-1.463-1.1-7.313-6.8-10.165,0-87.605.951-6.289-1.9-17.4-1.9-17.4l36.271-4.388Z" transform="translate(-17.794 -41.096)"/>
        <path id="Path_104" data-name="Path 104" class="cls-5" d="M114.659,142.6s1.463,7.24-2.559,12.724c.731.366,5.411,3.291,5.411,3.291l10.53-5.046-1.828-10.9H114.659Z" transform="translate(-30.125 -38.274)"/>
        <path id="Path_105" data-name="Path 105" class="cls-9" d="M105.039,158s-3.364,7.24-3.364,10.676c.951,0,9.653-3.876,9.653-3.876l8.19,9.214s7.24-7.24,6.8-14.991c1.463,3.876-1.9,15.942-5.777,18.355-3.876-.951-9.214-9.653-9.214-9.653L97.8,173.064C97.726,172.991,99.7,163.85,105.039,158Z" transform="translate(-26.282 -42.413)"/>
        <path id="Path_106" data-name="Path 106" class="cls-9" d="M109.7,171.029l1.024,7.605,7.313-3.583-3.51-7.751Z" transform="translate(-29.48 -44.912)"/>
        <path id="Path_107" data-name="Path 107" class="cls-9" d="M105.792,177.094S93.58,230.4,92.7,255.339l-9.141,9.068L77.2,251.39s17.77-59.159,25.082-76.49A8.826,8.826,0,0,0,105.792,177.094Z" transform="translate(-20.746 -46.954)"/>
        <path id="Path_108" data-name="Path 108" class="cls-10" d="M94.236,254.825c1.463-15.5,5.411-36.856,8.556-52.066L96.576,200.2C91.091,216.434,84.583,237.275,81,249.048,85.388,250.877,90.141,253,94.236,254.825Z" transform="translate(-21.768 -53.753)"/>
        <path id="Path_109" data-name="Path 109" class="cls-11" d="M69,300.3s27.569,9.653,51.774.731c.878,4.314,1.243,7.971,1.243,7.971s-27.349,7.971-51.262-1.463C70.17,307.54,69,300.3,69,300.3Z" transform="translate(-18.543 -80.654)"/>
        <path id="Path_110" data-name="Path 110" class="cls-7" d="M77.728,310.968,75.9,301.9l4.753,1.463,1.1,10.165S78.459,311.333,77.728,310.968Z" transform="translate(-20.397 -81.084)"/>
        <path id="Path_111" data-name="Path 111" class="cls-7" d="M123.848,312.736l2.194-8.336-5.046.731L119.9,315.3C119.826,315.3,123.117,313.1,123.848,312.736Z" transform="translate(-32.221 -81.756)"/>
        <path id="Path_112" data-name="Path 112" class="cls-8" d="M56.6,131.982s-23.912-3.656-32.688-38.464c0,0,27.569-24.644,38.465-26.106,1.463-3.656,0-12.358-7.24-11.627,0,0-34.077,10.165-55.137,36.271,0,0,17.4,50.092,55.137,64.571,6.581-5.046,4.1-24.644,4.1-24.644" transform="translate(0 -14.932)"/>
        <path id="Path_113" data-name="Path 113" class="cls-8" d="M164.686,177.9s27.2,28.3,33.053,50.092c0,0-22.523,25.375-47.167,30.494,0,0-5.046-5.777-1.463-11.627,2.194-2.925,18.867-10.9,23.912-21.06,1.463-4.388-17.4-30.494-26.837-33.419S164.686,177.9,164.686,177.9Z" transform="translate(-38.762 -47.76)"/>
        <path id="Path_114" data-name="Path 114" class="cls-12" d="M101.578,117.95s11.627.512,17.185,3.364a2.928,2.928,0,0,0,.585,1.463,16.216,16.216,0,0,1,1.024-3.364c-.366,0-1.1,1.463-1.1,1.463a39.269,39.269,0,0,0-17.112-3.656l-.293-.146s-.512-1.024-.731-.878a21.186,21.186,0,0,1-.439,3.291C100.919,119.047,101.578,117.95,101.578,117.95Z" transform="translate(-27.062 -31.174)"/>
      </g>
    </g>
    <g id="Group_99" data-name="Group 99" transform="translate(377.425 3259.267)">
      <rect id="Rectangle_54" data-name="Rectangle 54" class="cls-13" width="10.085" height="282.611" transform="translate(52.229)"/>
      <g id="Group_94" data-name="Group 94" transform="translate(13.691 17.522)">
        <rect id="Rectangle_55" data-name="Rectangle 55" class="cls-14" width="10.085" height="12.001" transform="translate(38.538 27.213)"/>
        <g id="Group_93" data-name="Group 93">
          <path id="Path_116" data-name="Path 116" class="cls-15" d="M128.567,49l-10.7-13.3H29.8V67.59h88.062l12.79-16V49Z" transform="translate(-29.8 -33.108)"/>
          <path id="Path_117" data-name="Path 117" class="cls-16" d="M117.862,62.99H29.8V31.1h88.062l12.79,15.888Z" transform="translate(-29.8 -31.1)"/>
        </g>
      </g>
      <g id="Group_96" data-name="Group 96" transform="translate(13.691 129.924)">
        <rect id="Rectangle_56" data-name="Rectangle 56" class="cls-14" width="10.085" height="12.001" transform="translate(38.538 27.213)"/>
        <g id="Group_95" data-name="Group 95">
          <path id="Path_118" data-name="Path 118" class="cls-15" d="M128.567,248.5l-10.7-13.3H29.8v31.89h88.062l12.79-16V248.5Z" transform="translate(-29.8 -232.608)"/>
          <path id="Path_119" data-name="Path 119" class="cls-16" d="M117.862,262.433H29.8V230.6h88.062l12.79,15.888Z" transform="translate(-29.8 -230.6)"/>
        </g>
      </g>
      <g id="Group_98" data-name="Group 98" transform="translate(0 72.287)">
        <rect id="Rectangle_57" data-name="Rectangle 57" class="cls-14" width="10.085" height="12.001" transform="translate(62.292 39.276) rotate(180)"/>
        <g id="Group_97" data-name="Group 97">
          <path id="Path_120" data-name="Path 120" class="cls-15" d="M7.585,146.24,18.29,133h88.062v31.833H18.29L5.5,148.888V146.24Z" transform="translate(-5.5 -130.352)"/>
          <path id="Path_121" data-name="Path 121" class="cls-16" d="M18.29,160.19h88.062V128.3H18.29L5.5,144.188Z" transform="translate(-5.5 -128.3)"/>
        </g>
      </g>
    </g>
  </g>
</svg>
